<?xml version="1.0"?>
<!DOCTYPE svg PUBLIC '-//W3C//DTD SVG 1.0//EN'
          'http://www.w3.org/TR/2001/REC-SVG-20010904/DTD/svg10.dtd'>
<svg xmlns:xlink="http://www.w3.org/1999/xlink" style="fill-opacity:1; color-rendering:auto; color-interpolation:auto; text-rendering:auto; stroke:black; stroke-linecap:square; stroke-miterlimit:10; shape-rendering:auto; stroke-opacity:1; fill:black; stroke-dasharray:none; font-weight:normal; stroke-width:1; font-family:'Dialog'; font-style:normal; stroke-linejoin:miter; font-size:12px; stroke-dashoffset:0; image-rendering:auto;" width="740" height="420" xmlns="http://www.w3.org/2000/svg"
><!--Generated by the Batik Graphics2D SVG Generator--><defs id="genericDefs"
  /><g
  ><defs id="defs1"
    ><clipPath clipPathUnits="userSpaceOnUse" id="clipPath1"
      ><path d="M0 0 L740 0 L740 420 L0 420 L0 0 Z"
      /></clipPath
    ></defs
    ><g style="fill:white; stroke:white;"
    ><rect x="0" y="0" width="740" style="clip-path:url(#clipPath1); stroke:none;" height="420"
    /></g
    ><g style="fill:white; text-rendering:optimizeSpeed; color-rendering:optimizeSpeed; image-rendering:optimizeSpeed; shape-rendering:crispEdges; stroke:white; color-interpolation:sRGB;"
    ><rect x="0" width="740" height="420" y="0" style="stroke:none;"
      /><path style="stroke:none;" d="M70 362 L489 362 L489 31 L70 31 Z"
    /></g
    ><g style="fill:rgb(38,38,38); text-rendering:geometricPrecision; image-rendering:optimizeQuality; color-rendering:optimizeQuality; stroke-linejoin:round; stroke:rgb(38,38,38); color-interpolation:linearRGB; stroke-width:2.6667;"
    ><line y2="362" style="fill:none;" x1="70" x2="489" y1="362"
      /><line y2="31" style="fill:none;" x1="70" x2="489" y1="31"
      /><line y2="357.81" style="fill:none;" x1="70" x2="70" y1="362"
      /><line y2="357.81" style="fill:none;" x1="111.9" x2="111.9" y1="362"
      /><line y2="357.81" style="fill:none;" x1="153.8" x2="153.8" y1="362"
      /><line y2="357.81" style="fill:none;" x1="195.7" x2="195.7" y1="362"
      /><line y2="357.81" style="fill:none;" x1="237.6" x2="237.6" y1="362"
      /><line y2="357.81" style="fill:none;" x1="279.5" x2="279.5" y1="362"
      /><line y2="357.81" style="fill:none;" x1="321.4" x2="321.4" y1="362"
      /><line y2="357.81" style="fill:none;" x1="363.3" x2="363.3" y1="362"
      /><line y2="357.81" style="fill:none;" x1="405.2" x2="405.2" y1="362"
      /><line y2="357.81" style="fill:none;" x1="447.1" x2="447.1" y1="362"
      /><line y2="357.81" style="fill:none;" x1="489" x2="489" y1="362"
      /><line y2="35.19" style="fill:none;" x1="70" x2="70" y1="31"
      /><line y2="35.19" style="fill:none;" x1="111.9" x2="111.9" y1="31"
      /><line y2="35.19" style="fill:none;" x1="153.8" x2="153.8" y1="31"
      /><line y2="35.19" style="fill:none;" x1="195.7" x2="195.7" y1="31"
      /><line y2="35.19" style="fill:none;" x1="237.6" x2="237.6" y1="31"
      /><line y2="35.19" style="fill:none;" x1="279.5" x2="279.5" y1="31"
      /><line y2="35.19" style="fill:none;" x1="321.4" x2="321.4" y1="31"
      /><line y2="35.19" style="fill:none;" x1="363.3" x2="363.3" y1="31"
      /><line y2="35.19" style="fill:none;" x1="405.2" x2="405.2" y1="31"
      /><line y2="35.19" style="fill:none;" x1="447.1" x2="447.1" y1="31"
      /><line y2="35.19" style="fill:none;" x1="489" x2="489" y1="31"
    /></g
    ><g transform="translate(70,368.4)" style="font-size:18.6667px; fill:rgb(38,38,38); text-rendering:geometricPrecision; image-rendering:optimizeQuality; color-rendering:optimizeQuality; font-family:'Candara'; stroke:rgb(38,38,38); color-interpolation:linearRGB; font-weight:bold;"
    ><path style="stroke:none;" d="M4.3125 11.0938 Q4.3125 13.75 3.2031 15.0625 Q2.0938 16.375 -0.0312 16.375 Q-2.0781 16.375 -3.125 15.2188 Q-4.1719 14.0625 -4.1719 11.5469 Q-4.1719 8.9531 -3.0391 7.4844 Q-1.9062 6.0156 0.2031 6.0156 Q2.2344 6.0156 3.2734 7.3281 Q4.3125 8.6406 4.3125 11.0938 ZM2.0156 11.6719 Q2.0156 9.9844 1.5469 8.8906 Q1.0781 7.7969 -0.0156 7.7969 Q-1.8438 7.7969 -1.8438 10.9219 Q-1.8438 12.7969 -1.3672 13.6875 Q-0.8906 14.5781 0.1719 14.5781 Q2.0156 14.5781 2.0156 11.6719 Z"
    /></g
    ><g transform="translate(111.9,368.4)" style="font-size:18.6667px; fill:rgb(38,38,38); text-rendering:geometricPrecision; image-rendering:optimizeQuality; color-rendering:optimizeQuality; font-family:'Candara'; stroke:rgb(38,38,38); color-interpolation:linearRGB; font-weight:bold;"
    ><path style="stroke:none;" d="M-1.1875 11.0938 Q-1.1875 13.75 -2.2969 15.0625 Q-3.4062 16.375 -5.5312 16.375 Q-7.5781 16.375 -8.625 15.2188 Q-9.6719 14.0625 -9.6719 11.5469 Q-9.6719 8.9531 -8.5391 7.4844 Q-7.4062 6.0156 -5.2969 6.0156 Q-3.2656 6.0156 -2.2266 7.3281 Q-1.1875 8.6406 -1.1875 11.0938 ZM-3.4844 11.6719 Q-3.4844 9.9844 -3.9531 8.8906 Q-4.4219 7.7969 -5.5156 7.7969 Q-7.3438 7.7969 -7.3438 10.9219 Q-7.3438 12.7969 -6.8672 13.6875 Q-6.3906 14.5781 -5.3281 14.5781 Q-3.4844 14.5781 -3.4844 11.6719 ZM3.4502 14.3906 Q3.4502 15.0625 2.9814 15.5781 Q2.5127 16.0938 1.7002 16.0938 Q0.997 16.0938 0.6064 15.6484 Q0.2158 15.2031 0.2158 14.5781 Q0.2158 13.9062 0.6845 13.4062 Q1.1533 12.9062 1.997 12.9062 Q2.7002 12.9062 3.0752 13.3359 Q3.4502 13.7656 3.4502 14.3906 ZM9.0413 16 L6.5569 16 Q6.6663 13.6094 6.6663 12.1406 Q6.6663 10.6406 6.6038 8.9531 L5.1194 9.5938 L4.635 8.7031 L7.885 6.2031 L9.0413 6.2031 Q8.9319 10.0312 8.9319 12.1406 Q8.9319 13.5625 9.0413 16 Z"
    /></g
    ><g transform="translate(153.8,368.4)" style="font-size:18.6667px; fill:rgb(38,38,38); text-rendering:geometricPrecision; image-rendering:optimizeQuality; color-rendering:optimizeQuality; font-family:'Candara'; stroke:rgb(38,38,38); color-interpolation:linearRGB; font-weight:bold;"
    ><path style="stroke:none;" d="M-2.6875 11.0938 Q-2.6875 13.75 -3.7969 15.0625 Q-4.9062 16.375 -7.0312 16.375 Q-9.0781 16.375 -10.125 15.2188 Q-11.1719 14.0625 -11.1719 11.5469 Q-11.1719 8.9531 -10.0391 7.4844 Q-8.9062 6.0156 -6.7969 6.0156 Q-4.7656 6.0156 -3.7266 7.3281 Q-2.6875 8.6406 -2.6875 11.0938 ZM-4.9844 11.6719 Q-4.9844 9.9844 -5.4531 8.8906 Q-5.9219 7.7969 -7.0156 7.7969 Q-8.8438 7.7969 -8.8438 10.9219 Q-8.8438 12.7969 -8.3672 13.6875 Q-7.8906 14.5781 -6.8281 14.5781 Q-4.9844 14.5781 -4.9844 11.6719 ZM1.9502 14.3906 Q1.9502 15.0625 1.4814 15.5781 Q1.0127 16.0938 0.2002 16.0938 Q-0.503 16.0938 -0.8936 15.6484 Q-1.2842 15.2031 -1.2842 14.5781 Q-1.2842 13.9062 -0.8155 13.4062 Q-0.3467 12.9062 0.497 12.9062 Q1.2002 12.9062 1.5752 13.3359 Q1.9502 13.7656 1.9502 14.3906 ZM10.8538 14.0156 L10.6507 16 L3.5882 16 L3.7913 14.1406 Q7.6975 11.9531 7.6975 9.75 Q7.6975 7.9219 5.1663 7.9219 Q4.4944 7.9219 3.7288 8.0625 L3.9163 6.3281 Q4.7132 6.125 6.1975 6.125 Q8.0882 6.125 9.0804 6.9375 Q10.0725 7.75 10.0725 9.1406 Q10.0725 10.875 8.7835 12.1328 Q7.4944 13.3906 6.0413 14.0312 L6.0413 14.1562 Q8.0882 14.1562 10.8538 14.0156 Z"
    /></g
    ><g transform="translate(195.7,368.4)" style="font-size:18.6667px; fill:rgb(38,38,38); text-rendering:geometricPrecision; image-rendering:optimizeQuality; color-rendering:optimizeQuality; font-family:'Candara'; stroke:rgb(38,38,38); color-interpolation:linearRGB; font-weight:bold;"
    ><path style="stroke:none;" d="M-2.6875 11.0938 Q-2.6875 13.75 -3.7969 15.0625 Q-4.9062 16.375 -7.0312 16.375 Q-9.0781 16.375 -10.125 15.2188 Q-11.1719 14.0625 -11.1719 11.5469 Q-11.1719 8.9531 -10.0391 7.4844 Q-8.9062 6.0156 -6.7969 6.0156 Q-4.7656 6.0156 -3.7266 7.3281 Q-2.6875 8.6406 -2.6875 11.0938 ZM-4.9844 11.6719 Q-4.9844 9.9844 -5.4531 8.8906 Q-5.9219 7.7969 -7.0156 7.7969 Q-8.8438 7.7969 -8.8438 10.9219 Q-8.8438 12.7969 -8.3672 13.6875 Q-7.8906 14.5781 -6.8281 14.5781 Q-4.9844 14.5781 -4.9844 11.6719 ZM1.9502 14.3906 Q1.9502 15.0625 1.4814 15.5781 Q1.0127 16.0938 0.2002 16.0938 Q-0.503 16.0938 -0.8936 15.6484 Q-1.2842 15.2031 -1.2842 14.5781 Q-1.2842 13.9062 -0.8155 13.4062 Q-0.3467 12.9062 0.497 12.9062 Q1.2002 12.9062 1.5752 13.3359 Q1.9502 13.7656 1.9502 14.3906 ZM10.7757 14.6406 Q10.7757 16.5156 8.9788 17.9062 Q6.9319 19.4844 3.2913 19.7031 L3.0413 18.1562 Q5.4788 18 6.9007 17.1562 Q8.3694 16.3125 8.3694 14.9531 Q8.3694 12.75 4.2288 12.75 L4.4319 11.2656 Q5.9632 11.2656 6.9319 10.7344 Q7.9007 10.2031 7.9007 9.3906 Q7.9007 7.9062 5.5725 7.9062 Q4.5413 7.9062 3.7288 8.0781 L3.9007 6.3594 Q4.5569 6.125 6.5569 6.125 Q8.3069 6.125 9.26 6.8438 Q10.1194 7.5156 10.1194 8.6719 Q10.1194 9.5781 9.4632 10.3438 Q8.8694 11.0312 7.9944 11.3125 L7.9944 11.4531 Q9.2288 11.6562 10.0022 12.5234 Q10.7757 13.3906 10.7757 14.6406 Z"
    /></g
    ><g transform="translate(237.6,368.4)" style="font-size:18.6667px; fill:rgb(38,38,38); text-rendering:geometricPrecision; image-rendering:optimizeQuality; color-rendering:optimizeQuality; font-family:'Candara'; stroke:rgb(38,38,38); color-interpolation:linearRGB; font-weight:bold;"
    ><path style="stroke:none;" d="M-3.1875 11.0938 Q-3.1875 13.75 -4.2969 15.0625 Q-5.4062 16.375 -7.5312 16.375 Q-9.5781 16.375 -10.625 15.2188 Q-11.6719 14.0625 -11.6719 11.5469 Q-11.6719 8.9531 -10.5391 7.4844 Q-9.4062 6.0156 -7.2969 6.0156 Q-5.2656 6.0156 -4.2266 7.3281 Q-3.1875 8.6406 -3.1875 11.0938 ZM-5.4844 11.6719 Q-5.4844 9.9844 -5.9531 8.8906 Q-6.4219 7.7969 -7.5156 7.7969 Q-9.3438 7.7969 -9.3438 10.9219 Q-9.3438 12.7969 -8.8672 13.6875 Q-8.3906 14.5781 -7.3281 14.5781 Q-5.4844 14.5781 -5.4844 11.6719 ZM1.4502 14.3906 Q1.4502 15.0625 0.9814 15.5781 Q0.5127 16.0938 -0.2998 16.0938 Q-1.003 16.0938 -1.3936 15.6484 Q-1.7842 15.2031 -1.7842 14.5781 Q-1.7842 13.9062 -1.3155 13.4062 Q-0.8467 12.9062 -0.003 12.9062 Q0.7002 12.9062 1.0752 13.3359 Q1.4502 13.7656 1.4502 14.3906 ZM11.5257 12.7969 L11.3382 14.7969 L9.8538 14.7969 Q9.8538 16.5312 9.9632 19.0625 L7.5257 19.0625 Q7.6038 16.7188 7.6038 14.7969 L2.8225 14.7969 L2.635 13.0469 Q2.635 12.875 5.0179 9.6562 Q7.4007 6.4375 7.4319 6.2188 L9.9632 6.2188 Q9.8538 9.3281 9.8538 12.875 Q10.6663 12.875 11.5257 12.7969 ZM7.8225 8.2188 L7.6975 8.2188 Q7.6975 8.4219 6.1038 10.5703 Q4.51 12.7188 4.51 12.8594 L4.51 12.9688 Q5.6975 12.9688 7.6663 12.9219 Q7.7288 10.3281 7.8225 8.2188 Z"
    /></g
    ><g transform="translate(279.5,368.4)" style="font-size:18.6667px; fill:rgb(38,38,38); text-rendering:geometricPrecision; image-rendering:optimizeQuality; color-rendering:optimizeQuality; font-family:'Candara'; stroke:rgb(38,38,38); color-interpolation:linearRGB; font-weight:bold;"
    ><path style="stroke:none;" d="M-2.6875 11.0938 Q-2.6875 13.75 -3.7969 15.0625 Q-4.9062 16.375 -7.0312 16.375 Q-9.0781 16.375 -10.125 15.2188 Q-11.1719 14.0625 -11.1719 11.5469 Q-11.1719 8.9531 -10.0391 7.4844 Q-8.9062 6.0156 -6.7969 6.0156 Q-4.7656 6.0156 -3.7266 7.3281 Q-2.6875 8.6406 -2.6875 11.0938 ZM-4.9844 11.6719 Q-4.9844 9.9844 -5.4531 8.8906 Q-5.9219 7.7969 -7.0156 7.7969 Q-8.8438 7.7969 -8.8438 10.9219 Q-8.8438 12.7969 -8.3672 13.6875 Q-7.8906 14.5781 -6.8281 14.5781 Q-4.9844 14.5781 -4.9844 11.6719 ZM1.9502 14.3906 Q1.9502 15.0625 1.4814 15.5781 Q1.0127 16.0938 0.2002 16.0938 Q-0.503 16.0938 -0.8936 15.6484 Q-1.2842 15.2031 -1.2842 14.5781 Q-1.2842 13.9062 -0.8155 13.4062 Q-0.3467 12.9062 0.497 12.9062 Q1.2002 12.9062 1.5752 13.3359 Q1.9502 13.7656 1.9502 14.3906 ZM10.8225 14.3906 Q10.8225 16.3125 9.0413 17.7031 Q7.0882 19.2344 3.7913 19.3906 L3.5257 17.875 Q5.7913 17.7031 7.0569 16.8828 Q8.3225 16.0625 8.3225 14.7969 Q8.3225 13.4531 7.2054 12.8594 Q6.0882 12.2656 3.4944 12.2656 Q4.0413 7.9375 4.0413 6.2188 L10.0725 6.2188 L9.9944 8.2344 Q8.2288 8.0469 5.6194 8.0469 Q5.4163 9.375 5.4163 10.6094 Q10.8225 10.6094 10.8225 14.3906 Z"
    /></g
    ><g transform="translate(321.4,368.4)" style="font-size:18.6667px; fill:rgb(38,38,38); text-rendering:geometricPrecision; image-rendering:optimizeQuality; color-rendering:optimizeQuality; font-family:'Candara'; stroke:rgb(38,38,38); color-interpolation:linearRGB; font-weight:bold;"
    ><path style="stroke:none;" d="M-3.1875 11.0938 Q-3.1875 13.75 -4.2969 15.0625 Q-5.4062 16.375 -7.5312 16.375 Q-9.5781 16.375 -10.625 15.2188 Q-11.6719 14.0625 -11.6719 11.5469 Q-11.6719 8.9531 -10.5391 7.4844 Q-9.4062 6.0156 -7.2969 6.0156 Q-5.2656 6.0156 -4.2266 7.3281 Q-3.1875 8.6406 -3.1875 11.0938 ZM-5.4844 11.6719 Q-5.4844 9.9844 -5.9531 8.8906 Q-6.4219 7.7969 -7.5156 7.7969 Q-9.3438 7.7969 -9.3438 10.9219 Q-9.3438 12.7969 -8.8672 13.6875 Q-8.3906 14.5781 -7.3281 14.5781 Q-5.4844 14.5781 -5.4844 11.6719 ZM1.4502 14.3906 Q1.4502 15.0625 0.9814 15.5781 Q0.5127 16.0938 -0.2998 16.0938 Q-1.003 16.0938 -1.3936 15.6484 Q-1.7842 15.2031 -1.7842 14.5781 Q-1.7842 13.9062 -1.3155 13.4062 Q-0.8467 12.9062 -0.003 12.9062 Q0.7002 12.9062 1.0752 13.3359 Q1.4502 13.7656 1.4502 14.3906 ZM11.385 12.1094 Q11.385 13.8125 10.3225 15.0156 Q9.1507 16.375 7.1975 16.375 Q5.4475 16.375 4.3225 15.2344 Q2.9944 13.9062 2.9944 11.375 Q2.9944 3.8594 9.8069 3.5312 L9.9788 5.0469 Q5.76 5.5 5.3069 9.3906 L5.4475 9.3906 Q6.2132 8.4375 7.8382 8.4375 Q9.5257 8.4375 10.4944 9.5781 Q11.385 10.5938 11.385 12.1094 ZM9.1663 12.4375 Q9.1663 11.4219 8.635 10.7344 Q8.0413 9.9531 6.9632 9.9531 Q5.9163 9.9531 5.2444 10.7344 Q5.2444 14.7344 7.2757 14.7344 Q8.1507 14.7344 8.6819 14.0156 Q9.1663 13.3594 9.1663 12.4375 Z"
    /></g
    ><g transform="translate(363.3,368.4)" style="font-size:18.6667px; fill:rgb(38,38,38); text-rendering:geometricPrecision; image-rendering:optimizeQuality; color-rendering:optimizeQuality; font-family:'Candara'; stroke:rgb(38,38,38); color-interpolation:linearRGB; font-weight:bold;"
    ><path style="stroke:none;" d="M-2.6875 11.0938 Q-2.6875 13.75 -3.7969 15.0625 Q-4.9062 16.375 -7.0312 16.375 Q-9.0781 16.375 -10.125 15.2188 Q-11.1719 14.0625 -11.1719 11.5469 Q-11.1719 8.9531 -10.0391 7.4844 Q-8.9062 6.0156 -6.7969 6.0156 Q-4.7656 6.0156 -3.7266 7.3281 Q-2.6875 8.6406 -2.6875 11.0938 ZM-4.9844 11.6719 Q-4.9844 9.9844 -5.4531 8.8906 Q-5.9219 7.7969 -7.0156 7.7969 Q-8.8438 7.7969 -8.8438 10.9219 Q-8.8438 12.7969 -8.3672 13.6875 Q-7.8906 14.5781 -6.8281 14.5781 Q-4.9844 14.5781 -4.9844 11.6719 ZM1.9502 14.3906 Q1.9502 15.0625 1.4814 15.5781 Q1.0127 16.0938 0.2002 16.0938 Q-0.503 16.0938 -0.8936 15.6484 Q-1.2842 15.2031 -1.2842 14.5781 Q-1.2842 13.9062 -0.8155 13.4062 Q-0.3467 12.9062 0.497 12.9062 Q1.2002 12.9062 1.5752 13.3359 Q1.9502 13.7656 1.9502 14.3906 ZM10.8538 6.2188 Q10.8538 7.9844 9.635 10.75 Q8.51 13.0625 7.385 15.375 Q6.1663 17.8906 6.1663 19.0625 L3.6975 18.8594 Q3.6975 17.75 6.2132 13.4297 Q8.7288 9.1094 8.7288 8.0781 Q6.8069 8.0781 3.135 8.2656 L3.2132 6.2188 L10.8538 6.2188 Z"
    /></g
    ><g transform="translate(405.2,368.4)" style="font-size:18.6667px; fill:rgb(38,38,38); text-rendering:geometricPrecision; image-rendering:optimizeQuality; color-rendering:optimizeQuality; font-family:'Candara'; stroke:rgb(38,38,38); color-interpolation:linearRGB; font-weight:bold;"
    ><path style="stroke:none;" d="M-3.1875 11.0938 Q-3.1875 13.75 -4.2969 15.0625 Q-5.4062 16.375 -7.5312 16.375 Q-9.5781 16.375 -10.625 15.2188 Q-11.6719 14.0625 -11.6719 11.5469 Q-11.6719 8.9531 -10.5391 7.4844 Q-9.4062 6.0156 -7.2969 6.0156 Q-5.2656 6.0156 -4.2266 7.3281 Q-3.1875 8.6406 -3.1875 11.0938 ZM-5.4844 11.6719 Q-5.4844 9.9844 -5.9531 8.8906 Q-6.4219 7.7969 -7.5156 7.7969 Q-9.3438 7.7969 -9.3438 10.9219 Q-9.3438 12.7969 -8.8672 13.6875 Q-8.3906 14.5781 -7.3281 14.5781 Q-5.4844 14.5781 -5.4844 11.6719 ZM1.4502 14.3906 Q1.4502 15.0625 0.9814 15.5781 Q0.5127 16.0938 -0.2998 16.0938 Q-1.003 16.0938 -1.3936 15.6484 Q-1.7842 15.2031 -1.7842 14.5781 Q-1.7842 13.9062 -1.3155 13.4062 Q-0.8467 12.9062 -0.003 12.9062 Q0.7002 12.9062 1.0752 13.3359 Q1.4502 13.7656 1.4502 14.3906 ZM11.5257 12.5469 Q11.5257 14.1562 10.3069 15.1875 Q9.0882 16.2188 7.1975 16.2188 Q5.3225 16.2188 4.1585 15.25 Q2.9944 14.2812 2.9944 12.75 Q2.9944 11.625 3.6194 10.7344 Q4.2913 9.75 5.5413 9.25 L5.5413 9.1094 Q3.6975 8.0469 3.6975 6.2656 Q3.6975 4.9531 4.76 4.125 Q5.8069 3.3125 7.385 3.3125 Q8.9319 3.3125 9.9085 4.0703 Q10.885 4.8281 10.885 6.0156 Q10.885 6.8906 10.4163 7.625 Q9.9007 8.4375 8.9632 8.8125 L8.9632 8.9688 Q11.5257 10.2812 11.5257 12.5469 ZM9.1975 12.7188 Q9.1975 10.9219 6.8694 9.875 Q6.135 10.1406 5.6741 10.875 Q5.2132 11.6094 5.2132 12.4375 Q5.2132 13.4062 5.7835 13.9922 Q6.3538 14.5781 7.26 14.5781 Q8.1038 14.5781 8.6507 14.0625 Q9.1975 13.5469 9.1975 12.7188 ZM8.9163 6.3438 Q8.9163 5.6094 8.4632 5.1797 Q8.01 4.75 7.2913 4.75 Q6.6038 4.75 6.1585 5.1172 Q5.7132 5.4844 5.7132 6.0781 Q5.7132 7.4688 7.6507 8.3906 Q8.9163 7.75 8.9163 6.3438 Z"
    /></g
    ><g transform="translate(447.1,368.4)" style="font-size:18.6667px; fill:rgb(38,38,38); text-rendering:geometricPrecision; image-rendering:optimizeQuality; color-rendering:optimizeQuality; font-family:'Candara'; stroke:rgb(38,38,38); color-interpolation:linearRGB; font-weight:bold;"
    ><path style="stroke:none;" d="M-3.1875 11.0938 Q-3.1875 13.75 -4.2969 15.0625 Q-5.4062 16.375 -7.5312 16.375 Q-9.5781 16.375 -10.625 15.2188 Q-11.6719 14.0625 -11.6719 11.5469 Q-11.6719 8.9531 -10.5391 7.4844 Q-9.4062 6.0156 -7.2969 6.0156 Q-5.2656 6.0156 -4.2266 7.3281 Q-3.1875 8.6406 -3.1875 11.0938 ZM-5.4844 11.6719 Q-5.4844 9.9844 -5.9531 8.8906 Q-6.4219 7.7969 -7.5156 7.7969 Q-9.3438 7.7969 -9.3438 10.9219 Q-9.3438 12.7969 -8.8672 13.6875 Q-8.3906 14.5781 -7.3281 14.5781 Q-5.4844 14.5781 -5.4844 11.6719 ZM1.4502 14.3906 Q1.4502 15.0625 0.9814 15.5781 Q0.5127 16.0938 -0.2998 16.0938 Q-1.003 16.0938 -1.3936 15.6484 Q-1.7842 15.2031 -1.7842 14.5781 Q-1.7842 13.9062 -1.3155 13.4062 Q-0.8467 12.9062 -0.003 12.9062 Q0.7002 12.9062 1.0752 13.3359 Q1.4502 13.7656 1.4502 14.3906 ZM11.3538 11.3906 Q11.3538 15.2656 9.6038 17.4219 Q7.7913 19.625 4.4163 19.7656 L4.1507 18.2344 Q6.51 18.0938 7.7757 16.5156 Q8.8382 15.1875 9.01 13.0469 L8.9163 13.0469 Q8.0725 14.0312 6.5257 14.0312 Q4.8538 14.0312 3.885 12.875 Q2.9944 11.8281 2.9944 10.2969 Q2.9944 8.625 4.0257 7.4531 Q5.1975 6.125 7.1507 6.125 Q8.8694 6.125 10.0413 7.375 Q11.3538 8.7969 11.3538 11.3906 ZM9.0725 11.6875 Q9.0725 9.6875 8.4163 8.6562 Q7.8694 7.7969 6.9944 7.7969 Q6.1507 7.7969 5.6507 8.5 Q5.1819 9.1406 5.1819 10.0469 Q5.1819 11.0625 5.7132 11.7656 Q6.3382 12.5469 7.3694 12.5469 Q8.4475 12.5469 9.0725 11.6875 Z"
    /></g
    ><g transform="translate(489,368.4)" style="font-size:18.6667px; fill:rgb(38,38,38); text-rendering:geometricPrecision; image-rendering:optimizeQuality; color-rendering:optimizeQuality; font-family:'Candara'; stroke:rgb(38,38,38); color-interpolation:linearRGB; font-weight:bold;"
    ><path style="stroke:none;" d="M1.375 16 L-1.1094 16 Q-1 13.6094 -1 12.1406 Q-1 10.6406 -1.0625 8.9531 L-2.5469 9.5938 L-3.0312 8.7031 L0.2188 6.2031 L1.375 6.2031 Q1.2656 10.0312 1.2656 12.1406 Q1.2656 13.5625 1.375 16 Z"
    /></g
    ><g transform="translate(279.5002,395)" style="font-size:18.6667px; fill:rgb(38,38,38); text-rendering:geometricPrecision; image-rendering:optimizeQuality; color-rendering:optimizeQuality; font-family:'Candara'; stroke:rgb(38,38,38); color-interpolation:linearRGB; font-weight:bold;"
    ><path style="stroke:none;" d="M-35.5156 13.7969 L-35.6719 15.9375 Q-37 16.25 -38.2656 16.25 Q-41.4531 16.25 -43.1172 14.4922 Q-44.7812 12.7344 -44.7812 10.2188 Q-44.7812 7.6094 -43.0156 5.6797 Q-41.25 3.75 -38.1719 3.75 Q-37.0312 3.75 -36.0312 4.0156 L-36.3594 6.1562 Q-37.4531 5.7969 -38.4531 5.7969 Q-40.3281 5.7969 -41.25 6.9922 Q-42.1719 8.1875 -42.1719 9.8906 Q-42.1719 11.6406 -41.0781 12.9219 Q-39.9844 14.2031 -38.0156 14.2031 Q-36.875 14.2031 -35.5156 13.7969 ZM-25.2284 11.3906 Q-25.2284 13.7344 -26.6659 15.0469 Q-28.1034 16.3594 -30.0409 16.3594 Q-31.9003 16.3594 -33.2284 15.1562 Q-34.5565 13.9531 -34.5565 11.7812 Q-34.5565 9.4375 -33.1112 8.1094 Q-31.6659 6.7812 -29.7128 6.7812 Q-27.869 6.7812 -26.5487 7.9922 Q-25.2284 9.2031 -25.2284 11.3906 ZM-27.6503 11.6719 Q-27.6503 10.3281 -28.2753 9.4141 Q-28.9003 8.5 -29.9159 8.5 Q-30.9003 8.5 -31.5175 9.3516 Q-32.1347 10.2031 -32.1347 11.4844 Q-32.1347 12.8281 -31.5018 13.7422 Q-30.869 14.6562 -29.869 14.6562 Q-28.8847 14.6562 -28.2675 13.8047 Q-27.6503 12.9531 -27.6503 11.6719 ZM-15.354 16 L-17.8228 16 Q-17.6196 13.6562 -17.6196 11.25 Q-17.6196 9.7969 -18.0493 9.2734 Q-18.479 8.75 -19.3696 8.75 Q-20.4321 8.75 -21.3696 9.4844 Q-21.3228 13.0938 -21.3228 16 L-23.8228 16 Q-23.6509 13.0938 -23.6509 11.4375 Q-23.6509 9.2188 -24.104 7.25 L-21.729 6.9844 L-21.5728 7.9688 L-21.4321 7.9688 Q-20.1509 6.875 -18.5103 6.875 Q-17.0728 6.875 -16.2134 7.5469 Q-15.354 8.2188 -15.354 10.0312 Q-15.354 10.2969 -15.3775 10.75 Q-15.4009 11.2031 -15.4009 11.6719 Q-15.4009 12.9219 -15.354 16 ZM-7.6749 2.8281 L-8.0186 4.4844 Q-8.5499 4.3594 -9.0967 4.3594 Q-9.7686 4.3594 -10.0186 4.9688 Q-10.2686 5.5781 -10.2686 7.3438 Q-9.4405 7.3438 -8.003 7.2656 L-8.0655 9.1094 Q-9.5186 9.0625 -10.2686 9.0625 Q-10.2686 12.5625 -10.128 16 L-12.5811 16 Q-12.4405 12.6094 -12.4405 9.0625 Q-12.9874 9.0625 -14.0655 9.1094 L-13.9874 7.2812 Q-13.003 7.3438 -12.4405 7.3438 Q-12.4405 2.6719 -9.2999 2.6719 Q-8.3624 2.6719 -7.6749 2.8281 ZM-4.0966 16 L-6.5966 16 Q-6.4716 14.0781 -6.4716 11.5938 Q-6.4716 9.125 -6.7841 7.2656 L-4.1122 7 Q-4.2372 8.7969 -4.2372 11.5938 Q-4.2372 13.9844 -4.0966 16 ZM-3.6747 4.3906 Q-3.6747 5.0156 -4.1044 5.4922 Q-4.5341 5.9688 -5.3153 5.9688 Q-5.956 5.9688 -6.3232 5.5547 Q-6.6903 5.1406 -6.6903 4.5625 Q-6.6903 3.9375 -6.2607 3.4766 Q-5.831 3.0156 -5.0497 3.0156 Q-4.3935 3.0156 -4.0341 3.4141 Q-3.6747 3.8125 -3.6747 4.3906 ZM6.4086 15.9844 L4.2055 16.0625 Q4.143 15.7344 4.143 15.3906 L4.0024 15.3906 Q2.9868 16.2656 1.393 16.2656 Q-0.3882 16.2656 -1.4351 14.9766 Q-2.482 13.6875 -2.482 11.9219 Q-2.482 9.8906 -1.3414 8.3828 Q-0.2007 6.875 1.8305 6.875 Q3.143 6.875 3.8149 7.3594 L3.9399 7.3594 Q3.9399 5.1719 3.7211 2.9531 L6.3461 2.875 Q6.2055 5.0469 6.2055 9.0938 Q6.2055 13.2031 6.4086 15.9844 ZM4.0805 13.8906 Q4.0805 10.9219 3.9399 8.9844 Q3.2993 8.5469 2.4086 8.5469 Q1.1899 8.5469 0.5961 9.4531 Q0.0024 10.3594 0.0024 11.6719 Q0.0024 12.8438 0.5727 13.6953 Q1.143 14.5469 2.1586 14.5469 Q3.5336 14.5469 4.0805 13.8906 ZM16.2375 10.6406 Q16.2375 11.125 16.175 11.875 L10.2063 11.9844 Q10.3313 13.0312 11.1047 13.7266 Q11.8782 14.4219 13.1282 14.4219 Q14.5188 14.4219 16.0813 14 L15.9094 15.8125 Q14.6282 16.2656 12.7219 16.2656 Q10.3313 16.2656 9.0578 14.9219 Q7.7844 13.5781 7.7844 11.6875 Q7.7844 9.7031 8.9953 8.2578 Q10.2063 6.8125 12.3625 6.8125 Q14.3313 6.8125 15.2844 7.875 Q16.2375 8.9375 16.2375 10.6406 ZM14.0657 10.5625 Q14.0657 8.4219 12.2532 8.4219 Q10.5188 8.4219 10.1907 10.6406 L14.0657 10.5625 ZM26.1215 16 L23.6528 16 Q23.8559 13.6562 23.8559 11.25 Q23.8559 9.7969 23.4262 9.2734 Q22.9965 8.75 22.1059 8.75 Q21.0434 8.75 20.1059 9.4844 Q20.1528 13.0938 20.1528 16 L17.6528 16 Q17.8246 13.0938 17.8246 11.4375 Q17.8246 9.2188 17.3715 7.25 L19.7465 6.9844 L19.9028 7.9688 L20.0434 7.9688 Q21.3246 6.875 22.9653 6.875 Q24.4028 6.875 25.2621 7.5469 Q26.1215 8.2188 26.1215 10.0312 Q26.1215 10.2969 26.0981 10.75 Q26.0746 11.2031 26.0746 11.6719 Q26.0746 12.9219 26.1215 16 ZM35.0038 14.0469 L34.8476 15.8281 Q34.0038 16.2656 32.5663 16.2656 Q30.1601 16.2656 28.8788 14.9297 Q27.5976 13.5938 27.5976 11.7188 Q27.5976 9.7812 28.9413 8.3281 Q30.2851 6.875 32.6288 6.875 Q33.7694 6.875 34.6601 7.125 L34.3476 9.0156 Q33.4882 8.6719 32.4257 8.6719 Q31.3007 8.6719 30.6523 9.4609 Q30.0038 10.25 30.0038 11.4219 Q30.0038 12.6719 30.7773 13.5469 Q31.5507 14.4219 32.9569 14.4219 Q33.7851 14.4219 35.0038 14.0469 ZM44.3586 10.6406 Q44.3586 11.125 44.2961 11.875 L38.3273 11.9844 Q38.4523 13.0312 39.2257 13.7266 Q39.9992 14.4219 41.2492 14.4219 Q42.6398 14.4219 44.2023 14 L44.0304 15.8125 Q42.7492 16.2656 40.8429 16.2656 Q38.4523 16.2656 37.1789 14.9219 Q35.9054 13.5781 35.9054 11.6875 Q35.9054 9.7031 37.1164 8.2578 Q38.3273 6.8125 40.4836 6.8125 Q42.4523 6.8125 43.4054 7.875 Q44.3586 8.9375 44.3586 10.6406 ZM42.1867 10.5625 Q42.1867 8.4219 40.3742 8.4219 Q38.6398 8.4219 38.3117 10.6406 L42.1867 10.5625 Z"
    /></g
    ><g style="fill:rgb(38,38,38); text-rendering:geometricPrecision; image-rendering:optimizeQuality; color-rendering:optimizeQuality; stroke-linejoin:round; stroke:rgb(38,38,38); color-interpolation:linearRGB; stroke-width:2.6667;"
    ><line y2="31" style="fill:none;" x1="70" x2="70" y1="362"
      /><line y2="31" style="fill:none;" x1="489" x2="489" y1="362"
      /><line y2="362" style="fill:none;" x1="70" x2="74.19" y1="362"
      /><line y2="288.4445" style="fill:none;" x1="70" x2="74.19" y1="288.4445"
      /><line y2="214.8889" style="fill:none;" x1="70" x2="74.19" y1="214.8889"
      /><line y2="141.3333" style="fill:none;" x1="70" x2="74.19" y1="141.3333"
      /><line y2="67.7778" style="fill:none;" x1="70" x2="74.19" y1="67.7778"
      /><line y2="362" style="fill:none;" x1="489" x2="484.81" y1="362"
      /><line y2="288.4445" style="fill:none;" x1="489" x2="484.81" y1="288.4445"
      /><line y2="214.8889" style="fill:none;" x1="489" x2="484.81" y1="214.8889"
      /><line y2="141.3333" style="fill:none;" x1="489" x2="484.81" y1="141.3333"
      /><line y2="67.7778" style="fill:none;" x1="489" x2="484.81" y1="67.7778"
    /></g
    ><g transform="translate(63.6,362)" style="font-size:18.6667px; fill:rgb(38,38,38); text-rendering:geometricPrecision; image-rendering:optimizeQuality; color-rendering:optimizeQuality; font-family:'Candara'; stroke:rgb(38,38,38); color-interpolation:linearRGB; font-weight:bold;"
    ><path style="stroke:none;" d="M-0.6875 -1.4062 Q-0.6875 1.25 -1.7969 2.5625 Q-2.9062 3.875 -5.0312 3.875 Q-7.0781 3.875 -8.125 2.7188 Q-9.1719 1.5625 -9.1719 -0.9531 Q-9.1719 -3.5469 -8.0391 -5.0156 Q-6.9062 -6.4844 -4.7969 -6.4844 Q-2.7656 -6.4844 -1.7266 -5.1719 Q-0.6875 -3.8594 -0.6875 -1.4062 ZM-2.9844 -0.8281 Q-2.9844 -2.5156 -3.4531 -3.6094 Q-3.9219 -4.7031 -5.0156 -4.7031 Q-6.8438 -4.7031 -6.8438 -1.5781 Q-6.8438 0.2969 -6.3672 1.1875 Q-5.8906 2.0781 -4.8281 2.0781 Q-2.9844 2.0781 -2.9844 -0.8281 Z"
    /></g
    ><g transform="translate(63.6,288.4445)" style="font-size:18.6667px; fill:rgb(38,38,38); text-rendering:geometricPrecision; image-rendering:optimizeQuality; color-rendering:optimizeQuality; font-family:'Candara'; stroke:rgb(38,38,38); color-interpolation:linearRGB; font-weight:bold;"
    ><path style="stroke:none;" d="M-10.8125 1.5156 L-11.0156 3.5 L-18.0781 3.5 L-17.875 1.6406 Q-13.9688 -0.5469 -13.9688 -2.75 Q-13.9688 -4.5781 -16.5 -4.5781 Q-17.1719 -4.5781 -17.9375 -4.4375 L-17.75 -6.1719 Q-16.9531 -6.375 -15.4688 -6.375 Q-13.5781 -6.375 -12.5859 -5.5625 Q-11.5938 -4.75 -11.5938 -3.3594 Q-11.5938 -1.625 -12.8828 -0.3672 Q-14.1719 0.8906 -15.625 1.5312 L-15.625 1.6562 Q-13.5781 1.6562 -10.8125 1.5156 ZM-0.742 -1.4062 Q-0.742 1.25 -1.8513 2.5625 Q-2.9607 3.875 -5.0857 3.875 Q-7.1326 3.875 -8.1795 2.7188 Q-9.2263 1.5625 -9.2263 -0.9531 Q-9.2263 -3.5469 -8.0935 -5.0156 Q-6.9607 -6.4844 -4.8513 -6.4844 Q-2.8201 -6.4844 -1.781 -5.1719 Q-0.742 -3.8594 -0.742 -1.4062 ZM-3.0388 -0.8281 Q-3.0388 -2.5156 -3.5076 -3.6094 Q-3.9763 -4.7031 -5.0701 -4.7031 Q-6.8982 -4.7031 -6.8982 -1.5781 Q-6.8982 0.2969 -6.4217 1.1875 Q-5.9451 2.0781 -4.8826 2.0781 Q-3.0388 2.0781 -3.0388 -0.8281 Z"
    /></g
    ><g transform="translate(63.6,214.8889)" style="font-size:18.6667px; fill:rgb(38,38,38); text-rendering:geometricPrecision; image-rendering:optimizeQuality; color-rendering:optimizeQuality; font-family:'Candara'; stroke:rgb(38,38,38); color-interpolation:linearRGB; font-weight:bold;"
    ><path style="stroke:none;" d="M-10.6406 0.2969 L-10.8281 2.2969 L-12.3125 2.2969 Q-12.3125 4.0312 -12.2031 6.5625 L-14.6406 6.5625 Q-14.5625 4.2188 -14.5625 2.2969 L-19.3438 2.2969 L-19.5312 0.5469 Q-19.5312 0.375 -17.1484 -2.8438 Q-14.7656 -6.0625 -14.7344 -6.2812 L-12.2031 -6.2812 Q-12.3125 -3.1719 -12.3125 0.375 Q-11.5 0.375 -10.6406 0.2969 ZM-14.3438 -4.2812 L-14.4688 -4.2812 Q-14.4688 -4.0781 -16.0625 -1.9297 Q-17.6562 0.2188 -17.6562 0.3594 L-17.6562 0.4688 Q-16.4688 0.4688 -14.5 0.4219 Q-14.4375 -2.1719 -14.3438 -4.2812 ZM-0.6762 -1.4062 Q-0.6762 1.25 -1.7855 2.5625 Q-2.8949 3.875 -5.0199 3.875 Q-7.0668 3.875 -8.1137 2.7188 Q-9.1605 1.5625 -9.1605 -0.9531 Q-9.1605 -3.5469 -8.0277 -5.0156 Q-6.8949 -6.4844 -4.7855 -6.4844 Q-2.7543 -6.4844 -1.7152 -5.1719 Q-0.6762 -3.8594 -0.6762 -1.4062 ZM-2.973 -0.8281 Q-2.973 -2.5156 -3.4418 -3.6094 Q-3.9105 -4.7031 -5.0043 -4.7031 Q-6.8324 -4.7031 -6.8324 -1.5781 Q-6.8324 0.2969 -6.3559 1.1875 Q-5.8793 2.0781 -4.8168 2.0781 Q-2.973 2.0781 -2.973 -0.8281 Z"
    /></g
    ><g transform="translate(63.6,141.3333)" style="font-size:18.6667px; fill:rgb(38,38,38); text-rendering:geometricPrecision; image-rendering:optimizeQuality; color-rendering:optimizeQuality; font-family:'Candara'; stroke:rgb(38,38,38); color-interpolation:linearRGB; font-weight:bold;"
    ><path style="stroke:none;" d="M-10.7812 -0.3906 Q-10.7812 1.3125 -11.8438 2.5156 Q-13.0156 3.875 -14.9688 3.875 Q-16.7188 3.875 -17.8438 2.7344 Q-19.1719 1.4062 -19.1719 -1.125 Q-19.1719 -8.6406 -12.3594 -8.9688 L-12.1875 -7.4531 Q-16.4062 -7 -16.8594 -3.1094 L-16.7188 -3.1094 Q-15.9531 -4.0625 -14.3281 -4.0625 Q-12.6406 -4.0625 -11.6719 -2.9219 Q-10.7812 -1.9062 -10.7812 -0.3906 ZM-13 -0.0625 Q-13 -1.0781 -13.5312 -1.7656 Q-14.125 -2.5469 -15.2031 -2.5469 Q-16.25 -2.5469 -16.9219 -1.7656 Q-16.9219 2.2344 -14.8906 2.2344 Q-14.0156 2.2344 -13.4844 1.5156 Q-13 0.8594 -13 -0.0625 ZM-0.8219 -1.4062 Q-0.8219 1.25 -1.9313 2.5625 Q-3.0407 3.875 -5.1657 3.875 Q-7.2125 3.875 -8.2594 2.7188 Q-9.3063 1.5625 -9.3063 -0.9531 Q-9.3063 -3.5469 -8.1735 -5.0156 Q-7.0407 -6.4844 -4.9313 -6.4844 Q-2.9 -6.4844 -1.861 -5.1719 Q-0.8219 -3.8594 -0.8219 -1.4062 ZM-3.1188 -0.8281 Q-3.1188 -2.5156 -3.5875 -3.6094 Q-4.0563 -4.7031 -5.15 -4.7031 Q-6.9782 -4.7031 -6.9782 -1.5781 Q-6.9782 0.2969 -6.5016 1.1875 Q-6.025 2.0781 -4.9625 2.0781 Q-3.1188 2.0781 -3.1188 -0.8281 Z"
    /></g
    ><g transform="translate(63.6,67.7778)" style="font-size:18.6667px; fill:rgb(38,38,38); text-rendering:geometricPrecision; image-rendering:optimizeQuality; color-rendering:optimizeQuality; font-family:'Candara'; stroke:rgb(38,38,38); color-interpolation:linearRGB; font-weight:bold;"
    ><path style="stroke:none;" d="M-10.6406 0.0469 Q-10.6406 1.6562 -11.8594 2.6875 Q-13.0781 3.7188 -14.9688 3.7188 Q-16.8438 3.7188 -18.0078 2.75 Q-19.1719 1.7812 -19.1719 0.25 Q-19.1719 -0.875 -18.5469 -1.7656 Q-17.875 -2.75 -16.625 -3.25 L-16.625 -3.3906 Q-18.4688 -4.4531 -18.4688 -6.2344 Q-18.4688 -7.5469 -17.4062 -8.375 Q-16.3594 -9.1875 -14.7812 -9.1875 Q-13.2344 -9.1875 -12.2578 -8.4297 Q-11.2812 -7.6719 -11.2812 -6.4844 Q-11.2812 -5.6094 -11.75 -4.875 Q-12.2656 -4.0625 -13.2031 -3.6875 L-13.2031 -3.5312 Q-10.6406 -2.2188 -10.6406 0.0469 ZM-12.9688 0.2188 Q-12.9688 -1.5781 -15.2969 -2.625 Q-16.0312 -2.3594 -16.4922 -1.625 Q-16.9531 -0.8906 -16.9531 -0.0625 Q-16.9531 0.9062 -16.3828 1.4922 Q-15.8125 2.0781 -14.9062 2.0781 Q-14.0625 2.0781 -13.5156 1.5625 Q-12.9688 1.0469 -12.9688 0.2188 ZM-13.25 -6.1562 Q-13.25 -6.8906 -13.7031 -7.3203 Q-14.1562 -7.75 -14.875 -7.75 Q-15.5625 -7.75 -16.0078 -7.3828 Q-16.4531 -7.0156 -16.4531 -6.4219 Q-16.4531 -5.0312 -14.5156 -4.1094 Q-13.25 -4.75 -13.25 -6.1562 ZM-0.6853 -1.4062 Q-0.6853 1.25 -1.7946 2.5625 Q-2.904 3.875 -5.029 3.875 Q-7.0759 3.875 -8.1228 2.7188 Q-9.1696 1.5625 -9.1696 -0.9531 Q-9.1696 -3.5469 -8.0368 -5.0156 Q-6.904 -6.4844 -4.7946 -6.4844 Q-2.7634 -6.4844 -1.7243 -5.1719 Q-0.6853 -3.8594 -0.6853 -1.4062 ZM-2.9821 -0.8281 Q-2.9821 -2.5156 -3.4509 -3.6094 Q-3.9196 -4.7031 -5.0134 -4.7031 Q-6.8415 -4.7031 -6.8415 -1.5781 Q-6.8415 0.2969 -6.365 1.1875 Q-5.8884 2.0781 -4.8259 2.0781 Q-2.9821 2.0781 -2.9821 -0.8281 Z"
    /></g
    ><g transform="translate(39.6,196.4998) rotate(-90)" style="font-size:18.6667px; fill:rgb(38,38,38); text-rendering:geometricPrecision; image-rendering:optimizeQuality; color-rendering:optimizeQuality; font-family:'Candara'; stroke:rgb(38,38,38); color-interpolation:linearRGB; font-weight:bold;"
    ><path style="stroke:none;" d="M-4.2188 -9 L-6.6719 -9 Q-6.4844 -11.3438 -6.4844 -13.5625 Q-6.4844 -15.2188 -6.9141 -15.7344 Q-7.3438 -16.25 -8.2812 -16.25 Q-9.0312 -16.25 -9.8594 -15.7031 Q-9.9062 -14.5312 -9.9062 -13.625 Q-9.9062 -12.0781 -9.8438 -9 L-12.3281 -9 Q-12.125 -11.5469 -12.125 -13.9375 Q-12.125 -15.1875 -12.4766 -15.7188 Q-12.8281 -16.25 -13.9219 -16.25 Q-14.9219 -16.25 -15.5938 -15.5625 Q-15.5469 -11.8906 -15.5469 -9 L-18.0469 -9 Q-17.875 -11.8906 -17.875 -13.5625 Q-17.875 -15.7344 -18.3281 -17.75 L-15.9531 -18.0156 L-15.7969 -17.0312 L-15.6562 -17.0312 Q-14.4375 -18.125 -12.9375 -18.125 Q-11.0469 -18.125 -10.2656 -17.0312 L-10.125 -17.0312 Q-8.75 -18.125 -7.4062 -18.125 Q-5.8281 -18.125 -5.0234 -17.4375 Q-4.2188 -16.75 -4.2188 -14.9688 Q-4.2188 -14.7969 -4.2422 -14.2969 Q-4.2656 -13.7969 -4.2656 -13.625 Q-4.2656 -12.0781 -4.2188 -9 ZM8.382 -9 L5.4132 -9 Q5.4132 -9.6094 4.5695 -12.4688 L0.2882 -12.4688 Q-0.5868 -9.6562 -0.5868 -9 L-3.368 -9 Q-3.368 -9.3594 -1.204 -14.9375 Q0.9601 -20.5156 0.9601 -21.0781 L4.4601 -21.0781 Q4.4601 -20.5469 6.421 -15.0234 Q8.382 -9.5 8.382 -9 ZM4.1007 -14.2344 Q2.5226 -19.0312 2.5226 -19.4219 L2.3663 -19.4219 Q2.3663 -19.0625 0.7257 -14.2344 L4.1007 -14.2344 ZM18.4301 -17.9219 Q18.4301 -15.7031 16.7816 -14.6406 Q15.1332 -13.5781 12.7426 -13.5781 Q12.3051 -13.5781 12.1176 -13.6094 Q12.1176 -11.8594 12.2113 -9 L9.6176 -9 Q9.727 -11.6875 9.727 -15.3125 Q9.727 -18.6562 9.6176 -21.0781 L11.227 -21.0781 Q11.5707 -21.0781 12.5395 -21.1094 Q13.5082 -21.1406 14.227 -21.1406 Q15.9926 -21.1406 17.2113 -20.3438 Q18.4301 -19.5469 18.4301 -17.9219 ZM16.0238 -17.4062 Q16.0238 -19.3906 13.3988 -19.3906 Q12.7426 -19.3906 12.0082 -19.25 Q12.102 -17.5 12.102 -15.2812 Q12.3363 -15.2656 12.6488 -15.2656 Q16.0238 -15.2656 16.0238 -17.4062 Z"
    /></g
    ><g style="stroke-linecap:butt; fill:rgb(0,114,189); text-rendering:geometricPrecision; image-rendering:optimizeQuality; color-rendering:optimizeQuality; stroke-linejoin:round; stroke:rgb(0,114,189); color-interpolation:linearRGB; stroke-width:2.6667;"
    ><path d="M70 357.9794 L90.95 54.4187 L111.9 57.4649 L132.85 59.1933 L153.8 60.3978 L174.75 62.4997 L195.7 64.7871 L216.65 65.7863 L237.6 67.4829 L258.55 69.0567 L279.5 69.6075 L300.45 71.1901 L321.4 73.1806 L342.35 75.6805 L363.3 76.89 L384.25 78.7778 L405.2 79.5231 L426.15 83.1778 L447.1 87.3319 L468.05 92.8553 L489 362" style="fill:none; fill-rule:evenodd;"
      /><path d="M70 356.9793 L90.95 92.4755 L111.9 99.5332 L132.85 101.8739 L153.8 104.0007 L174.75 107.6748 L195.7 109.3011 L216.65 112.5275 L237.6 114.1469 L258.55 115.6851 L279.5 117.3081 L300.45 119.7818 L321.4 122.1581 L342.35 125.4547 L363.3 128.9304 L384.25 131.2462 L405.2 133.4099 L426.15 137.8472 L447.1 147.4082 L468.05 156.1451 L489 362" style="fill:none; fill-rule:evenodd; stroke:rgb(217,83,25);"
      /><path d="M70 358.1453 L90.95 62.1123 L111.9 65.9754 L132.85 69.3587 L153.8 71.6158 L174.75 73.718 L195.7 76.4119 L216.65 78.6135 L237.6 79.6768 L258.55 81.724 L279.5 83.1176 L300.45 83.861 L321.4 86.3709 L342.35 90.4546 L363.3 92.8851 L384.25 94.5615 L405.2 97.2651 L426.15 102.6871 L447.1 106.1178 L468.05 115.9111 L489 362" style="fill:none; fill-rule:evenodd; stroke:rgb(237,177,32);"
    /></g
    ><g style="fill:white; text-rendering:optimizeSpeed; color-rendering:optimizeSpeed; image-rendering:optimizeSpeed; shape-rendering:crispEdges; stroke:white; color-interpolation:sRGB;"
    ><path style="stroke:none;" d="M689 111 L689 31 L513 31 L513 111 Z"
    /></g
    ><g transform="translate(559.7344,45.5)" style="font-size:18.6667px; text-rendering:geometricPrecision; image-rendering:optimizeQuality; color-rendering:optimizeQuality; font-family:'Candara'; color-interpolation:linearRGB; font-weight:bold;"
    ><path style="stroke:none;" d="M11.2969 3.5 L9 3.5 Q9 3.125 6.4531 -0.5156 Q3.7812 -4.3438 3.4062 -5.7656 L3.25 -5.7656 Q3.4844 -3.7344 3.4844 -2.0781 Q3.4844 0.2031 3.625 3.5 L1.3438 3.5 Q1.4688 0.625 1.4688 -2.8125 Q1.4688 -6.2031 1.3438 -8.5781 L4.0938 -8.5781 Q4.0938 -8.0938 6.3906 -4.6562 Q8.8281 -1.0156 9.1875 0.2969 L9.3281 0.2969 Q9.0938 -1.7812 9.0938 -3.4219 Q9.0938 -5.9375 8.9688 -8.5781 L11.2969 -8.5781 Q11.1562 -6.2812 11.1562 -2.8125 Q11.1562 0.6719 11.2969 3.5 ZM22.3668 -1.1094 Q22.3668 1.2344 20.9293 2.5469 Q19.4918 3.8594 17.5543 3.8594 Q15.6949 3.8594 14.3668 2.6562 Q13.0387 1.4531 13.0387 -0.7188 Q13.0387 -3.0625 14.484 -4.3906 Q15.9293 -5.7188 17.8824 -5.7188 Q19.7262 -5.7188 21.0465 -4.5078 Q22.3668 -3.2969 22.3668 -1.1094 ZM19.9449 -0.8281 Q19.9449 -2.1719 19.3199 -3.0859 Q18.6949 -4 17.6793 -4 Q16.6949 -4 16.0777 -3.1484 Q15.4605 -2.2969 15.4605 -1.0156 Q15.4605 0.3281 16.0933 1.2422 Q16.7262 2.1562 17.7262 2.1562 Q18.7105 2.1562 19.3277 1.3047 Q19.9449 0.4531 19.9449 -0.8281 ZM29.9755 -5.3125 L29.4287 -3.1406 Q28.7412 -3.4219 28.038 -3.4219 Q26.6787 -3.4219 26.2412 -2.2031 Q26.2412 1.5 26.3037 3.5 L23.8349 3.5 Q23.9912 0.7031 23.9912 -1.0625 Q23.9912 -3.2656 23.5224 -5.25 L25.8974 -5.5156 Q26.0537 -4.4844 26.0537 -4.3125 L26.1943 -4.3125 Q27.0537 -5.625 28.4755 -5.625 Q29.1318 -5.625 29.9755 -5.3125 ZM44.7879 3.5 L42.3348 3.5 Q42.5223 1.1562 42.5223 -1.0625 Q42.5223 -2.7188 42.0926 -3.2344 Q41.6629 -3.75 40.7254 -3.75 Q39.9754 -3.75 39.1473 -3.2031 Q39.1004 -2.0312 39.1004 -1.125 Q39.1004 0.4219 39.1629 3.5 L36.6786 3.5 Q36.8817 0.9531 36.8817 -1.4375 Q36.8817 -2.6875 36.5301 -3.2188 Q36.1786 -3.75 35.0848 -3.75 Q34.0848 -3.75 33.4129 -3.0625 Q33.4598 0.6094 33.4598 3.5 L30.9598 3.5 Q31.1317 0.6094 31.1317 -1.0625 Q31.1317 -3.2344 30.6786 -5.25 L33.0536 -5.5156 L33.2098 -4.5312 L33.3504 -4.5312 Q34.5692 -5.625 36.0692 -5.625 Q37.9598 -5.625 38.7411 -4.5312 L38.8817 -4.5312 Q40.2567 -5.625 41.6004 -5.625 Q43.1786 -5.625 43.9832 -4.9375 Q44.7879 -4.25 44.7879 -2.4688 Q44.7879 -2.2969 44.7645 -1.7969 Q44.7411 -1.2969 44.7411 -1.125 Q44.7411 0.4219 44.7879 3.5 ZM54.1074 3.4844 L51.9199 3.5625 Q51.7793 3.1719 51.7793 2.8594 L51.6543 2.8594 Q50.6386 3.7344 48.9043 3.7344 Q47.7324 3.7344 46.9668 3.0859 Q46.2011 2.4375 46.2011 1.375 Q46.2011 -0.0312 47.3965 -0.9297 Q48.5918 -1.8281 51.5761 -1.8906 Q51.5918 -2.0625 51.5918 -2.2031 Q51.5918 -3.2031 51.1152 -3.5234 Q50.6386 -3.8438 49.3418 -3.8438 Q47.9355 -3.8438 46.6074 -3.4844 L46.8105 -5.1875 Q48.0761 -5.625 50.373 -5.625 Q52.0449 -5.625 52.959 -4.9141 Q53.873 -4.2031 53.873 -2.4531 Q53.873 -2.0625 53.8418 -1.0312 Q53.8105 0 53.8105 0.3438 Q53.8105 2.2656 54.1074 3.4844 ZM51.6386 1.5625 Q51.5761 0.3125 51.5761 -0.5938 Q48.4199 -0.5938 48.4199 1 Q48.4199 2.1094 49.8105 2.1094 Q50.9043 2.1094 51.6386 1.5625 ZM58.4903 3.5 L55.959 3.5 Q56.0997 0.3125 56.0997 -3.3906 Q56.0997 -7.0156 55.8184 -9.5469 L58.4903 -9.6875 Q58.3653 -7.0625 58.3653 -3.3906 Q58.3653 0.3438 58.4903 3.5 Z"
    /></g
    ><g style="stroke-linecap:butt; fill:rgb(0,114,189); text-rendering:geometricPrecision; image-rendering:optimizeQuality; color-rendering:optimizeQuality; stroke-linejoin:round; stroke:rgb(0,114,189); color-interpolation:linearRGB; stroke-width:2.6667;"
    ><line y2="45.5" style="fill:none;" x1="516.9774" x2="556.7514" y1="45.5"
    /></g
    ><g transform="translate(559.7344,71)" style="font-size:18.6667px; text-rendering:geometricPrecision; image-rendering:optimizeQuality; color-rendering:optimizeQuality; font-family:'Candara'; color-interpolation:linearRGB; font-weight:bold;"
    ><path style="stroke:none;" d="M10.8906 3.1875 Q8.6875 3.75 7.2031 3.75 Q4.0156 3.75 2.3672 2 Q0.7188 0.25 0.7188 -2.25 Q0.7188 -4.875 2.5156 -6.8125 Q4.3125 -8.75 7.4844 -8.75 Q8.9844 -8.75 10.125 -8.4844 L9.8125 -6.2812 Q8.3594 -6.6719 7.2031 -6.6719 Q5.2344 -6.6719 4.2734 -5.4688 Q3.3125 -4.2656 3.3125 -2.5312 Q3.3125 -0.7656 4.3906 0.5547 Q5.4688 1.875 7.375 1.875 Q7.9062 1.875 8.5938 1.7656 Q8.4688 0.7344 8.4688 -0.25 Q8.4688 -1.2656 8.2656 -2.5156 L10.8906 -2.5156 Q10.8125 -1.0781 10.8125 0.3594 Q10.8125 1.4062 10.8906 3.1875 ZM20.1745 3.4844 L17.987 3.5625 Q17.8464 3.1719 17.8464 2.8594 L17.7214 2.8594 Q16.7058 3.7344 14.9714 3.7344 Q13.7995 3.7344 13.0339 3.0859 Q12.2683 2.4375 12.2683 1.375 Q12.2683 -0.0312 13.4636 -0.9297 Q14.6589 -1.8281 17.6433 -1.8906 Q17.6589 -2.0625 17.6589 -2.2031 Q17.6589 -3.2031 17.1823 -3.5234 Q16.7058 -3.8438 15.4089 -3.8438 Q14.0026 -3.8438 12.6745 -3.4844 L12.8776 -5.1875 Q14.1433 -5.625 16.4401 -5.625 Q18.112 -5.625 19.0261 -4.9141 Q19.9401 -4.2031 19.9401 -2.4531 Q19.9401 -2.0625 19.9089 -1.0312 Q19.8776 0 19.8776 0.3438 Q19.8776 2.2656 20.1745 3.4844 ZM17.7058 1.5625 Q17.6433 0.3125 17.6433 -0.5938 Q14.487 -0.5938 14.487 1 Q14.487 2.1094 15.8776 2.1094 Q16.9714 2.1094 17.7058 1.5625 ZM30.0887 3.4844 L27.9168 3.5625 Q27.7605 3.0625 27.7605 2.7656 L27.6199 2.7656 Q26.4012 3.7656 24.7762 3.7656 Q23.2449 3.7656 22.4715 2.9609 Q21.698 2.1562 21.698 -0.2344 Q21.698 -0.5312 21.7137 -1.0469 Q21.7293 -1.5625 21.7293 -1.9531 Q21.7293 -2.9844 21.5418 -5.2344 L24.1355 -5.3281 Q23.9949 -3.5469 23.9949 -1.9531 Q23.9949 0.3125 24.3309 1.1016 Q24.6668 1.8906 25.6668 1.8906 Q26.7449 1.8906 27.5262 1.375 Q27.5262 -3.5 27.4168 -5.25 L29.9324 -5.3281 Q29.8387 -3.5781 29.8387 -0.7812 Q29.8387 1.2812 30.0887 3.4844 ZM38.1885 0.9688 Q38.1885 3.75 34.0635 3.75 Q32.5635 3.75 31.4385 3.4219 L31.751 1.5938 Q32.9073 2.0156 34.0635 2.0156 Q35.1729 2.0156 35.6104 1.8281 Q36.0479 1.6406 36.0479 1.2031 Q36.0479 0.5312 34.4854 -0.0781 Q33.1104 -0.625 32.501 -1.1406 Q31.6416 -1.8594 31.6416 -2.9062 Q31.6416 -4.1406 32.5635 -4.8906 Q33.4854 -5.6406 35.2354 -5.6406 Q36.876 -5.6406 37.8135 -5.3594 L37.501 -3.5156 Q36.4541 -3.9375 35.2354 -3.9375 Q33.751 -3.9375 33.751 -3.1719 Q33.751 -2.7812 34.0635 -2.5469 Q34.376 -2.3125 35.3604 -1.9531 Q36.7041 -1.4531 37.3135 -0.9375 Q38.1885 -0.1875 38.1885 0.9688 ZM46.0136 0.9688 Q46.0136 3.75 41.8886 3.75 Q40.3886 3.75 39.2636 3.4219 L39.5761 1.5938 Q40.7323 2.0156 41.8886 2.0156 Q42.9979 2.0156 43.4354 1.8281 Q43.8729 1.6406 43.8729 1.2031 Q43.8729 0.5312 42.3104 -0.0781 Q40.9354 -0.625 40.3261 -1.1406 Q39.4667 -1.8594 39.4667 -2.9062 Q39.4667 -4.1406 40.3886 -4.8906 Q41.3104 -5.6406 43.0604 -5.6406 Q44.7011 -5.6406 45.6386 -5.3594 L45.3261 -3.5156 Q44.2792 -3.9375 43.0604 -3.9375 Q41.5761 -3.9375 41.5761 -3.1719 Q41.5761 -2.7812 41.8886 -2.5469 Q42.2011 -2.3125 43.1854 -1.9531 Q44.5292 -1.4531 45.1386 -0.9375 Q46.0136 -0.1875 46.0136 0.9688 ZM50.1667 3.5 L47.6667 3.5 Q47.7917 1.5781 47.7917 -0.9062 Q47.7917 -3.375 47.4792 -5.2344 L50.1511 -5.5 Q50.0261 -3.7031 50.0261 -0.9062 Q50.0261 1.4844 50.1667 3.5 ZM50.5886 -8.1094 Q50.5886 -7.4844 50.1589 -7.0078 Q49.7292 -6.5312 48.948 -6.5312 Q48.3074 -6.5312 47.9402 -6.9453 Q47.573 -7.3594 47.573 -7.9375 Q47.573 -8.5625 48.0027 -9.0234 Q48.4324 -9.4844 49.2136 -9.4844 Q49.8699 -9.4844 50.2292 -9.0859 Q50.5886 -8.6875 50.5886 -8.1094 ZM59.7188 3.4844 L57.5313 3.5625 Q57.3907 3.1719 57.3907 2.8594 L57.2657 2.8594 Q56.2501 3.7344 54.5157 3.7344 Q53.3438 3.7344 52.5782 3.0859 Q51.8126 2.4375 51.8126 1.375 Q51.8126 -0.0312 53.0079 -0.9297 Q54.2032 -1.8281 57.1876 -1.8906 Q57.2032 -2.0625 57.2032 -2.2031 Q57.2032 -3.2031 56.7267 -3.5234 Q56.2501 -3.8438 54.9532 -3.8438 Q53.547 -3.8438 52.2188 -3.4844 L52.422 -5.1875 Q53.6876 -5.625 55.9845 -5.625 Q57.6563 -5.625 58.5704 -4.9141 Q59.4845 -4.2031 59.4845 -2.4531 Q59.4845 -2.0625 59.4532 -1.0312 Q59.422 0 59.422 0.3438 Q59.422 2.2656 59.7188 3.4844 ZM57.2501 1.5625 Q57.1876 0.3125 57.1876 -0.5938 Q54.0313 -0.5938 54.0313 1 Q54.0313 2.1094 55.422 2.1094 Q56.5157 2.1094 57.2501 1.5625 ZM69.7267 3.5 L67.258 3.5 Q67.4611 1.1562 67.4611 -1.25 Q67.4611 -2.7031 67.0314 -3.2266 Q66.6017 -3.75 65.7111 -3.75 Q64.6486 -3.75 63.7111 -3.0156 Q63.758 0.5938 63.758 3.5 L61.258 3.5 Q61.4299 0.5938 61.4299 -1.0625 Q61.4299 -3.2812 60.9767 -5.25 L63.3517 -5.5156 L63.508 -4.5312 L63.6486 -4.5312 Q64.9299 -5.625 66.5705 -5.625 Q68.008 -5.625 68.8674 -4.9531 Q69.7267 -4.2812 69.7267 -2.4688 Q69.7267 -2.2031 69.7033 -1.75 Q69.6799 -1.2969 69.6799 -0.8281 Q69.6799 0.4219 69.7267 3.5 Z"
    /></g
    ><g style="stroke-linecap:butt; fill:rgb(217,83,25); text-rendering:geometricPrecision; image-rendering:optimizeQuality; color-rendering:optimizeQuality; stroke-linejoin:round; stroke:rgb(217,83,25); color-interpolation:linearRGB; stroke-width:2.6667;"
    ><line y2="71" style="fill:none;" x1="516.9774" x2="556.7514" y1="71"
    /></g
    ><g transform="translate(559.7344,96.5)" style="font-size:18.6667px; text-rendering:geometricPrecision; image-rendering:optimizeQuality; color-rendering:optimizeQuality; font-family:'Candara'; color-interpolation:linearRGB; font-weight:bold;"
    ><path style="stroke:none;" d="M9.2188 0.2031 Q9.2188 3.8281 4.0156 3.8281 Q2.2344 3.8281 0.7188 3.4062 L1.1719 1.3438 Q2.6719 1.8594 4.0156 1.8594 Q5.5 1.8594 6.1484 1.5703 Q6.7969 1.2812 6.7969 0.6094 Q6.7969 -0.0938 6.1719 -0.5781 Q5.6562 -1.0156 4.0312 -1.7031 Q2.5625 -2.3281 1.8594 -3.0625 Q0.9531 -4 0.9531 -5.375 Q0.9531 -6.9688 2.1406 -7.875 Q3.3281 -8.7812 5.5312 -8.7812 Q7.3594 -8.7812 8.5938 -8.4688 L8.25 -6.4062 Q7 -6.8594 5.5312 -6.8594 Q3.3438 -6.8594 3.3438 -5.6875 Q3.3438 -5.0781 3.8594 -4.6875 Q4.3125 -4.3438 5.7969 -3.75 Q7.3906 -3.1094 8.1719 -2.3281 Q9.2188 -1.3125 9.2188 0.2031 ZM18.3344 3.4844 L16.1469 3.5625 Q16.0063 3.1719 16.0063 2.8594 L15.8813 2.8594 Q14.8656 3.7344 13.1313 3.7344 Q11.9594 3.7344 11.1938 3.0859 Q10.4281 2.4375 10.4281 1.375 Q10.4281 -0.0312 11.6235 -0.9297 Q12.8188 -1.8281 15.8031 -1.8906 Q15.8188 -2.0625 15.8188 -2.2031 Q15.8188 -3.2031 15.3422 -3.5234 Q14.8656 -3.8438 13.5688 -3.8438 Q12.1625 -3.8438 10.8344 -3.4844 L11.0375 -5.1875 Q12.3031 -5.625 14.6 -5.625 Q16.2719 -5.625 17.186 -4.9141 Q18.1 -4.2031 18.1 -2.4531 Q18.1 -2.0625 18.0688 -1.0312 Q18.0375 0 18.0375 0.3438 Q18.0375 2.2656 18.3344 3.4844 ZM15.8656 1.5625 Q15.8031 0.3125 15.8031 -0.5938 Q12.6469 -0.5938 12.6469 1 Q12.6469 2.1094 14.0375 2.1094 Q15.1313 2.1094 15.8656 1.5625 ZM22.7173 3.5 L20.1861 3.5 Q20.3267 0.3125 20.3267 -3.3906 Q20.3267 -7.0156 20.0454 -9.5469 L22.7173 -9.6875 Q22.5923 -7.0625 22.5923 -3.3906 Q22.5923 0.3438 22.7173 3.5 ZM30.2615 1.7656 L30.1052 3.4219 Q29.449 3.6875 28.4646 3.6875 Q26.9646 3.6875 26.2068 2.875 Q25.449 2.0625 25.449 -0.2656 Q25.449 -1.6719 25.4646 -3.4375 Q24.9959 -3.4375 24.1834 -3.3906 L24.2459 -5.2188 Q24.9646 -5.1562 25.574 -5.1562 Q25.5896 -5.6406 25.6521 -7.75 L27.8552 -8.0156 Q27.7146 -6.1719 27.7146 -5.1562 Q28.4959 -5.1562 30.0427 -5.2344 L29.9646 -3.3906 Q28.5584 -3.4375 27.6677 -3.4375 Q27.6521 -2.2031 27.6521 -0.8438 Q27.6521 0.7969 27.9881 1.3594 Q28.324 1.9219 29.1677 1.9219 Q29.6834 1.9219 30.2615 1.7656 ZM43.1213 3.4844 L40.9338 3.5625 Q40.7932 3.1719 40.7932 2.8594 L40.6682 2.8594 Q39.6526 3.7344 37.9182 3.7344 Q36.7463 3.7344 35.9807 3.0859 Q35.2151 2.4375 35.2151 1.375 Q35.2151 -0.0312 36.4104 -0.9297 Q37.6057 -1.8281 40.5901 -1.8906 Q40.6057 -2.0625 40.6057 -2.2031 Q40.6057 -3.2031 40.1292 -3.5234 Q39.6526 -3.8438 38.3557 -3.8438 Q36.9495 -3.8438 35.6213 -3.4844 L35.8245 -5.1875 Q37.0901 -5.625 39.387 -5.625 Q41.0588 -5.625 41.9729 -4.9141 Q42.887 -4.2031 42.887 -2.4531 Q42.887 -2.0625 42.8557 -1.0312 Q42.8245 0 42.8245 0.3438 Q42.8245 2.2656 43.1213 3.4844 ZM40.6526 1.5625 Q40.5901 0.3125 40.5901 -0.5938 Q37.4338 -0.5938 37.4338 1 Q37.4338 2.1094 38.8245 2.1094 Q39.9182 2.1094 40.6526 1.5625 ZM53.1292 3.5 L50.6605 3.5 Q50.8636 1.1562 50.8636 -1.25 Q50.8636 -2.7031 50.4339 -3.2266 Q50.0042 -3.75 49.1136 -3.75 Q48.0511 -3.75 47.1136 -3.0156 Q47.1605 0.5938 47.1605 3.5 L44.6605 3.5 Q44.8324 0.5938 44.8324 -1.0625 Q44.8324 -3.2812 44.3792 -5.25 L46.7542 -5.5156 L46.9105 -4.5312 L47.0511 -4.5312 Q48.3324 -5.625 49.973 -5.625 Q51.4105 -5.625 52.2699 -4.9531 Q53.1292 -4.2812 53.1292 -2.4688 Q53.1292 -2.2031 53.1058 -1.75 Q53.0824 -1.2969 53.0824 -0.8281 Q53.0824 0.4219 53.1292 3.5 ZM63.4959 3.4844 L61.2928 3.5625 Q61.2303 3.2344 61.2303 2.8906 L61.0897 2.8906 Q60.074 3.7656 58.4803 3.7656 Q56.699 3.7656 55.6522 2.4766 Q54.6053 1.1875 54.6053 -0.5781 Q54.6053 -2.6094 55.7459 -4.1172 Q56.8865 -5.625 58.9178 -5.625 Q60.2303 -5.625 60.9022 -5.1406 L61.0272 -5.1406 Q61.0272 -7.3281 60.8084 -9.5469 L63.4334 -9.625 Q63.2928 -7.4531 63.2928 -3.4062 Q63.2928 0.7031 63.4959 3.4844 ZM61.1678 1.3906 Q61.1678 -1.5781 61.0272 -3.5156 Q60.3865 -3.9531 59.4959 -3.9531 Q58.2772 -3.9531 57.6834 -3.0469 Q57.0897 -2.1406 57.0897 -0.8281 Q57.0897 0.3438 57.66 1.1953 Q58.2303 2.0469 59.2459 2.0469 Q60.6209 2.0469 61.1678 1.3906 ZM78.4319 -5.4219 Q78.4319 -3.2031 76.7835 -2.1406 Q75.1351 -1.0781 72.7444 -1.0781 Q72.3069 -1.0781 72.1194 -1.1094 Q72.1194 0.6406 72.2132 3.5 L69.6194 3.5 Q69.7288 0.8125 69.7288 -2.8125 Q69.7288 -6.1562 69.6194 -8.5781 L71.2288 -8.5781 Q71.5726 -8.5781 72.5413 -8.6094 Q73.5101 -8.6406 74.2288 -8.6406 Q75.9944 -8.6406 77.2132 -7.8438 Q78.4319 -7.0469 78.4319 -5.4219 ZM76.0257 -4.9062 Q76.0257 -6.8906 73.4007 -6.8906 Q72.7444 -6.8906 72.0101 -6.75 Q72.1038 -5 72.1038 -2.7812 Q72.3382 -2.7656 72.6507 -2.7656 Q76.0257 -2.7656 76.0257 -4.9062 ZM87.736 -1.8594 Q87.736 -1.375 87.6735 -0.625 L81.7048 -0.5156 Q81.8298 0.5312 82.6032 1.2266 Q83.3767 1.9219 84.6267 1.9219 Q86.0173 1.9219 87.5798 1.5 L87.4079 3.3125 Q86.1267 3.7656 84.2204 3.7656 Q81.8298 3.7656 80.5564 2.4219 Q79.2829 1.0781 79.2829 -0.8125 Q79.2829 -2.7969 80.4939 -4.2422 Q81.7048 -5.6875 83.861 -5.6875 Q85.8298 -5.6875 86.7829 -4.625 Q87.736 -3.5625 87.736 -1.8594 ZM85.5642 -1.9375 Q85.5642 -4.0781 83.7517 -4.0781 Q82.0173 -4.0781 81.6892 -1.8594 L85.5642 -1.9375 ZM98.1825 -1.2812 Q98.1825 0.7188 97.0341 2.2422 Q95.8857 3.7656 93.8857 3.7656 Q92.4013 3.7656 91.8388 3.1406 L91.7294 3.1406 Q91.7294 5.4062 91.7919 7.7344 L89.2763 7.7344 Q89.4482 5.0781 89.4482 1.5938 Q89.4482 -2.8906 88.9638 -5.25 L91.3388 -5.5156 L91.4794 -4.7031 L91.62 -4.7031 Q92.62 -5.625 94.3232 -5.625 Q96.1044 -5.625 97.1435 -4.3438 Q98.1825 -3.0625 98.1825 -1.2812 ZM95.7138 -1.0469 Q95.7138 -2.2188 95.1278 -3.0625 Q94.5419 -3.9062 93.5107 -3.9062 Q92.2294 -3.9062 91.6357 -3.1562 Q91.7763 -0.5469 91.7763 1.625 Q92.37 2.0781 93.2919 2.0781 Q94.5263 2.0781 95.12 1.1641 Q95.7138 0.25 95.7138 -1.0469 ZM108.622 -1.2812 Q108.622 0.7188 107.4736 2.2422 Q106.3251 3.7656 104.3251 3.7656 Q102.8408 3.7656 102.2783 3.1406 L102.1689 3.1406 Q102.1689 5.4062 102.2314 7.7344 L99.7158 7.7344 Q99.8876 5.0781 99.8876 1.5938 Q99.8876 -2.8906 99.4033 -5.25 L101.7783 -5.5156 L101.9189 -4.7031 L102.0595 -4.7031 Q103.0595 -5.625 104.7626 -5.625 Q106.5439 -5.625 107.5829 -4.3438 Q108.622 -3.0625 108.622 -1.2812 ZM106.1533 -1.0469 Q106.1533 -2.2188 105.5673 -3.0625 Q104.9814 -3.9062 103.9501 -3.9062 Q102.6689 -3.9062 102.0751 -3.1562 Q102.2158 -0.5469 102.2158 1.625 Q102.8095 2.0781 103.7314 2.0781 Q104.9658 2.0781 105.5595 1.1641 Q106.1533 0.25 106.1533 -1.0469 ZM118.1709 -1.8594 Q118.1709 -1.375 118.1084 -0.625 L112.1396 -0.5156 Q112.2646 0.5312 113.0381 1.2266 Q113.8115 1.9219 115.0615 1.9219 Q116.4521 1.9219 118.0146 1.5 L117.8427 3.3125 Q116.5615 3.7656 114.6552 3.7656 Q112.2646 3.7656 110.9912 2.4219 Q109.7177 1.0781 109.7177 -0.8125 Q109.7177 -2.7969 110.9287 -4.2422 Q112.1396 -5.6875 114.2959 -5.6875 Q116.2646 -5.6875 117.2177 -4.625 Q118.1709 -3.5625 118.1709 -1.8594 ZM115.999 -1.9375 Q115.999 -4.0781 114.1865 -4.0781 Q112.4521 -4.0781 112.124 -1.8594 L115.999 -1.9375 ZM125.7892 -5.3125 L125.2424 -3.1406 Q124.5549 -3.4219 123.8517 -3.4219 Q122.4924 -3.4219 122.0549 -2.2031 Q122.0549 1.5 122.1174 3.5 L119.6486 3.5 Q119.8049 0.7031 119.8049 -1.0625 Q119.8049 -3.2656 119.3361 -5.25 L121.7111 -5.5156 Q121.8674 -4.4844 121.8674 -4.3125 L122.008 -4.3125 Q122.8674 -5.625 124.2892 -5.625 Q124.9455 -5.625 125.7892 -5.3125 Z"
    /></g
    ><g style="stroke-linecap:butt; fill:rgb(237,177,32); text-rendering:geometricPrecision; image-rendering:optimizeQuality; color-rendering:optimizeQuality; stroke-linejoin:round; stroke:rgb(237,177,32); color-interpolation:linearRGB; stroke-width:2.6667;"
    ><line y2="96.5" style="fill:none;" x1="516.9774" x2="556.7514" y1="96.5"
      /><path d="M513 111 L513 31 L689 31 L689 111 Z" style="fill:none; fill-rule:evenodd; stroke:rgb(38,38,38); stroke-linejoin:miter;"
    /></g
  ></g
></svg
>
