<?xml version="1.0" encoding="utf-8"?>
<!DOCTYPE svg PUBLIC "-//W3C//DTD SVG 20010904//EN" "http://www.w3.org/TR/2001/REC-SVG-20010904/DTD/svg10.dtd">
<svg version="1.0" xmlns="http://www.w3.org/2000/svg" width="1671px" height="523px" viewBox="0 0 1671 523" preserveAspectRatio="xMidYMid meet">
 <g fill="#000000">
  <path d="M232.2 401.3 l0.3 -109.8 110 0 110 0 0.3 41.3 0.2 41.2 19.5 0 19.4 0 0.3 -12.2 0.3 -12.3 4 -0.3 c3.8 -0.2 4.9 0.5 22.2 14.8 10 8.2 18.4 15 18.7 15 0.3 0 0.6 -19.8 0.6 -44 l0 -44 98.5 0 98.5 0 0 41.5 0 41.5 19.8 -0.2 19.7 -0.3 0.3 -12.2 0.3 -12.3 3.8 0 c3.5 0 5.6 1.5 22.7 15.4 l18.9 15.5 0.3 -44.5 0.2 -44.4 98 0 98 0 0.2 40.8 0.3 40.7 19.7 0.3 19.7 0.2 0.3 -12.2 0.3 -12.3 3.5 -0.3 c3.3 -0.3 5.1 1 22.5 15.2 l19 15.5 0.3 -44 0.2 -43.9 98.5 0 98.5 0 0 41 0 41 43.8 0 c24 0 54.1 0.3 66.9 0.7 l23.2 0.6 0.3 -12.4 0.3 -12.4 3.5 -0.3 c3.2 -0.2 5.1 1.1 22.5 15.4 28.5 23.5 26.5 21.6 26.5 25.5 0 3.3 -1 4.3 -22.7 21.7 -20.5 16.4 -23.1 18.2 -26.5 18.2 l-3.8 0 0 -11.8 0 -11.9 -22.7 -0.6 c-12.4 -0.4 -42.6 -0.7 -67 -0.7 l-44.3 0 0 41.5 0 41.5 -98.5 0 -98.5 0 -0.2 -44.6 -0.3 -44.6 -18.5 15.1 c-17.4 14.2 -18.8 15.1 -22.7 15.1 l-4.3 0 0 -12 0 -12 -20 0 -20 0 0 41.5 0 41.5 -98 0 -98 0 -0.2 -44.4 -0.3 -44.4 -18.9 15.4 c-17 13.9 -19.2 15.4 -22.7 15.4 l-3.8 0 -0.3 -12.2 -0.3 -12.3 -19.5 0 -19.5 0 -0.3 41.3 -0.2 41.2 -98.5 0 -98.5 0 0 -44 c0 -24.2 -0.2 -44 -0.5 -44 -0.2 0 -8.7 6.8 -18.7 15 -17.4 14.3 -18.5 15 -22.3 14.8 l-4 -0.3 -0.3 -12.2 -0.3 -12.3 -19.4 0 -19.5 0 0 53 0 53 -110.5 0 -110.5 0 0.2 -109.7z m211.8 0.2 l0 -101.5 -101.5 0 -101.5 0 0 101.5 0 101.5 101.5 0 101.5 0 0 -101.5z m283 -12 l0 -89.5 -90 0 -90 0 0 89.5 0 89.5 90 0 90 0 0 -89.5z m282 0 l0 -89.5 -90 0 -90 0 0 89.5 0 89.5 90 0 90 0 0 -89.5z m282 0 l0 -89.5 -89.5 0 -89.5 0 0 89.5 0 89.5 89.5 0 89.5 0 0 -89.5z m-771.8 11 l13.4 -10.9 -11.6 -9.6 c-6.3 -5.2 -13.4 -11 -15.7 -12.8 l-4.2 -3.3 -0.3 8.8 -0.3 8.8 -23.2 0.3 -23.3 0.2 0 7.5 0 7.5 23.3 0.2 23.2 0.3 0.3 8.8 0.3 8.8 2.4 -1.8 c1.3 -1 8.4 -6.7 15.7 -12.8z m280.6 1.5 c11.9 -9.7 14.9 -12.7 14 -13.6 -0.7 -0.6 -7.8 -6.4 -15.8 -12.9 l-14.5 -11.9 -0.3 9.2 -0.3 9.2 -23.4 0 -23.5 0 0 7.5 0 7.5 23.5 0 23.5 0 0 9.1 c0 5 0.4 8.9 0.8 8.7 0.5 -0.1 7.7 -5.9 16 -12.8z m651 6.8 c4.2 -3.4 11.2 -9.1 15.5 -12.6 l7.7 -6.4 -15.7 -13 -15.8 -13 -0.3 9.2 -0.3 9.3 -70.4 -0.6 -70.5 -0.5 0 7.4 c0 4.1 0.3 7.5 0.8 7.5 0.4 0.1 32 0.5 70.2 0.8 l69.5 0.6 0.3 8.8 c0.1 4.8 0.5 8.7 0.8 8.7 0.3 0 4 -2.8 8.2 -6.2z m-368.6 -7.4 c7.8 -6.3 14.4 -11.8 14.6 -12.3 0.1 -0.4 -6.7 -6.4 -15.2 -13.4 l-15.5 -12.6 -0.3 8.7 -0.3 8.7 -23.2 0.3 -23.3 0.2 0 7.5 0 7.5 23.3 0.2 23.2 0.3 0.3 8.8 c0.1 4.8 0.7 8.5 1.1 8.2 0.5 -0.3 7.4 -5.7 15.3 -12.1z"/>
  <path d="M247 472.9 l0 -13.1 7.8 0.6 c4.2 0.2 8.4 0.4 9.2 0.4 0.8 0 5.1 -0.2 9.5 -0.3 15.4 -0.5 14.3 -0.2 14.7 -3.2 0.3 -2.4 0.8 -2.8 4.1 -3.1 3.7 -0.3 3.7 -0.3 3.7 3.3 0 3 0.3 3.6 1.6 3.1 0.9 -0.3 2.7 -0.6 4 -0.6 2 0 2.4 -0.5 2.4 -3 l0 -3 7 0 7 0 0 3 0 3 6.1 0 c3.3 0 6.9 0.5 7.9 1 1.1 0.6 2.1 0.6 2.4 0.1 0.3 -0.5 10.3 -0.7 22.3 -0.5 12 0.2 22.3 0.3 22.8 0.3 0.6 -0.1 12.6 -0.3 26.8 -0.5 30.6 -0.3 29.7 -0.6 29.7 9.9 0 10.1 -0.1 10.1 -17.9 10.5 l-15 0.3 -0.4 -4.8 -0.3 -4.8 -0.2 4.7 -0.2 4.8 -17.2 -0.1 c-17.8 -0.1 -21.8 -0.9 -21.8 -4.4 0 -1.2 -1.4 -1.5 -6.5 -1.5 l-6.5 0 0 3.3 c0 1.8 -0.7 4.3 -1.6 5.5 -1.3 1.9 -2.4 2.2 -8.5 2.2 -6.4 0 -7 -0.2 -8.1 -2.5 -0.7 -1.6 -1.9 -2.5 -3.5 -2.5 -2.1 0 -2.3 -0.4 -2.5 -5.7 l-0.1 -5.8 -0.6 5.5 -0.6 5.5 -31.5 0.2 c-17.3 0.1 -32.7 0.2 -34.2 0.2 -2.3 0.1 -2.8 0.6 -2.8 2.6 0 2.3 -0.4 2.5 -4.5 2.5 l-4.5 0 0 -13.1z"/>
  <path d="M290.7 446.9 c-1.4 -0.8 -1.7 -2.5 -1.7 -8.9 0 -9.9 0.9 -11 9 -11 4.9 0 5.8 -0.3 6.3 -2 0.4 -1.6 1.4 -2 4.6 -2 3.4 0 4.1 0.3 4.1 2 0 1.7 0.7 2 4 2 3.6 0 4 -0.2 4 -2.5 0 -2.2 0.4 -2.5 4 -2.5 3.8 0 4 0.1 4 3.1 0 2.4 0.3 3 1.6 2.5 0.9 -0.3 2.7 -0.6 4 -0.6 1.9 0 2.4 -0.5 2.4 -2.5 0 -2.2 0.4 -2.5 4 -2.5 3.7 0 4 0.2 4 2.8 l0 2.7 15.1 0.3 15.1 0.4 3.9 -3.1 c2.6 -2.2 4.9 -3.1 7.3 -3.1 l3.6 0 0 13 0 13 -4.5 0 -4.5 0 0 -6.5 c0 -5.1 -0.3 -6.5 -1.5 -6.5 -1 0 -1.5 1.1 -1.5 3.5 l0 3.5 -8.5 0 c-6.8 0 -8.5 0.3 -8.5 1.5 0 3.6 -3.9 4.4 -22.2 4.4 l-17.7 -0.1 -0.4 -5.6 -0.3 -5.7 -0.2 5.7 -0.2 5.7 -13.8 0 c-7.5 0 -14.5 -0.5 -15.5 -1z"/>
  <path d="M290 408.5 c0 -3.7 -0.4 -6.5 -1 -6.5 -0.5 0 -1 -1.8 -1 -4 0 -2.2 0.4 -4 0.9 -4 0.5 0 1.2 -1.1 1.5 -2.5 0.6 -2.4 0.9 -2.5 9.4 -2.5 13.7 0 19.2 0.9 19.2 3.1 0 1.1 0.3 1.9 0.8 1.9 0.4 0 9.6 0.2 20.5 0.5 l19.9 0.4 3.1 -2.9 c2.4 -2.2 4.2 -3 7 -3 l3.7 0 0.1 4.8 c0.1 4.6 0.1 4.6 0.9 1.2 1.1 -4.5 3.4 -6 9.2 -6 5.9 0 8.3 2.1 9.3 7.9 1 5.8 -0.3 13.9 -2.6 16.2 -1.3 1.3 -3.3 1.9 -6.7 1.9 -5.6 0 -7.9 -1.4 -9.1 -5.5 -0.9 -2.9 -0.9 -2.9 -1 1.3 l-0.1 4.2 -4 0 -4 0 0 -6.5 c0 -5.8 -0.2 -6.5 -2 -6.5 -1.6 0 -2 0.7 -2 3.5 l0 3.5 -9.4 0 -9.5 0 -0.4 -2.7 c-0.2 -1.6 -0.5 -0.2 -0.6 2.9 l-0.1 5.7 -26 0.1 -26 0 0 -6.5z m95 -6.5 c0 -1.1 -0.4 -2 -1 -2 -0.5 0 -1 0.9 -1 2 0 1.1 0.5 2 1 2 0.6 0 1 -0.9 1 -2z"/>
  <path d="M271 369 l0 -13 4 0 c3.6 0 4 0.3 4 2.5 0 2.3 0.4 2.5 4.8 2.6 2.6 0 12.8 0.2 22.7 0.3 23.2 0.5 22 0.5 28.8 0.3 5.5 -0.2 5.7 -0.3 5.7 -2.9 0 -2.6 0.3 -2.8 4.5 -2.8 4.3 0 4.5 0.1 4.5 3 l0 3 7.3 0 c6.6 0 7.6 -0.3 10.7 -3 2.5 -2.1 4.6 -2.9 7.3 -3 3.3 0 3.7 0.3 3.7 2.4 0 2.3 0.5 2.5 4.8 2.8 7.3 0.5 13 -0.7 15.6 -3.1 1.7 -1.6 3.3 -2.2 5.7 -1.9 l3.4 0.3 0 12.5 0 12.5 -4.2 0.3 -4.3 0.3 0 -6.5 c0 -6 -0.2 -6.6 -2 -6.6 -2.4 0 -3.7 2.7 -2.1 4.3 0.6 0.6 1.1 2.8 1.1 4.8 l0 3.7 -13.5 0.1 -13.5 0.1 0 -6.5 c0 -5.1 -0.3 -6.5 -1.5 -6.5 -1 0 -1.5 1.1 -1.5 3.5 l0 3.5 -8.5 0 -8.5 0 0 3 0 2.9 -15.2 -0.2 -15.3 -0.2 -0.6 -5 -0.6 -5 -0.1 5.3 -0.2 5.2 -4 0 -3.9 0 -0.4 -5.7 -0.3 -5.8 -0.2 5.7 -0.2 5.7 -19 0 -19 0 0 -12.9z m110 2.5 c0 -0.8 -0.4 -1.7 -1 -2 -0.6 -0.4 -1 0.5 -1 2 0 1.5 0.4 2.4 1 2 0.6 -0.3 1 -1.2 1 -2z"/>
  <path d="M293.2 348.4 c-2.6 -1.1 -4.2 -6.3 -4.2 -13.3 0 -5.9 0.4 -7.4 2.3 -9.7 2 -2.3 3.4 -2.8 8.3 -3.1 6.5 -0.4 10.3 1 11.8 4.2 0.8 1.9 1.7 2 18.5 1.8 14.8 -0.3 17.8 -0.1 18.7 1.2 1 1.4 1.2 1.4 1.8 0 0.3 -0.8 1.2 -1.5 2 -1.5 0.8 0 2.6 -1.1 3.9 -2.4 2.4 -2.4 3 -2.4 17.2 -2.5 8.1 0 15.5 0.4 16.5 0.9 5.8 3.1 5.1 20.7 -1 24 -1.2 0.6 -10.1 1 -22.8 1 -20.5 -0.1 -21 -0.2 -22 -2.3 l-1.1 -2.2 0 2.3 c-0.1 1.9 -0.6 2.2 -4.1 2.2 l-3.9 0 -0.4 -5.7 -0.3 -5.8 -0.2 5.8 -0.2 5.7 -11.2 -0.4 c-14.1 -0.5 -12 -0.5 -20.8 -0.1 -4.1 0.2 -8.1 0.2 -8.8 -0.1z m10 -10.3 c0.8 -1 2.5 -2.1 3.8 -2.4 2.5 -0.4 2.5 -0.4 -0.2 -0.6 -1.6 0 -3.2 -0.9 -3.8 -2.1 -1.3 -2.4 -3.8 -1.6 -4.6 1.6 -0.6 2.3 0.9 5.4 2.7 5.4 0.4 0 1.4 -0.9 2.1 -1.9z m80.8 -0.2 c0.9 -1.6 0.8 -2.6 -0.5 -4.5 -2.3 -3.6 -3.5 -2.9 -3.5 2.1 0 5 2 6.2 4 2.4z"/>
  <path d="M548.5 418.8 c-0.3 -0.8 -0.4 -6.8 -0.3 -13.4 l0.3 -11.9 4.1 -0.3 c3.9 -0.3 4.3 0 6.5 3.5 l2.4 3.8 0.3 -3.7 c0.3 -3.7 0.4 -3.8 4.3 -3.8 3.7 0 3.9 0.1 3.9 3.3 l0 3.2 31.5 0 31.5 0 0 -3.3 0 -3.3 7.3 0.3 c7 0.3 7.2 0.4 7.5 3.1 l0.3 2.7 14 0 c13.1 0 13.9 -0.1 13.9 -1.9 0 -2.6 0.6 -2.9 8.3 -3.7 l6.7 -0.7 0 3.4 0 3.4 14.4 -0.3 c18.1 -0.3 17.8 -0.5 17.4 11.7 l-0.3 8.6 -4 0 -4 0 -0.6 -5 -0.6 -5 -0.1 5.2 -0.2 5.2 -59.5 0 -59.5 0 -0.2 -6.2 -0.1 -6.2 -0.6 6 -0.6 6 -15.3 0.2 -15.3 0.1 -2.2 -3 -2.2 -3 -0.5 2.9 c-0.4 2.4 -1 2.8 -4.3 3.1 -2.4 0.2 -3.9 -0.1 -4.2 -1z"/>
  <path d="M598.5 385.8 c-0.3 -0.8 -0.4 -6.8 -0.3 -13.4 l0.3 -11.9 6 -0.3 c9 -0.5 12.5 0.4 13.7 3.6 1 2.6 1.2 2.7 7.9 2.4 5.9 -0.3 6.9 -0.6 6.9 -2.2 0 -2.1 1.9 -3 6.1 -3 2.4 0 2.9 0.4 2.9 2.5 0 2.4 0.2 2.5 6.5 2.5 l6.5 0 0 -3 c0 -2.8 0.2 -3 4 -3 3.8 0 4 0.2 4 3 0 2.8 0.3 3 3.5 3 5.2 0 6.7 2.9 6.3 12.6 l-0.3 7.9 -4 0 -4 0 -0.6 -5.5 -0.6 -5.5 -0.1 5.7 -0.2 5.7 -22.2 -0.3 c-12.3 -0.2 -22.7 -0.4 -23.3 -0.4 -0.5 -0.1 -4.9 0.1 -9.7 0.4 -7 0.5 -8.9 0.3 -9.3 -0.8z"/>
  <path d="M892.8 407.9 c-1 -0.5 -1.8 -1.9 -1.8 -2.9 0 -2.2 -1 -2.4 -13.7 -2 -6.6 0.2 -7.4 -0.1 -9.9 -2.5 -2.5 -2.5 -2.6 -2.9 -1.9 -10.8 0.3 -4.5 0.9 -9 1.1 -9.9 0.7 -2.5 6.9 -4.2 12.3 -3.3 2.5 0.4 6.7 0.6 9.4 0.5 4.6 -0.1 4.7 0 4.7 2.9 l0 3 19.3 0.3 c10.5 0.2 22.5 0.2 26.5 0 l7.2 -0.3 0 -2.9 c0 -2.8 0.2 -3 4 -3 3.8 0 4 0.2 4 3 0 2.8 0.3 3 3.5 3 3.2 0 3.5 -0.2 3.5 -3 0 -2.9 0.2 -3 4.5 -3 l4.5 0 0 13 0 13 -18.7 -0.1 c-43.8 -0.1 -42.2 -0.2 -43.2 2.5 -0.5 1.3 -2 2.6 -3.3 2.9 -3.5 1 -10.1 0.8 -12 -0.4z"/>
  <path d="M1168 417.6 c0 -2.2 -0.5 -2.5 -4.2 -2.8 -4.2 -0.3 -4.3 -0.4 -4.6 -4.1 -0.3 -3.2 0.4 -4.8 4.4 -10.2 4.4 -6 5.1 -6.5 8.6 -6.5 2.9 0 3.8 0.4 3.8 1.7 0 1.5 0.1 1.5 1.8 0 1.3 -1.2 3.6 -1.7 7.5 -1.7 4.7 0 5.9 0.4 7.4 2.4 3.1 3.9 13.6 3.9 18.1 0.1 2 -1.7 4.2 -2.5 6.6 -2.5 3.4 0 3.6 0.2 3.7 3.3 0 1.7 0.3 2.5 0.6 1.7 1.4 -3.9 3.6 -5 9.4 -5 7.9 0 8.9 1.5 8.9 13.1 0 8.3 -0.1 8.9 -2.6 10.8 -4.8 3.7 -12.9 2.5 -15 -2.3 l-1.3 -3.1 -0.1 3.8 0 3.8 -4.2 -0.3 -4.3 -0.3 -0.3 -6.7 c-0.3 -7 -1.5 -8.5 -4.2 -5.3 -0.9 1.1 -0.8 1.9 0.4 3.7 0.9 1.2 1.6 3.7 1.6 5.4 l0 3.2 -15.1 0 c-13.5 0 -15.3 -0.2 -17 -1.9 -1.9 -1.9 -1.9 -1.9 -1.9 0.1 0 1.7 -0.7 2 -4 2 -3.6 0 -4 -0.3 -4 -2.4z m64 -11.1 c0 -0.8 -0.4 -1.7 -1 -2 -0.6 -0.4 -1 0.5 -1 2 0 1.5 0.4 2.4 1 2 0.6 -0.3 1 -1.2 1 -2z"/>
  <path d="M1205.6 389.5 c-0.6 -2.3 -1.1 -2.5 -6.9 -2.6 -3.4 -0.1 -8.2 -0.2 -10.7 -0.3 l-4.5 -0.1 -0.6 -4.5 -0.6 -4.5 -0.1 4.8 -0.2 4.8 -10.2 -0.5 c-5.7 -0.3 -10.7 -0.5 -11.3 -0.5 -0.5 0 -5.6 0.2 -11.2 0.5 l-10.3 0.4 -2.7 -4.2 -2.8 -4.2 -0.5 4 c-0.5 3.8 -0.6 3.9 -4.8 4.2 l-4.3 0.3 0.3 -13.3 0.3 -13.3 8 -0.3 c8.8 -0.2 12.8 1.1 13.3 4.4 0.3 1.8 0.9 2 6.2 1.6 3.5 -0.3 6.5 0 7.3 0.7 1 0.7 1.7 0.7 2.4 0 0.6 -0.6 3.6 -0.9 6.7 -0.7 l5.6 0.3 0 -3.2 c0 -3.2 0.2 -3.3 4 -3.3 3.8 0 4 0.2 4 3 0 2.8 0.3 3 3.8 3.1 2 0 10.7 0.2 19.2 0.4 8.5 0.1 16.2 0.2 17 0.3 0.8 0.1 4.3 -0.1 7.6 -0.4 5.8 -0.5 6.3 -0.4 8.3 2.2 1.6 2 2.1 4.1 2.1 8.5 0 5.1 -0.3 6 -2.7 7.9 -2.4 1.9 -3.6 2.1 -8.3 1.6 -6.9 -0.8 -7.8 -0.8 -11.7 0 -2.6 0.5 -3.3 1.1 -3.3 3 0 2.1 -0.5 2.4 -3.9 2.4 -3.3 0 -4 -0.4 -4.5 -2.5z"/>
  <path d="M1246.1 385.9 c-2.3 -0.9 -2.4 -1.1 -1.7 -9.2 0.5 -5.7 1.1 -8.6 2.2 -9.4 1.1 -0.8 6.1 -1.2 14.5 -1.2 15.9 0.1 15.9 0 15.9 11 0 7.5 -0.1 8 -2.4 8.9 -3.2 1.2 -25.4 1.1 -28.5 -0.1z"/>
  <path d="M18 458.7 c0 -1.9 0.7 -5.6 1.5 -8.3 0.8 -2.7 1.5 -5 1.5 -5.1 0 -0.2 -1.1 -0.3 -2.5 -0.3 -2.3 0 -2.5 -0.4 -2.5 -4.5 l0 -4.6 9.3 0.3 c8.5 0.3 9.2 0.5 9.5 2.4 0.5 3.8 9.8 3.9 10.4 0.1 0.3 -2.1 0.9 -2.2 9.6 -2.5 9.2 -0.3 9.2 -0.3 9.2 2.2 0 2.7 2.3 3.4 9.2 2.8 2.9 -0.3 3.8 -0.9 4 -2.5 0.3 -2 1 -2.2 8.1 -2.5 7.2 -0.3 7.8 -0.1 8.6 1.9 l0.8 2.2 2.1 -2.1 c1.4 -1.4 3.4 -2.2 5.7 -2.2 l3.5 0 0 8.9 0 9 2.8 -2.7 c2.7 -2.7 2.7 -2.7 0.5 -3 -2 -0.3 -2.3 -0.9 -2.3 -4.7 0 -5.4 2.5 -7.5 9 -7.5 7 0 9 1.9 9 8.7 0 3.8 -0.5 6.2 -1.7 7.5 -1.5 1.7 -1.5 1.8 0 1.8 1.3 0 1.7 0.9 1.7 4 l0 4 -13.5 0 -13.5 0 0 -6.5 c0 -5.8 -0.2 -6.5 -2 -6.5 -1.7 0 -2 0.7 -2 4.5 0 3.2 -0.6 5.1 -2 6.5 -1.8 1.8 -3.3 2 -16.5 1.9 l-14.5 0 0 -3.5 c0 -2 0.5 -4.5 1.1 -5.6 0.8 -1.4 0.8 -2.3 0 -3.1 -1.2 -1.2 -5 6.3 -5.1 10 0 2.3 -0.2 2.3 -13 2.2 l-13 -0.1 0 -3.4 c0 -1.9 0.6 -4.3 1.2 -5.4 1 -1.5 1 -2.2 0.1 -3.1 -1 -1 -1.7 -0.3 -3.2 3.2 -1.2 2.4 -2.1 5.4 -2.1 6.7 0 1.9 -0.5 2.2 -4.5 2.2 -4.4 0 -4.5 0 -4.5 -3.3z m32.5 -11.9 c0.4 -1.1 0.3 -1.8 -0.4 -1.8 -0.6 0 -1.1 0.8 -1.1 1.8 0 1 -0.5 2.3 -1.1 2.9 -0.7 0.7 -0.8 1.9 -0.4 3 0.7 1.5 0.9 1.3 1.5 -1.2 0.4 -1.6 1.1 -3.8 1.5 -4.7z"/>
  <path d="M1356 459.5 c0 -2.2 -0.4 -2.5 -4 -2.5 l-4 0 0 -4.3 c0 -3.5 0.8 -5.4 4.5 -10.5 4.2 -5.8 4.8 -6.2 8.5 -6.2 2.2 0 4 0.5 4 1 0 0.7 0.6 0.7 1.9 0 1.1 -0.5 4 -1 6.6 -1 3.5 0 5.2 0.6 7 2.4 2.4 2.4 4.5 2.9 12.1 2.7 2.9 -0.1 4.9 -0.8 6.8 -2.6 1.8 -1.7 3.9 -2.5 6.2 -2.5 l3.4 0 0 13 0 13 -4 0 -4 0 0 -6.5 c0 -6.2 -0.1 -6.5 -2.4 -6.5 -3 0 -3.8 2 -2 4.5 0.8 1 1.4 3.3 1.4 5.1 l0 3.3 -14.7 0 c-8 0 -15.5 -0.5 -16.5 -1 -1.2 -0.6 -1.8 -0.6 -1.8 0.1 0 0.5 -2 1 -4.5 1 -4.1 0 -4.5 -0.2 -4.5 -2.5z"/>
  <path d="M1412 460 c-1.7 -1.7 -2 -3.3 -2 -11 0 -11 1.3 -13 8.6 -13 5.8 0 7.9 1.2 9.3 5.1 2.4 6.9 0.8 17.9 -2.9 19.9 -3.3 1.8 -10.8 1.2 -13 -1z m8 -10.5 c0 -1.4 -0.4 -2.5 -1 -2.5 -1.1 0 -1.4 3.3 -0.3 4.3 1.1 1.1 1.3 0.8 1.3 -1.8z"/>
  <path d="M139.7 428.3 c-0.4 -0.3 -0.7 -6 -0.7 -12.5 l0 -11.8 -69.5 0 -69.5 0 0 -16 0 -16 69.5 0 69.5 0 0 -12 0 -12 4.3 0 c4 0 5.4 1 26.2 18 l22 18 0 4.3 0 4.4 -22.2 18.2 c-19 15.5 -22.7 18.1 -25.6 18.1 -1.9 0 -3.7 -0.3 -4 -0.7z m25.6 -28.2 c7.5 -6.2 13.7 -11.6 13.7 -11.9 -0.1 -0.4 -6.9 -6.2 -15.3 -13 l-15.2 -12.3 -0.5 8.8 -0.5 8.8 -70.2 0.3 -70.3 0.2 0 7.5 0 7.5 70.2 0.2 70.3 0.3 0.3 8.9 c0.3 8.2 0.4 8.7 2 7.4 0.9 -0.8 7.9 -6.6 15.5 -12.7z"/>
  <path d="M209.7 240.4 c-0.4 -0.4 -0.7 -54.7 -0.7 -120.6 l0 -119.8 15.5 0 15.5 0 0 2.5 c0 2.4 0 2.4 -11.2 2.7 l-11.3 0.3 -0.3 113.2 -0.2 113.2 11.2 0.3 11.3 0.3 0 4 0 4 -14.6 0.3 c-8 0.1 -14.8 -0.1 -15.2 -0.4z"/>
  <path d="M1293 236.5 l0 -4.5 11 0 11 0 0 -113.5 0 -113.5 -11 0 -11 0 0 -2.5 0 -2.5 15 0 15 0 -0.2 120.3 -0.3 120.2 -14.7 0.3 -14.8 0.3 0 -4.6z"/>
  <path d="M232 119 l0 -110 110.5 0 110.5 0 0 47 0 47 19.5 0 19.4 0 0.3 -12.2 0.3 -12.3 3.6 -0.3 c3.3 -0.3 5 0.9 22.5 15.2 l18.9 15.4 0.5 -44.1 0.5 -44.2 98 0 98 0 0.3 41.3 0.2 41.2 20 0 20 0 0 -12.5 0 -12.5 3.8 0 c3.3 0.1 5.8 1.8 22.7 15.7 l19 15.6 0.3 -44.7 0.2 -44.6 98 0 98 0 0.2 41.3 0.3 41.2 19.7 0.3 19.7 0.2 0.3 -12.2 0.3 -12.3 3.5 -0.3 c3.2 -0.3 5.2 1.1 22.5 15.2 l19 15.5 0.5 -44.2 0.5 -44.2 98 0 98 0 0.3 98.3 0.2 98.2 -98.5 0 -98.5 0 -0.2 -44.1 -0.3 -44.2 -18.5 15.2 c-17.4 14.2 -18.8 15.1 -22.7 15.1 l-4.3 0 0 -12 0 -12 -20 0 -20 0 0 41 0 41 -98 0 -98 0 0 -44.5 0 -44.5 -18.9 15.5 c-17.6 14.3 -19.3 15.5 -23 15.5 l-4.1 0 0 -12 0 -12 -20 0 -20 0 0 41 0 41 -98.5 0 -98.5 0 -0.2 -44 -0.3 -44.1 -19 15.6 c-17.3 14.2 -19.3 15.5 -22.5 15.3 l-3.5 -0.3 -0.3 -12.2 -0.3 -12.3 -19.4 0 -19.5 0 -0.2 46.8 -0.3 46.7 -110.2 0.3 -110.3 0.2 0 -110z m212 0 l0 -102 -101.5 0 -101.5 0 0 102 0 102 101.5 0 101.5 0 0 -102z m282.8 -0.2 l0.2 -89.8 -90 0 -90 0 0 90 0 90 89.8 -0.2 89.7 -0.3 0.3 -89.7z m282.2 0.2 l0 -90 -90 0 -90 0 0 90 0 90 90 0 90 0 0 -90z m282 0 l0 -90 -89.5 0 -89.5 0 0 90 0 90 89.5 0 89.5 0 0 -90z m-477.1 0.6 c0.7 -0.8 -3.8 -5 -14.7 -13.9 l-15.7 -12.7 -0.3 9 -0.3 9 -23.4 0 -23.5 0 0 7.5 0 7.5 23.3 0.2 23.2 0.3 0.3 9.2 0.3 9.3 14.9 -12.1 c8.2 -6.7 15.4 -12.6 15.9 -13.3z m-297.2 12.4 c8.1 -6.6 14.8 -12.5 14.8 -13.1 0 -0.6 -6.7 -6.6 -15 -13.4 l-15 -12.3 -0.5 8.7 -0.5 8.6 -23.2 0.3 -23.3 0.2 0 7.5 0 7.5 23.3 0.2 23.2 0.3 0.3 8.8 c0.1 4.8 0.4 8.7 0.6 8.7 0.2 0 7.1 -5.4 15.3 -12z m565.8 -0.8 c7.7 -6.3 14 -11.9 14 -12.4 0 -0.4 -6.7 -6.4 -15 -13.2 l-15 -12.3 -0.5 8.6 -0.5 8.6 -23.2 0.3 -23.3 0.2 0 7.5 0 7.5 23.3 0.2 23.2 0.3 0.3 8.8 c0.2 6.5 0.6 8.6 1.5 8 0.7 -0.4 7.5 -5.9 15.2 -12.1z"/>
  <path d="M247 191.1 l0 -13.1 16.8 0.1 c26.3 0.1 24.2 0.4 24.2 -3.1 0 -2.8 0.2 -3 4 -3 3.9 0 4 0.1 4 3.3 0 3.2 0.1 3.2 4 2.9 3.7 -0.4 4 -0.7 4 -3.3 l0 -2.9 7 0 7 0 0 3 0 3 7.3 0 c3.9 0 29.8 0.1 57.4 0.1 l50.2 0 1.6 2.2 c0.9 1.3 1.5 4.4 1.5 8.3 0 9.1 -0.5 9.4 -18.3 9.4 l-14.6 0 -0.4 -4.7 -0.3 -4.8 -0.2 4.8 -0.2 4.7 -17.9 0 c-15 0 -18.2 -0.3 -19.5 -1.6 -0.9 -0.8 -1.6 -2 -1.6 -2.5 0 -0.5 -2.9 -0.9 -6.5 -0.9 l-6.5 0 0 3.5 c0 5.4 -2.8 7.5 -9.8 7.5 -6 0 -8.2 -1.1 -8.2 -4.2 0 -1.3 -0.8 -1.8 -2.9 -1.8 -2.9 0 -3 -0.2 -3.4 -5.2 l-0.3 -5.3 -0.2 5.3 -0.2 5.2 -31.2 0 c-17.2 -0.1 -32.7 -0.1 -34.5 0 -2.7 0 -3.2 0.4 -3.5 2.8 -0.3 2.4 -0.7 2.7 -4.5 3 l-4.3 0.3 0 -13z"/>
  <path d="M290.2 163.8 c-1.6 -1.6 -1.6 -16 0 -17.6 0.7 -0.7 3.9 -1.2 7.4 -1.2 5.7 0 6.3 -0.2 6.6 -2.2 0.3 -2 0.9 -2.3 4.3 -2.3 3.4 0 4 0.3 4.3 2.3 0.3 1.8 1 2.2 4.3 2.2 3.7 0 3.9 -0.2 3.9 -3 0 -2.8 0.2 -3 4 -3 3.9 0 4 0.1 4 3.3 0 3.2 0.1 3.2 4 2.9 3.7 -0.4 4 -0.7 4 -3.3 0 -2.7 0.3 -2.9 4 -2.9 3.8 0 4 0.1 4 3.3 l0 3.2 7.2 -0.2 c4 -0.1 10.9 -0.2 15.4 -0.3 7 0 8.6 -0.4 11.8 -2.5 2.2 -1.5 5.1 -2.5 7.1 -2.5 l3.5 0 0 12.5 0 12.5 -4.5 0 -4.5 0 0 -6.5 c0 -5 -0.3 -6.5 -1.4 -6.5 -1 0 -1.6 1.3 -1.8 3.8 l-0.3 3.7 -8.2 0.3 c-6.4 0.2 -8.3 0.6 -8.3 1.7 0 2.9 -3.9 3.5 -21.9 3.5 l-18 -0.1 -0.4 -5.7 -0.3 -5.7 -0.2 5.7 -0.2 5.7 -14.3 0 c-9.6 0 -14.8 -0.4 -15.5 -1.1z"/>
  <path d="M298 126 c0 -3.3 -0.4 -6 -1 -6 -0.5 0 -1 -1.8 -1 -4 0 -2.2 0.5 -4 1 -4 0.6 0 1 -0.8 1 -1.8 0 -1 0.5 -2.3 1.2 -3 1.3 -1.3 13.7 -1.6 22.6 -0.6 4.6 0.6 5.2 0.9 5.2 3 l0 2.4 27.8 0 c20.3 0 28.1 0.3 29 1.2 0.8 0.8 1.2 4.5 1.2 10 l0 8.8 -3.9 0 -4 0 -0.4 -5.2 -0.3 -5.3 -0.2 5.3 -0.2 5.2 -4.5 0 c-4.1 0 -4.5 -0.2 -4.5 -2.4 0 -2.4 -0.3 -2.5 -8.5 -2.8 l-8.5 -0.3 0 2.8 0 2.7 -26 0 -26 0 0 -6z"/>
  <path d="M271 86.4 l0 -13.4 4 0 c3.8 0 4 0.2 4 2.9 l0 3 24.3 0.3 c13.3 0.2 27.2 0.2 30.9 0 6.4 -0.4 6.7 -0.5 7 -3 0.3 -2.4 0.7 -2.7 4.3 -2.7 3.6 0 4 0.3 4.3 2.8 0.3 2.7 0.4 2.7 7.3 2.7 3.8 0 6.9 -0.4 6.9 -0.9 0 -2.6 3.4 -4.1 9 -4.1 5.1 0 6.1 0.3 7.8 2.5 1.7 2.1 2.8 2.5 7.4 2.5 4.6 0 5.5 -0.3 6.3 -2.2 0.9 -2 1.9 -2.3 7.3 -2.6 3.6 -0.2 6.9 0.2 7.7 0.8 1.5 1.2 3.1 16.5 2.1 20.4 -0.9 3.8 -5.2 4.5 -25.7 4.3 -19 -0.2 -21.9 -0.8 -21.9 -4.3 0 -1.1 -1.7 -1.4 -6.9 -1.4 -6.8 0 -7 0 -7.3 2.7 l-0.3 2.8 -15 0 -15 0 -0.6 -5 -0.6 -5 -0.1 5.3 -0.2 5.3 -3.7 -0.3 -3.8 -0.3 -0.6 -6 -0.5 -6 -0.5 6 -0.4 6 -18.7 0.1 -18.8 0.2 0 -13.4z m98 0.1 c0 -0.8 -0.4 -1.5 -1 -1.5 -0.5 0 -1 0.7 -1 1.5 0 0.8 0.5 1.5 1 1.5 0.6 0 1 -0.7 1 -1.5z m29 -0.1 c0 -1.4 -0.3 -1.4 -1.5 -0.4 -0.8 0.7 -1.5 1.4 -1.5 1.6 0 0.2 0.7 0.4 1.5 0.4 0.8 0 1.5 -0.7 1.5 -1.6z"/>
  <path d="M292 64.2 c-2.8 -2.9 -3 -3.5 -3 -10.7 0 -7.1 0.2 -7.9 2.9 -10.6 2.6 -2.6 3.6 -2.9 9.3 -2.9 5.4 0 6.8 0.4 8.6 2.3 1.2 1.3 2.2 2.7 2.2 3.3 0 0.5 7.1 0.8 17.6 0.6 12.3 -0.2 18 0.1 19 0.9 1 0.8 1.4 0.8 1.4 0 0 -0.6 1.1 -1.1 2.4 -1.1 1.6 0 2.7 -0.7 3.1 -2 0.8 -2.5 3.9 -3.3 10.5 -2.8 2.7 0.1 5 0 5 -0.4 0 -1.2 14.4 -1 17.5 0.2 4.9 1.9 7.2 13 4.1 20.4 -2.1 5 -5.3 5.7 -27.9 5.5 l-19.6 -0.1 -1 -2.6 -0.9 -2.7 -0.1 2.8 c-0.1 2.5 -0.4 2.7 -4.1 2.7 l-4 0 -0.2 -5.7 -0.1 -5.8 -0.6 5.5 -0.6 5.5 -10.5 -0.2 c-14.4 -0.3 -13.7 -0.3 -21.2 0.3 -6.5 0.5 -6.9 0.5 -9.8 -2.4z m11 -8.2 c0.6 -1.2 2.1 -2 3.5 -2 1.4 0 2.5 -0.4 2.5 -1 0 -0.5 -1.2 -1 -2.6 -1 -1.5 0 -3.2 -0.8 -3.9 -1.7 -1.1 -1.5 -1.5 -1.5 -2.9 -0.4 -1.9 1.6 -2 3.4 -0.6 6.2 1.4 2.4 2.7 2.4 4 -0.1z m80.6 -0.5 c1.6 -2.4 1.6 -2.7 -0.1 -4.5 -2.7 -3 -3.5 -2.4 -3.5 2.5 0 5.1 1.2 5.7 3.6 2z"/>
  <path d="M548 136 l0 -13 4.3 0 c3.5 0 4.6 0.5 6.9 3.2 l2.7 3.3 0.1 -3.2 c0 -3.2 0.2 -3.3 4 -3.3 3.7 0 4 0.2 4 2.8 l0 2.7 23.2 0.1 c12.8 0 24.2 0.1 25.3 0.1 1.1 0 4.8 0 8.3 -0.1 6.1 -0.1 6.2 -0.2 6.2 -2.8 l0 -2.8 7.5 0 c7.3 0 7.5 0.1 7.5 2.4 0 2.3 0.3 2.5 7.6 2.8 4.1 0.2 10.4 0.1 14 0 5.3 -0.3 6.4 -0.7 6.4 -2.1 0 -1.4 1.1 -2 5.3 -2.5 9.7 -1.1 10.7 -0.9 10.7 2.2 l0 2.7 13.1 -0.3 c17.7 -0.4 17.9 -0.3 17.9 11.9 l0 9 -4.2 -0.3 -4.3 -0.3 -0.6 -5 -0.6 -5 -0.1 5.2 -0.2 5.2 -59.5 0 -59.5 0.1 -0.2 -6.2 -0.1 -6.3 -0.6 6 -0.6 6 -15.6 0.2 -15.5 0.2 -2 -3.2 -1.9 -3.2 -0.3 3.3 c-0.3 3.1 -0.5 3.2 -4.8 3.2 l-4.4 0 0 -13z"/>
  <path d="M598.6 115.3 c-0.3 -0.4 -0.6 -6.2 -0.6 -13 l0 -12.3 9 0 c8.9 0 9.1 0.1 10.7 2.8 1.5 2.5 1.9 2.7 8.1 2.5 5.7 -0.1 6.7 -0.4 7.4 -2.2 0.6 -1.7 1.6 -2.1 4.8 -2.1 3.3 0 4 0.3 4 2 0 1.1 0.3 2 0.8 2.1 0.4 0 3.3 0.1 6.5 0.2 5.6 0.2 5.7 0.2 5.7 -2.5 0 -2.6 0.3 -2.8 4 -2.8 3.6 0 4 0.3 4 2.5 0 2.1 0.5 2.5 3 2.5 5.4 0 7 2.8 7 12.5 l0 8.5 -4.4 0 -4.5 0 -0.4 -5.2 -0.3 -5.3 -0.2 5.3 -0.2 5.2 -31.9 -0.1 c-17.5 0 -32.2 -0.3 -32.5 -0.6z"/>
  <path d="M876.7 154.4 c-0.4 -0.4 -0.7 -1.8 -0.7 -3.1 0 -2.3 -0.2 -2.3 -10 -2.3 -9.5 0 -10 -0.1 -11.6 -2.5 -1.4 -2.1 -1.5 -3.7 -0.8 -9.2 1.1 -8.1 2.9 -9.6 11.2 -9 5.1 0.4 5.2 0.3 5.2 -2.5 0 -2.7 0.2 -2.8 4.5 -2.8 4.1 0 4.5 0.2 4.5 2.5 0 2.3 0.3 2.5 4.9 2.5 2.7 0 5.6 0.3 6.5 0.6 1.3 0.5 1.6 -0.1 1.6 -2.5 0 -3 0.2 -3.1 4 -3.1 3.6 0 4 0.3 4 2.4 0 2 0.6 2.5 3.8 3 2 0.3 4.4 0.5 5.2 0.5 0.8 -0.1 8.1 0 16.3 0.1 9.9 0.1 14.7 -0.2 14.7 -0.9 0 -2.8 4.1 -5.1 9 -5.1 7.2 0 9 2.1 9 10.5 l0 6.5 3.5 0 c3.5 0 3.5 0 3.5 4.4 l0 4.5 -10.2 0 c-10.6 0 -14.8 -1.3 -14.8 -4.4 0 -1.2 -1.5 -1.5 -7 -1.5 l-7 0 0 3 0 3 -12 0 -12 0 0 -5.1 c0 -3.1 -0.4 -4.8 -1 -4.4 -0.5 0.3 -1 2.7 -1 5.1 l0 4.6 -4.2 -0.2 c-9.9 -0.4 -10.6 -0.2 -11 2.8 -0.3 2.3 -0.8 2.7 -3.8 3 -2 0.2 -3.9 0 -4.3 -0.4z m73.3 -18.5 c0 -1 -0.4 -1.9 -1 -1.9 -0.5 0 -1 1.2 -1 2.6 0 1.4 0.4 2.3 1 1.9 0.6 -0.3 1 -1.5 1 -2.6z"/>
  <path d="M970 142.5 c0 -6.3 -0.1 -6.5 -2.5 -6.5 -2.2 0 -2.5 -0.4 -2.5 -3.9 0 -3.2 0.6 -4.3 3.4 -6.5 2 -1.5 4.8 -2.6 6.5 -2.6 l3.1 0 0 13 0 13 -4 0 -4 0 0 -6.5z"/>
  <path d="M907.7 121.3 c-0.4 -0.3 -0.7 -1.7 -0.7 -3 0 -2.3 0 -2.3 -14.2 -2.4 -7.9 0 -21.6 0 -30.5 0.1 l-16.3 0.1 0 -13 0 -13.1 4.5 0 4.5 0 0 9 0 9 3 0 c2.8 0 3 -0.2 3 -4 0 -3.1 0.7 -4.7 2.6 -6.7 2.3 -2.3 3 -2.5 8.2 -1.9 3.1 0.4 6.6 0.6 7.7 0.5 1.1 -0.1 4.6 -0.3 7.8 -0.3 5.5 -0.1 5.7 -0.2 5.7 -2.8 0 -2.6 0.3 -2.8 4.5 -2.8 4.1 0 4.5 0.2 4.5 2.5 0 2.4 0.3 2.5 6 2.5 4.4 0 6.1 0.4 6.8 1.6 0.8 1.5 1 1.5 1.5 0 0.4 -1.1 1.9 -1.6 4.7 -1.6 3.9 0 4 0.1 4 3.5 0 3.9 -5.4 19 -7.8 21.8 -1.5 1.7 -8.1 2.4 -9.5 1z"/>
  <path d="M930 103 l0 -13 9.5 0 c9.4 0 9.6 0.1 11.2 2.8 1.4 2.5 2 2.7 7.9 2.7 6.3 0 6.4 0 6.4 -2.7 0 -2.6 0.3 -2.8 4.5 -2.8 4.1 0 4.5 0.2 4.5 2.5 0 2.1 0.5 2.5 3 2.5 2.8 0 2.9 0.1 3.3 5.8 l0.3 5.7 0.2 -5.7 0.2 -5.8 3.9 0 c2.9 0 4.1 0.5 4.5 1.8 0.7 2.2 0.7 10.5 0 15.4 l-0.6 3.7 -22.3 0 -22.3 0.1 -2.8 -4.3 -2.9 -4.2 -0.3 4.3 c-0.3 4.2 -0.3 4.2 -4.3 4.2 l-3.9 0 0 -13z"/>
  <path d="M1149.2 163.8 c-1.6 -1.6 -1.6 -16 0 -17.6 0.7 -0.7 3.9 -1.2 7.4 -1.2 5.7 0 6.3 -0.2 6.6 -2.2 0.2 -1.9 1 -2.4 4.6 -2.6 3.9 -0.3 4.2 -0.1 4.2 2.2 0 2.4 0.4 2.6 4 2.6 3.8 0 4 -0.2 4 -3 0 -2.8 0.2 -3 4 -3 3.9 0 4 0.1 4 3.3 0 3.2 0.1 3.2 4 2.9 3.7 -0.4 4 -0.7 4 -3.3 0 -2.7 0.3 -2.9 4 -2.9 3.8 0 4 0.1 4 3.3 l0 3.2 14.7 -0.3 c8.6 -0.1 14.9 -0.7 15.1 -1.2 0.2 -0.6 1 -1.7 1.9 -2.5 1.8 -1.9 13.3 -2.1 15.1 -0.3 1.5 1.5 1.6 11.2 0.2 13.9 -0.7 1.3 -0.7 1.9 0 1.9 0.5 0 1 1.8 1 4 l0 4 -9.5 0 c-9.5 0 -9.5 0 -9.5 -2.5 0 -2.4 -0.2 -2.5 -6.3 -2.5 -5.5 0 -6.3 0.3 -7.2 2.3 -1 2.2 -1.3 2.2 -20.2 2.4 l-19.2 0.2 -0.4 -5.7 -0.3 -5.7 -0.2 5.7 -0.2 5.7 -14.3 0 c-9.6 0 -14.8 -0.4 -15.5 -1.1z"/>
  <path d="M1130 119 l0 -13 4 0 c3.8 0 4 0.2 4 3 0 2.8 0.3 3 3.8 3 10.8 0.1 45.6 0.1 51.5 0 l6.7 0 0 -3 c0 -2.9 0.2 -3 4.5 -3 4.3 0 4.5 0.1 4.5 3 l0 3 7 0 c5.5 0 7 -0.3 7 -1.5 0 -2.4 3.7 -3.6 10.3 -3.3 5.3 0.3 6.3 0.6 7.2 2.6 0.8 1.9 1.7 2.2 6.5 2.2 4.8 0 5.7 -0.3 6.5 -2.2 0.9 -2 1.9 -2.3 7.8 -2.6 4.2 -0.2 7.4 0.2 8.3 0.9 1.8 1.5 1.9 12 0.2 13.8 -1 1.1 -1 1.4 0 1.8 0.7 0.3 1.2 2.2 1.2 4.4 l0 3.9 -24.5 0 -24.5 0 0 -2.5 c0 -2.4 -0.2 -2.5 -6.5 -2.5 -6.3 0 -6.5 0.1 -6.5 2.5 l0 2.5 -15.4 0 -15.5 0 -0.4 -4.7 -0.3 -4.8 -0.2 4.8 -0.2 4.7 -4 0 -3.9 0 -0.4 -5.7 -0.3 -5.8 -0.2 5.8 -0.2 5.7 -19 0 -19 0 0 -13z"/>
  <path d="M1258.2 103.8 c-0.7 -0.7 -1.2 -1.8 -1.2 -2.4 0 -0.7 -1.2 -1.4 -2.7 -1.6 -2.6 -0.3 -2.8 -0.7 -3.4 -5.8 l-0.5 -5.5 -0.5 5.5 -0.4 5.5 -16 -0.2 c-17.3 -0.2 -20.6 -0.2 -27.7 0 -5.3 0.2 -8.8 -2.2 -8.8 -6 0 -2.1 -0.4 -2.3 -4.4 -2.3 l-4.5 0 -0.3 4.3 -0.3 4.2 -6.3 0.3 c-3.5 0.2 -6.9 -0.2 -7.6 -0.7 -0.7 -0.6 -1.6 -0.7 -2 -0.3 -0.4 0.4 -10.9 0.8 -23.2 0.9 l-22.4 0.1 0 -13.4 0 -13.4 4.8 0 4.8 0 1.5 4.8 1.5 4.7 1.3 -4.7 1.4 -4.8 4.8 0 c4.9 0 4.9 0 4.9 3.3 l0 3.2 14 -0.3 14 -0.3 0 -3 0 -2.9 8.3 0 c8.7 0 12.7 1.5 12.7 4.8 0 1.4 0.9 1.6 5.4 1.4 3 -0.2 6.3 0.1 7.4 0.7 1.3 0.7 2.2 0.7 2.9 0 0.6 -0.6 3.8 -0.9 7.2 -0.7 l6.1 0.3 0 -3.2 0 -3.3 7.5 0 7.5 0 0 3 0 3 6.8 0.1 c3.7 0.1 10.6 0 15.5 -0.1 l8.7 -0.2 0 11.4 c0 14 -0.5 14.8 -9.6 14.8 -3.3 0 -6.5 -0.5 -7.2 -1.2z"/>
  <path d="M1344 223.4 c0 -1.9 0.6 -4.3 1.2 -5.4 1 -1.6 1 -2.4 0 -4 -0.6 -1.1 -1.2 -3.3 -1.2 -5 l0 -3 9 0 9 0 0 3.8 c0 2.1 -0.5 4.3 -1.1 4.9 -0.8 0.8 -0.7 1.7 0.5 3.4 0.9 1.3 1.6 3.8 1.6 5.6 l0 3.2 -9.5 0 -9.5 -0.1 0 -3.4z"/>
  <path d="M1370.3 225.9 c-3.4 -1.8 -4.6 -6.1 -4.1 -14 0.7 -9.3 2.2 -10.9 9.9 -10.9 8.3 0 8.9 0.9 8.9 12.9 0 7.6 -0.3 10.1 -1.5 11.1 -2.1 1.7 -10.4 2.3 -13.2 0.9z"/>
  <path d="M7.8 200.8 c-0.2 -1.9 -1 -2.4 -4 -2.6 -3.8 -0.3 -3.8 -0.3 -3.8 -4.9 0 -3.6 0.8 -5.6 4.1 -10.4 3.9 -5.4 4.5 -5.9 8 -5.9 l3.8 0 0.3 5.2 0.3 5.3 3.7 -5.3 c3.5 -4.8 4.1 -5.2 7.8 -5.2 3 0 4 0.4 4 1.6 0 1.4 0.2 1.4 2.2 0 4.2 -3 14.8 -1.6 14.8 1.9 0 1.5 2.5 1.9 10.4 1.5 2.1 -0.1 4.2 0.4 4.6 1 0.5 0.8 1.5 -0.1 2.9 -2.4 2 -3.1 2.8 -3.6 6.2 -3.6 l3.9 0 0 5.7 0 5.7 4.2 -5.7 c3.8 -5.2 4.5 -5.7 8 -5.7 2.8 0 3.8 0.4 3.8 1.6 0 1.4 0.2 1.4 2.2 0 1.3 -0.9 4.3 -1.6 7.1 -1.6 3.9 0 5.3 0.5 7.2 2.6 2 2.1 3.3 2.6 7.3 2.6 3.9 0 5.4 -0.5 7.5 -2.6 2 -2 3.6 -2.6 7 -2.6 7.3 0 8.6 1.8 9.3 13.1 0.9 13.3 1.8 12.9 -23.9 12.9 -11.5 0 -20.7 -0.5 -21.8 -1.1 -1.3 -0.6 -1.9 -0.6 -1.9 0.1 0 0.5 -1.8 1 -4 1 -3.6 0 -4 -0.2 -4 -2.5 0 -2.2 -0.4 -2.5 -4 -2.5 -3.6 0 -4 0.3 -4 2.5 0 2.3 -0.4 2.5 -4 2.5 -3.6 0 -4 -0.2 -4 -2.5 0 -1.8 -0.5 -2.5 -2 -2.5 -1.5 0 -2 0.7 -2 2.4 l0 2.5 -14.6 0 c-8.2 0.1 -15.4 -0.4 -16.5 -0.9 -1.3 -0.7 -1.9 -0.7 -1.9 0 0 0.5 -2 1 -4.5 1 -4.1 0 -4.5 -0.2 -4.5 -2.5 0 -2.2 -0.4 -2.5 -3.5 -2.5 -3.1 0 -3.5 0.3 -3.5 2.5 0 2.2 -0.4 2.5 -3.9 2.5 -3.3 0 -4 -0.4 -4.3 -2.2z m119.2 -10.4 c0 -1.4 -0.3 -1.4 -1.5 -0.4 -0.8 0.7 -1.5 1.4 -1.5 1.6 0 0.2 0.7 0.4 1.5 0.4 0.8 0 1.5 -0.7 1.5 -1.6z"/>
  <path d="M139 147.2 l0 -11.9 -10.7 -0.6 c-5.8 -0.4 -37.1 -0.7 -69.5 -0.7 l-58.8 0 0 -16.1 0 -16 69.4 0.3 69.4 0.3 0.6 -5 c0.3 -2.7 0.6 -8.3 0.6 -12.3 l0 -7.3 3.9 0.3 c3.5 0.3 6.8 2.6 26 18.3 l22 18 0 4.1 0.1 4.1 -22.5 18.2 c-20.8 16.8 -22.7 18.1 -26.5 18.1 l-4 0 0 -11.8z m25.5 -16.2 c7.7 -6.2 14.1 -11.6 14.3 -12 0.1 -0.4 -6.6 -6.4 -15 -13.4 l-15.3 -12.7 -0.3 9.2 -0.3 9.2 -70.4 -0.7 -70.5 -0.6 0 7.5 0 7.5 18.8 0.1 c10.3 0.1 41.9 0.5 70.2 0.8 l51.5 0.6 0.3 8.8 c0.2 6.8 0.6 8.7 1.5 7.9 0.7 -0.5 7.5 -6 15.2 -12.2z"/>
  <path d="M1408 40 c0 -1.9 -0.7 -2 -15 -2 -14.8 0 -15 0 -16.6 -2.5 -1.5 -2.2 -2.3 -2.5 -8 -2.5 -6.2 0 -6.4 0.1 -6.4 2.5 0 2.3 -0.4 2.5 -4.4 2.5 l-4.5 0 -0.4 -5.2 -0.3 -5.3 -0.2 5.3 -0.2 5.2 -4 0 -4 0 0 -10 0 -10 15.9 0 c15 0 15.9 -0.1 16.4 -2 0.9 -3.6 8.8 -5.2 13.7 -2.7 2 1.1 3 1 5 0 4.3 -2.2 12.3 -1.1 14.2 2 1.4 2.2 0.8 10.2 -0.9 12.7 -1.6 2.2 -1.6 2.3 0.1 1.7 1 -0.4 2.9 -0.7 4.2 -0.7 2.3 0 2.4 -0.3 2.4 -5.9 0 -7.6 1.9 -10.1 8 -10.7 5.8 -0.6 9.4 1.2 9.8 5 l0.4 2.8 3 -4.2 c2.7 -3.7 3.4 -4.1 6.7 -3.8 l3.6 0.3 0.3 6.3 c0.2 3.4 0.7 6.2 1.2 6.2 0.6 0 1 0.9 1 2 0 1.6 0.7 2 3.5 2 l3.6 0 -0.3 6.3 -0.3 6.2 -3.7 0.3 c-3.3 0.3 -3.8 0 -3.8 -1.7 0 -1.8 -0.6 -2.1 -5 -2.1 -4.7 0 -5 -0.2 -5 -2.5 0 -3.3 -2.6 -3.3 -5.7 0.1 -2.1 2.3 -2.9 2.5 -8.8 2.2 -6 -0.3 -6.5 -0.1 -7 2 -0.4 1.8 -1.2 2.2 -4.5 2.2 -3.3 0 -4 -0.3 -4 -2z m-28 -14.5 c0 -0.8 -0.4 -1.5 -1 -1.5 -0.5 0 -1 0.7 -1 1.5 0 0.8 0.5 1.5 1 1.5 0.6 0 1 -0.7 1 -1.5z"/>
  <path d="M1502.8 39.9 c-0.3 -2 -0.7 -2.1 -21 -1.9 l-20.8 0.1 0 -6.6 c0 -6.3 -0.1 -6.5 -2.5 -6.5 -2.2 0 -2.5 -0.4 -2.5 -3.8 0 -3.1 0.6 -4.3 3 -6 1.7 -1.3 4.4 -2.2 6.5 -2.2 l3.5 0 0 9.1 0 9 2.4 -2.8 c2.3 -2.7 2.4 -2.8 0.5 -3.5 -2.1 -0.8 -2.7 -6.5 -0.9 -9.8 1.3 -2.4 8.8 -3.6 12.9 -2.2 2.1 0.7 4 0.7 6.4 0 4.1 -1.2 10 -0.4 12.2 1.8 1 1.1 1.5 3.5 1.5 8 0 6.4 0 6.4 2.8 6.4 1.6 0 3.7 -0.8 4.6 -1.9 1.6 -1.7 1.6 -1.9 -0.4 -2.4 -2.8 -0.7 -2.8 -7.6 -0.1 -10.1 2.8 -2.5 9.3 -3.2 12.9 -1.3 2.7 1.3 3.1 1.3 3.6 0 0.5 -1.2 2.1 -1.4 7.9 -1 3.9 0.3 10.4 0.6 14.4 0.6 8.6 0 9.3 0.8 9.3 10 0 5.7 0.1 6.1 2.4 6.1 2.1 0 2.4 -0.5 2.9 -5.9 0.4 -3.2 1.1 -7 1.6 -8.5 1 -2.4 1.5 -2.6 7 -2.6 7.3 0 9.1 0.6 9.1 3.2 0 1.9 0.1 1.9 2.9 -0.1 1.6 -1.2 4.5 -2.1 6.5 -2.1 l3.6 0 0 8.4 0 8.4 2.9 -2.7 2.9 -2.6 -2.4 -0.3 c-2.1 -0.3 -2.4 -0.9 -2.4 -4.6 0 -2.3 0.5 -4.7 1.2 -5.4 1.6 -1.6 14 -1.6 15.6 0 1.9 1.9 1.5 11.8 -0.5 14.1 -1.7 2 -1.7 2 0 1.4 1 -0.4 2.9 -0.7 4.1 -0.7 2.1 0 2.4 -0.6 2.9 -5.9 0.4 -3.2 1.1 -7 1.6 -8.5 1 -2.4 1.5 -2.6 7.3 -2.6 6.9 0 8.4 0.6 8.9 3.3 0.4 1.7 0.5 1.7 2.6 -0.2 1.5 -1.4 3.6 -2.1 6.3 -2.1 l4 0 0 8.6 0 8.6 1.9 -2.3 c1.6 -1.9 1.7 -2.5 0.5 -2.7 -2.1 -0.5 -1.9 -9.5 0.3 -11.3 1 -0.9 3.9 -1.4 7.6 -1.4 4.6 0.1 6.2 0.5 7.3 2 1.9 2.5 1.8 10.5 -0.2 13.3 -1.4 2 -1.4 2.2 0 2.2 1.2 0 1.6 1 1.6 4 l0 4 -14 0 -14 0 0 -6.5 c0 -5.1 -0.3 -6.5 -1.5 -6.5 -1.1 0 -1.5 1.2 -1.5 4.5 0 6.8 -2.4 8.8 -10.5 8.3 -5.8 -0.3 -6.5 -0.1 -6.7 1.7 -0.2 1.6 -1.2 2.1 -4.5 2.3 -3.8 0.3 -4.3 0.1 -4.3 -1.7 0 -2 -0.5 -2.1 -13 -2.1 l-13 0 0 -6.5 c0 -5.1 -0.3 -6.5 -1.5 -6.5 -1.1 0 -1.5 1.1 -1.5 4.3 0 2.3 -0.7 5.3 -1.6 6.6 -1.5 2 -2.3 2.2 -8.5 1.9 -6.2 -0.3 -6.9 -0.1 -7.1 1.7 -0.2 1.5 -1.2 2.1 -4 2.3 -3.1 0.3 -3.7 0 -4 -1.8 -0.3 -2.4 -1.1 -2.4 -31.9 -2.1 -13.8 0.1 -14.7 0.2 -15.2 2.1 -0.8 3 -7.4 2.9 -7.9 -0.1z"/>
 </g>
 <g fill="#ffffff">
  <path d="M0 261.5 l0 -261.5 106.3 0 106.2 0 0 118.7 0 118.8 11.8 0 c15.4 0 16.2 -1.9 0.9 -2.3 l-11.2 -0.3 0.2 -116.2 0.3 -116.2 11.3 -0.3 c6.3 -0.1 11.2 -0.7 11.2 -1.2 0 -0.7 189.1 -1 529.5 -1 352.3 0 529.5 0.3 529.5 1 0 0.6 4.3 1 11 1 l11 0 0 116.5 0 116.5 -11 0 c-9.2 0 -11 0.2 -11 1.5 0 1.3 1.7 1.5 11.8 1.3 l11.7 -0.3 0 -118.8 0 -118.7 175.8 0 175.7 0 0 261.5 0 261.5 -835.5 0 -835.5 0 0 -261.5z m450 193.5 l0 -53 22.5 0 22.4 0 0.3 12.2 c0.2 7 0.7 12.3 1.3 12.4 0.6 0.2 10.7 -7.6 22.5 -17.2 l21.5 -17.6 0.3 46.6 0.2 46.6 95.5 0 95.5 0 0.2 -41.2 0.3 -41.3 22.5 0 22.5 0 0.3 12.3 c0.1 6.7 0.6 12.2 1.1 12.2 0.5 0 10.5 -7.9 22.2 -17.5 11.8 -9.6 21.7 -17.5 22.2 -17.5 0.4 0 0.7 20.9 0.7 46.5 l0 46.5 95 0 95 0 0 -41.5 0 -41.5 23 0 23 0 0 12 c0 8.9 0.3 12 1.3 12 0.6 0 10.9 -7.9 22.7 -17.5 l21.5 -17.5 0.3 47 0.2 47 95.5 0 95.5 0 0 -41.5 0 -41.5 55.3 0.2 c30.3 0.1 61.8 0.4 70 0.6 l14.7 0.3 0 12.1 c0 9.4 0.3 11.9 1.3 11.5 1.1 -0.4 42.4 -33.2 45.1 -35.8 1.1 -1 0.9 -1.2 -25.8 -23.2 -10.4 -8.6 -19.3 -15.4 -19.8 -15.1 -0.4 0.3 -0.8 6 -0.8 12.6 l0 12.1 -28.7 -0.6 c-15.9 -0.4 -47.4 -0.7 -70 -0.7 l-41.3 0 0 -41 0 -41 -95.5 0 -95.5 0 -0.2 46.4 -0.3 46.4 -21.9 -17.9 c-12 -9.8 -22.3 -17.6 -22.7 -17.3 -0.5 0.3 -0.9 5.9 -0.9 12.5 l0 11.9 -22.7 -0.2 -22.8 -0.3 -0.3 -40.7 -0.2 -40.8 -95 0 -95 0 0 46.5 c0 25.6 -0.3 46.5 -0.7 46.5 -0.5 0 -10.4 -7.9 -22.2 -17.5 -11.8 -9.6 -21.8 -17.5 -22.2 -17.5 -0.5 0 -1 5.5 -1.1 12.3 l-0.3 12.2 -22.7 0.3 -22.8 0.2 0 -41.5 0 -41.5 -95.5 0 -95.5 0 -0.2 46.7 -0.3 46.6 -21.3 -17.4 c-11.8 -9.6 -21.9 -17.4 -22.5 -17.4 -0.8 0 -1.3 3.7 -1.5 12.3 l-0.3 12.2 -22.4 0 -22.5 0 -0.2 -41.2 -0.3 -41.3 -107 0 -107 0 -0.3 106.8 -0.2 106.7 107.5 0 107.5 0 0 -53z m-425.7 0.2 c0.4 -2 2.2 -6.3 4.1 -9.4 1.8 -3.1 3.1 -5.9 2.8 -6.2 -0.3 -0.3 -3.2 -0.6 -6.4 -0.6 -4.5 0 -5.8 0.3 -5.8 1.5 0 1.1 1.1 1.5 4.3 1.5 l4.4 0 -2.8 5.8 c-3.5 7.4 -4.4 11.2 -2.5 11.2 0.8 0 1.6 -1.5 1.9 -3.8z m13.6 1.1 l2 -2.8 2.5 3 c3.1 3.8 4.5 2.6 1.7 -1.3 -2.6 -3.7 -2.6 -4.3 0 -7.6 2.9 -3.7 1.3 -4.8 -1.7 -1.2 -2.4 2.7 -2.6 2.8 -3.9 1 -0.8 -1.1 -1.5 -2.2 -1.5 -2.6 0 -1.1 -3 -1 -3 0.1 0 0.5 0.7 1.4 1.5 2.1 2.5 2.1 2.7 4.9 0.6 7.9 -1.2 1.6 -2.1 3.2 -2.1 3.5 0 1.5 2 0.4 3.9 -2.1z m16.1 0.3 c0 -1.3 1.6 -5.5 3.5 -9.2 1.9 -3.8 3.5 -7.3 3.5 -7.7 0 -0.4 -2.8 -0.7 -6.2 -0.5 -7.4 0.4 -8.4 2.2 -1.5 2.6 l4.8 0.3 -1.9 2.7 c-2 2.9 -3.7 7.1 -4.6 11.5 -0.5 2 -0.3 2.7 0.9 2.7 0.9 0 1.5 -0.9 1.5 -2.4z m13.6 -0.1 c0.9 -1.4 2 -2.5 2.3 -2.5 0.4 0 1.4 1.1 2.1 2.5 0.7 1.4 1.9 2.5 2.7 2.5 1.8 0 1.7 -0.7 -1.2 -4.4 l-2.5 -3.3 2.5 -3.4 c3 -4 1.4 -5.3 -1.7 -1.4 l-2.1 2.7 -2.3 -2.9 c-2.9 -3.6 -4.3 -2.3 -1.5 1.5 2.6 3.7 2.6 3.8 0.1 6.9 -1.1 1.4 -2 3 -2 3.4 0 1.8 2 0.8 3.6 -1.6z m21.4 0.5 c2.9 -2.9 2.7 -8.5 -0.5 -10.6 -1.4 -0.9 -3.2 -1.3 -4.5 -0.9 -1.6 0.5 -2 0.2 -2 -1.4 0 -1.6 0.8 -2 4.3 -2.3 5.7 -0.4 4.9 -2.3 -1 -2.3 l-4.8 0 -0.9 4.3 c-1 4.9 -0.3 6.1 2.5 4.4 2.5 -1.6 5.6 -0.7 6.4 1.9 1.6 5.1 -3.4 8.9 -6.6 5 -1.8 -2.2 -3.9 -2.8 -3.9 -1.1 0 1.9 4 5 6.5 5 1.4 0 3.4 -0.9 4.5 -2z m14 -8 c0 -5.5 -0.2 -10 -0.4 -10 -0.8 0 -6.6 5.5 -6.6 6.3 0 0.4 0.9 0.3 1.9 -0.3 1.1 -0.5 2.2 -1 2.5 -1 0.3 0 0.6 3.4 0.6 7.5 0 4.3 0.4 7.5 1 7.5 0.6 0 1 -4 1 -10z m19 9 c0 -0.5 -2 -1 -4.5 -1 -2.5 0 -4.5 -0.2 -4.5 -0.5 0 -0.2 2 -2.3 4.5 -4.6 3.3 -3.1 4.5 -4.9 4.5 -7 0 -5.7 -8.2 -7.7 -11.4 -2.7 -1.6 2.6 0 3.2 2.3 0.9 2.4 -2.4 4.2 -2.6 5.9 -0.9 2.2 2.2 1.3 4.3 -4.3 9.4 -3 2.8 -5.5 5.6 -5.5 6.3 0 0.7 2.3 1.1 6.5 1.1 3.7 0 6.5 -0.4 6.5 -1z m1240 -1.4 c0 -1.3 0.6 -2.7 1.3 -3 1 -0.5 1 -0.7 0 -1.2 -0.9 -0.4 -1.3 -2.8 -1.3 -7 0 -3.5 -0.4 -6.4 -1 -6.4 -1.3 0 -10 12 -10 13.7 0 0.8 1.4 1.3 4 1.3 3.6 0 4 0.3 4 2.5 0 1.6 0.6 2.5 1.5 2.5 0.9 0 1.5 -0.9 1.5 -2.4z m15.5 -0.1 c2 -1.9 2.5 -3.4 2.5 -7.5 0 -4.1 -0.5 -5.6 -2.5 -7.5 -1.3 -1.4 -3.3 -2.5 -4.5 -2.5 -2.8 0 -6 3.5 -6 6.5 0 2.8 3.2 6.5 5.6 6.5 0.8 0 2.4 -0.5 3.6 -1.1 1.8 -1 1.9 -0.8 1.3 1.3 -0.4 1.2 -1.2 2.9 -1.7 3.6 -1.4 1.7 -4.7 1.5 -5.4 -0.3 -0.8 -1.9 -2.4 -2 -2.4 0 0 1.6 2.7 3.4 5.3 3.5 1 0 2.9 -1.1 4.2 -2.5z m9.2 -0.2 c2.4 -2.9 2.5 -2.9 5.2 1.6 0.4 0.7 1.3 1.2 2 1 0.7 -0.3 0.2 -1.8 -1.4 -4.1 l-2.6 -3.8 2.2 -3 c1.3 -1.6 1.9 -3.3 1.5 -3.7 -0.4 -0.5 -1.7 0.5 -2.8 2 l-2.1 2.9 -2.3 -2.9 c-3 -3.7 -4.4 -2.1 -1.5 1.8 l2.3 3 -2.6 4 c-3 4.5 -1.4 5.4 2.1 1.2z m19.3 -7.3 c0 -5.5 -0.2 -10 -0.4 -10 -0.8 0 -6.6 5.5 -6.6 6.3 0 0.4 0.9 0.3 1.9 -0.3 1.1 -0.5 2.2 -1 2.5 -1 0.3 0 0.6 3.4 0.6 7.5 0 4.3 0.4 7.5 1 7.5 0.6 0 1 -4 1 -10z m16.9 8.1 c4 -4 3.4 -14.8 -0.9 -17.1 -5.4 -2.9 -9 0.7 -9 9 0 4.7 0.4 6.4 2 8 2.5 2.5 5.5 2.5 7.9 0.1z m-1256.6 -49.2 c12.2 -10 22.2 -18.8 22.2 -19.6 0 -1.5 -43.3 -37.3 -45.2 -37.3 -1 0 -1.3 3.1 -1.3 12 l0 12 -70.2 0.2 -70.3 0.3 -0.3 12.8 -0.3 12.7 70.6 0 70.5 0 0 11.8 c0 10.5 0.3 13.2 1.7 13.2 0.2 0 10.4 -8.2 22.6 -18.1z m283.5 -229.1 l0.2 -46.8 22.5 0 22.5 0 0 11.9 c0 6.6 0.4 12.2 0.8 12.5 0.5 0.3 10.7 -7.6 22.8 -17.5 l21.9 -17.9 0.3 46.5 0.2 46.5 95.5 0 95.5 0 0 -41 0 -41 23 0 23 0 0 12 c0 7.7 0.4 12 1.1 12 0.5 0 10.6 -7.9 22.4 -17.5 11.8 -9.6 21.7 -17.5 22 -17.5 0.3 0 0.5 20.9 0.5 46.5 l0 46.5 95 0 95 0 0 -41 0 -41 23 0 23 0 0 12 c0 8.9 0.3 12 1.3 12 0.6 0 10.9 -7.9 22.7 -17.6 l21.5 -17.5 0.3 46.5 0.2 46.6 95.5 0 95.5 0 -0.2 -95.2 -0.3 -95.3 -95 0 -95 0 -0.5 46.6 -0.5 46.7 -21.9 -17.9 c-12 -9.8 -22.3 -17.6 -22.7 -17.3 -0.5 0.3 -0.9 5.9 -0.9 12.5 l0 11.9 -22.7 -0.2 -22.8 -0.3 -0.3 -41.2 -0.2 -41.3 -95 0 -95 0 -0.2 47.1 -0.3 47.1 -22 -18.1 c-12.1 -9.9 -22.3 -18.1 -22.7 -18.1 -0.5 0 -0.8 5.6 -0.8 12.5 l0 12.5 -23 0 -23 0 -0.2 -41.2 -0.3 -41.3 -95 0 -95 0 -0.5 46.6 -0.5 46.6 -21.8 -17.8 c-12.1 -9.9 -22.3 -17.7 -22.8 -17.3 -0.5 0.3 -0.9 5.9 -0.9 12.5 l0 11.9 -22.5 0 -22.5 0 0 -47 0 -47 -107.5 0 -107.5 0 0 107 0 107 107.3 -0.2 107.2 -0.3 0.3 -46.7z m901.3 42.1 l2.2 -3.1 1.9 3.1 c1.1 1.7 2.7 3.1 3.5 3.1 1.5 0 1.3 -0.7 -2.1 -5.2 l-2 -2.8 2.2 -3 c2.5 -3.4 2.7 -4 0.9 -4 -0.7 0 -2 1.2 -2.8 2.7 l-1.7 2.6 -1.7 -2.6 c-0.9 -1.5 -2.4 -2.7 -3.2 -2.7 -1.2 0 -0.9 0.8 1 3.4 l2.6 3.3 -2.5 3.6 c-2.6 3.9 -2.9 4.7 -1.5 4.7 0.5 0 2 -1.4 3.2 -3.1z m29.7 0.9 c1.7 -1.5 1.5 -7.4 -0.4 -9.2 -1.8 -1.9 -5.5 -2.1 -7.2 -0.4 -0.9 0.9 -1.2 0.8 -1.2 -0.6 0 -4.8 4.3 -7.3 7 -4.1 1.4 1.7 3 2 3 0.6 0 -1.9 -3.2 -4.1 -5.9 -4.1 -3.6 0 -5.8 2.6 -6.7 7.8 -1.4 9 5.2 14.9 11.4 10z m-1367.8 -24.3 c0 -1.6 0.6 -2.5 1.5 -2.5 0.8 0 1.5 -0.4 1.5 -1 0 -0.5 -0.7 -1 -1.5 -1 -1.2 0 -1.5 -1.4 -1.5 -6.5 0 -3.6 -0.4 -6.5 -0.8 -6.5 -1 0 -10.2 12.6 -10.2 14 0 0.5 1.9 1 4.3 1.2 3.5 0.2 4.3 0.7 4.5 2.6 0.5 3 2.2 2.8 2.2 -0.3z m16 0.1 c0 -1.3 0.6 -2.7 1.3 -3 1 -0.5 1 -0.7 0 -1.2 -0.9 -0.4 -1.3 -2.8 -1.3 -7 0 -3.5 -0.4 -6.4 -1 -6.4 -1.3 0 -10 12 -10 13.7 0 0.8 1.4 1.3 4 1.3 3.6 0 4 0.3 4 2.5 0 1.6 0.6 2.5 1.5 2.5 0.9 0 1.5 -0.9 1.5 -2.4z m16.2 0.7 c2.2 -1.9 2.4 -7.1 0.3 -7.9 -1.2 -0.5 -1.2 -0.9 -0.1 -2.7 3.1 -4.9 -2.8 -9.6 -7.9 -6.3 -2.7 1.8 -3.2 4.5 -1.3 6.4 0.9 0.9 0.8 1.6 -0.5 3 -2.2 2.5 -2.1 4.8 0.3 7.2 2.4 2.4 6.7 2.6 9.2 0.3z m8.5 -1 c2.4 -2.9 2.5 -2.9 5.2 1.6 0.4 0.7 1.3 1.2 2 1 0.7 -0.3 0.2 -1.7 -1.4 -4.1 l-2.4 -3.6 1.9 -2.5 c2 -2.5 2.6 -4.7 1.4 -4.7 -0.3 0 -1.5 1.2 -2.6 2.6 l-2.1 2.6 -2.3 -2.9 c-2.9 -3.7 -4.4 -2.2 -1.6 1.7 2.7 3.6 2.7 3.4 -0.4 7.6 -3.2 4.1 -1.1 4.8 2.3 0.7z m20.3 0.2 c0 -1.6 0.6 -2.5 1.5 -2.5 0.8 0 1.5 -0.4 1.5 -1 0 -0.5 -0.7 -1 -1.5 -1 -1.2 0 -1.5 -1.4 -1.5 -6.5 0 -3.6 -0.4 -6.5 -0.8 -6.5 -0.9 0 -10.2 13 -10.2 14.3 0 0.4 2 0.7 4.5 0.7 4.1 0 4.5 0.2 4.5 2.5 0 1.4 0.5 2.5 1 2.5 0.6 0 1 -1.1 1 -2.5z m16 0 c0 -1.6 0.6 -2.5 1.5 -2.5 0.8 0 1.5 -0.4 1.5 -1 0 -0.5 -0.7 -1 -1.5 -1 -1.2 0 -1.5 -1.4 -1.5 -6.5 0 -3.6 -0.4 -6.5 -0.8 -6.5 -1.1 0 -10.2 12.5 -10.2 13.9 0 0.6 1.9 1.1 4.5 1.1 4.1 0 4.5 0.2 4.5 2.5 0 1.4 0.5 2.5 1 2.5 0.6 0 1 -1.1 1 -2.5z m15.6 1.7 c3.2 -2.1 3.4 -9.2 0.3 -9.2 -0.7 0 -0.5 -0.8 0.6 -2 4 -4.5 -2.8 -10 -8 -6.6 -2.6 1.7 -3.2 4.5 -1.4 6.3 0.8 0.8 0.7 1.7 -0.5 3.4 -2.1 3.1 -2 4.5 0.4 6.9 2 2 6.5 2.6 8.6 1.2z m9 -1.7 c0.9 -1.4 2 -2.5 2.5 -2.5 0.5 0 1.5 1.1 2.1 2.5 0.6 1.4 1.7 2.5 2.5 2.5 1.8 0 1.6 -1 -0.7 -4 -2.5 -3.2 -2.5 -4.1 0.1 -7.4 2.9 -3.7 1.3 -4.8 -1.7 -1.3 l-2.4 2.8 -2.4 -2.8 c-3.1 -3.6 -4.5 -2.4 -1.7 1.5 2.6 3.7 2.6 4 0.1 7.2 -1.1 1.4 -2 2.8 -2 3.3 0 1.6 2 0.6 3.6 -1.8z m21.2 0.9 c2.3 -1.6 3.1 -6.7 1.3 -7.9 -0.5 -0.3 -0.7 -2.1 -0.4 -3.9 0.4 -2.9 0.1 -3.7 -2.1 -5.1 -2.2 -1.5 -3.2 -1.6 -5.2 -0.7 -2.6 1.3 -4.1 3.8 -2.9 5 0.4 0.4 1 0.1 1.2 -0.6 0.8 -2.2 4.3 -3.5 5.9 -2.1 2.2 1.8 1.7 3.8 -1.3 5 l-2.8 1.1 3.3 1.3 c3.3 1.5 4.2 4.1 2 6.3 -1.6 1.6 -3.8 1.5 -5.9 -0.4 -2.8 -2.5 -4.7 -1.2 -2.1 1.4 2.6 2.6 5.9 2.8 9 0.6z m30.7 -60.5 c12.4 -10 22.5 -18.7 22.4 -19.3 0 -1 -42.9 -36.7 -45 -37.4 -0.5 -0.2 -1 3.5 -1 8.7 -0.1 5 -0.2 10.5 -0.3 12.3 l-0.1 3.2 -70.7 -0.3 -70.8 -0.3 0 12.6 c0 6.8 0.4 12.7 0.8 13 0.5 0.3 30.1 0.6 65.8 0.7 35.7 0.1 67 0.4 69.7 0.6 l4.7 0.5 0 11.9 c0 7.6 0.4 11.9 1 11.9 0.6 0 11.2 -8.2 23.5 -18.1z m1247.1 -101.5 c0.4 -1.4 0.2 -3 -0.5 -3.7 -1.2 -1.2 -1.3 -1 -1.5 3.3 -0.1 3.7 1.1 3.9 2 0.4z m39.4 -1.5 c0 -2.9 -1.3 -3.8 -2.6 -1.8 -0.3 0.6 -0.2 1.5 0.4 2.1 0.6 0.6 0.8 1.7 0.5 2.6 -0.4 1 -0.2 1.3 0.5 0.8 0.7 -0.4 1.2 -2 1.2 -3.7z m55 0.6 c0 -1.3 -0.4 -2.6 -0.9 -3 -1.4 -0.8 -2.5 1.5 -1.3 2.7 0.6 0.6 0.8 1.7 0.5 2.6 -0.4 1 -0.2 1.3 0.5 0.8 0.7 -0.4 1.2 -1.8 1.2 -3.1z m55 0 c0 -1.3 -0.4 -2.6 -0.9 -3 -1.4 -0.8 -2.5 1.5 -1.3 2.7 0.6 0.6 0.8 1.7 0.5 2.6 -0.4 1 -0.2 1.3 0.5 0.8 0.7 -0.4 1.2 -1.8 1.2 -3.1z m54.8 1.1 c0.6 -2.8 -0.7 -5.1 -2 -3.8 -0.8 0.8 -0.8 1.5 0 2.5 0.9 1 0.8 1.7 -0.1 2.6 -1 1.1 -0.9 1.3 0.3 0.9 0.8 -0.3 1.7 -1.2 1.8 -2.2z m-268.6 -6.7 c0.3 -5.5 2.1 -7.8 5.2 -6.6 1.2 0.5 1.6 2 1.6 6.2 0 4.2 0.3 5.5 1.5 5.5 1.1 0 1.5 -1.2 1.5 -5.1 0 -7.6 -1.1 -8.9 -7 -8.7 l-5 0.2 0 6.8 c0 7.9 1.8 9.2 2.2 1.7z m40 3.4 c2.2 -2 2.4 -7.1 0.3 -7.9 -1.2 -0.5 -1.3 -1 -0.4 -2 1.7 -2 0.6 -5.7 -2 -7 -2.7 -1.4 -6 -0.5 -7.5 1.9 -1.4 2.3 0.1 3.4 1.7 1.3 1.6 -2.2 6.1 -1.8 6.5 0.6 0.2 1.2 -0.6 2.1 -2.2 2.8 -3.3 1.2 -3.4 3 -0.2 3 2.9 0 4.4 3.3 2.6 5.5 -1.7 2 -5.7 1.9 -6.8 -0.1 -0.5 -0.9 -1.4 -1.5 -2.1 -1.3 -0.8 0.3 -0.7 1.1 0.4 2.7 1.9 2.7 7 3 9.7 0.5z m17.8 0.7 c0 -0.5 -2 -1 -4.5 -1 -2.5 0 -4.5 -0.2 -4.5 -0.5 0 -0.3 2 -2.5 4.5 -4.8 2.5 -2.5 4.5 -5.3 4.5 -6.5 0 -5.3 -7.5 -7.4 -11.2 -3 -2.7 3.1 -1 4.3 1.8 1.3 2.3 -2.5 2.6 -2.6 4.7 -1.2 3.1 2.1 2.3 4.5 -3.4 9.8 -2.7 2.5 -4.9 5.1 -4.9 5.7 0 0.8 2.2 1.2 6.5 1.2 3.7 0 6.5 -0.4 6.5 -1z m22 -1 c2.4 -2.4 2.5 -4.8 0.4 -7.9 -1.4 -2 -2.3 -2.2 -5.5 -1.8 -4.5 0.6 -5.2 -1 -1.9 -4.3 1.6 -1.6 2.5 -1.8 4 -1 1.1 0.6 2 1.5 2 2 0 0.6 0.5 1 1 1 1.5 0 1.2 -2.6 -0.5 -4 -2.4 -2 -6.7 -1.5 -8.7 1 -2.4 3 -2.5 12.6 -0.1 15.2 2.1 2.4 6.8 2.3 9.3 -0.2z m15 -0.4 c0 -1.3 0.6 -2.7 1.3 -3 1 -0.5 1 -0.7 0 -1.2 -0.8 -0.4 -1.3 -2.7 -1.3 -6.4 0 -3.2 -0.4 -6.1 -0.9 -6.4 -1 -0.7 -10.1 11.1 -10.1 13.1 0 0.9 1.4 1.3 4 1.3 3.6 0 4 0.3 4 2.5 0 1.6 0.6 2.5 1.5 2.5 0.9 0 1.5 -0.9 1.5 -2.4z m22 -7.1 c0 -5.2 -0.3 -9.5 -0.7 -9.5 -0.5 0.1 -2.1 1.2 -3.8 2.5 -3.2 2.6 -2.9 4.3 0.4 2.5 2 -1 2.1 -0.9 2.1 6.5 0 4.3 0.4 7.5 1 7.5 0.6 0 1 -3.8 1 -9.5z m19.5 8.5 c-0.3 -0.5 -2.7 -1 -5.3 -1 l-4.7 0 4.8 -4.5 c4.1 -3.9 4.8 -5 4.5 -7.8 -0.3 -3.6 -3.4 -5.7 -7.4 -4.9 -2.9 0.5 -5.1 3.9 -3.6 5.4 0.7 0.7 1.2 0.3 1.7 -1.2 0.5 -1.7 1.3 -2.1 3.8 -1.8 5.1 0.5 4.6 3.2 -1.7 9.8 -3.1 3.2 -5.6 6.1 -5.6 6.4 0 0.3 3.2 0.6 7.1 0.6 4.4 0 6.8 -0.4 6.4 -1z m13.6 0 c2.4 -1.3 2.7 -7.8 0.4 -8.7 -1.4 -0.5 -1.4 -0.7 0 -2.4 2.2 -2.4 1.1 -5.5 -2.3 -6.7 -3.2 -1.1 -6.7 0 -7.6 2.4 -0.8 2 0.1 5.4 1.5 5.4 0.5 0 0 0.9 -1.1 2 -1.1 1.1 -2 2.7 -2 3.5 0 4.2 6.6 6.8 11.1 4.5z m25.9 0 c0 -0.5 -2.3 -1 -5.2 -1 l-5.2 0 5.2 -4.8 c3 -2.8 5.2 -5.7 5.2 -6.9 0 -2.7 -3.3 -5.6 -6.6 -5.6 -3 0 -7 3.5 -5.9 5.2 0.4 0.8 1.5 0.4 3.1 -1.4 2 -2.1 2.7 -2.4 4.4 -1.5 3.3 1.8 2.4 4.9 -3 9.8 -6.8 6.1 -6.6 7.2 1.5 7.2 3.7 0 6.5 -0.4 6.5 -1z m13.4 -0.6 c4.6 -4.5 2.1 -11.4 -4 -11.4 -2.8 0 -3.5 -0.3 -3.2 -1.7 0.2 -1.3 1.5 -1.9 4.6 -2.1 2.3 -0.2 4.2 -0.7 4.2 -1.3 0 -1 -0.1 -1 -5.3 -1.3 -4.2 -0.3 -5 0.6 -6.1 6.7 -0.7 3.7 0.1 4.6 2.1 2.6 0.6 -0.6 2.3 -0.9 3.9 -0.7 2.3 0.2 3 0.9 3.2 3.1 0.6 4.9 -3.9 7.7 -6.8 4.2 -1.6 -1.9 -3 -1.9 -3 0 0 3.3 7.6 4.7 10.4 1.9z m15.8 -0.1 c2.2 -2 2.4 -7.6 0.3 -9.3 -0.8 -0.7 -3.1 -1 -5 -0.8 -2.7 0.3 -3.5 0 -3.5 -1.2 0 -3.6 6.1 -5.7 7.4 -2.4 0.3 0.8 1 1.2 1.6 0.9 0.7 -0.4 0.7 -1.3 0 -2.6 -1.4 -2.5 -7.1 -2.6 -9.4 0 -3.3 3.6 -3.3 12.2 0 15.5 2 2.1 6.3 2 8.6 -0.1z m24.2 -0.5 c3.7 -5.2 0.5 -11.4 -5.4 -10.6 -3.1 0.5 -3.4 0.1 -2.4 -2.6 0.4 -1.1 1.9 -1.6 4.5 -1.6 2.1 0 3.9 -0.4 3.9 -0.9 0 -1.2 -1.8 -1.7 -6 -1.7 -3.3 0.1 -3.6 0.4 -4.6 4.6 -1.2 4.8 -0.3 7.3 1.8 5.2 3.5 -3.5 8.7 0.4 6.8 5.2 -1.2 3.3 -5.4 3.6 -7.1 0.5 -0.8 -1.5 -1.4 -1.8 -2.2 -1 -0.7 0.7 -0.5 1.6 0.8 3.1 2.5 2.8 7.9 2.7 9.9 -0.2z m13.6 -7.3 c0 -5.2 -0.4 -9.5 -0.8 -9.5 -1.6 0 -7.7 5.9 -6.1 6 0.8 0 2 -0.5 2.7 -1.2 0.9 -0.9 1.2 0.5 1.2 6.5 0 6.2 0.3 7.7 1.5 7.7 1.2 0 1.5 -1.7 1.5 -9.5z m19 8.5 c0 -0.5 -2 -1 -4.5 -1 -2.5 0 -4.5 -0.2 -4.5 -0.5 0 -0.2 2 -2.3 4.5 -4.6 7 -6.4 5.9 -12.4 -2.1 -11.7 -3.7 0.3 -6.6 2.9 -5 4.5 0.4 0.4 1.2 0 1.7 -1 1.3 -2.2 6.5 -2.3 7.3 -0.1 0.8 2.2 -0.5 4.3 -5.8 9 -2.5 2.3 -4.6 4.6 -4.6 5.3 0 0.7 2.3 1.1 6.5 1.1 3.7 0 6.5 -0.4 6.5 -1z m22 -1 c4.4 -4.4 1.1 -11.7 -5 -10.8 -3.1 0.5 -3.4 0.1 -2.4 -2.6 0.4 -1.1 1.9 -1.6 4.5 -1.6 2.1 0 3.9 -0.4 3.9 -0.9 0 -1.2 -1.8 -1.7 -6 -1.7 -3.3 0.1 -3.6 0.4 -4.6 4.6 -1.2 4.8 -0.3 7.3 1.8 5.2 3.5 -3.5 8.7 0.4 6.8 5.2 -1.1 2.9 -5.7 3.7 -6.6 1.1 -0.4 -0.8 -1.2 -1.5 -2 -1.5 -1.8 0 -1.8 0.9 0.3 3.2 2.1 2.4 6.8 2.3 9.3 -0.2z m14 -7.5 c0 -9.7 -0.6 -11 -3.6 -8 -0.8 0.8 -2.3 1.9 -3.2 2.4 -0.9 0.5 -1.3 1.3 -0.9 1.7 0.4 0.5 1.7 0.3 2.7 -0.4 1.9 -1.2 2 -0.9 2 6.3 0 6 0.3 7.5 1.5 7.5 1.2 0 1.5 -1.7 1.5 -9.5z m19 8.5 c0 -0.5 -2 -1 -4.5 -1 -2.5 0 -4.5 -0.2 -4.5 -0.4 0 -0.2 2 -2.4 4.5 -4.8 2.5 -2.5 4.5 -5.4 4.5 -6.5 0 -3.2 -2.3 -5.4 -5.7 -5.5 -3.9 -0.1 -6.3 1.7 -6.2 4.6 0 2.1 0 2.1 1.6 -0.1 1 -1.5 2.6 -2.3 4.4 -2.3 1.6 0 2.9 0.2 2.9 0.4 0 0.2 0.3 1.2 0.6 2 0.4 1.1 -1.1 3.3 -5 7 -3.1 3 -5.6 5.9 -5.6 6.5 0 0.7 2.5 1.1 6.5 1.1 3.7 0 6.5 -0.4 6.5 -1z m-291 -5.5 c0 -1.2 -1.4 -1.5 -6.5 -1.5 -6 0 -7.5 0.6 -5.8 2.3 0.3 0.4 3.3 0.7 6.5 0.7 4.5 0 5.8 -0.3 5.8 -1.5z m0 -6.1 c0 -1.1 -1.5 -1.4 -6.5 -1.4 -5.7 0 -7.5 0.6 -6.1 2.1 0.3 0.2 3.2 0.5 6.5 0.6 4.7 0.1 6.1 -0.1 6.1 -1.3z"/>
  <path d="M238 401.5 l0 -104.5 104.5 0 104.5 0 0 104.5 0 104.5 -104.5 0 -104.5 0 0 -104.5z m14.4 78.4 c-0.2 -2.8 0 -3 2.7 -2.4 2.2 0.5 3.4 0.1 5.4 -1.9 3.2 -3.2 3.2 -7 0 -10.1 -2.7 -2.8 -3.7 -3 -6.6 -1.5 -1.3 0.7 -1.9 0.7 -1.9 0 0 -0.5 -0.4 -1 -1 -1 -0.6 0 -1 4 -1 10 0 7.6 0.3 10 1.3 10 0.8 0 1.2 -1.1 1.1 -3.1z m93 0.9 c1.8 -2.6 2.3 -17.8 0.6 -17.8 -0.5 0 -1 0.4 -1 0.9 0 0.5 -1.3 0.4 -3 -0.2 -2.6 -1 -3.2 -0.8 -5.5 1.3 -3.3 3.1 -3.4 7.8 -0.1 10.9 1.9 1.8 3.1 2.2 5.1 1.7 2.2 -0.6 2.6 -0.4 2.3 1.1 -0.4 2.1 -4.5 3 -6.1 1.4 -0.6 -0.6 -1.7 -1.1 -2.4 -1.1 -1.1 0 -1.1 0.5 -0.3 2 1.6 2.9 8.3 2.8 10.4 -0.2z m-72.1 -3.9 c1.6 -0.9 2.2 -0.9 2.5 0 0.2 0.6 0.8 1.1 1.3 1.1 1.6 0 1.1 -11.7 -0.7 -13.4 -2.8 -2.8 -10.4 -1.4 -10.4 1.9 0 1.9 0.8 1.9 2.7 -0.1 2 -1.9 5.7 -1.4 6.1 0.9 0.3 1.3 -0.3 1.7 -2.5 1.7 -3.3 0 -7.3 2.5 -7.3 4.5 0 1.8 2.8 4.5 4.6 4.5 0.9 0 2.5 -0.5 3.7 -1.1z m19.7 -9.7 c0 -6.6 -0.4 -10.1 -1 -9.7 -0.5 0.3 -1 2 -1 3.6 0 2.6 -0.3 2.9 -2.5 2.3 -4.2 -1 -7.5 1.9 -7.5 6.6 0 5.4 2.6 7.9 7.9 7.7 l4.1 -0.1 0 -10.4z m12.1 9.8 c1.3 -0.7 1.9 -0.7 1.9 0 0 0.5 0.5 1 1 1 0.6 0 1 -4 1 -9.9 0 -5.6 -0.4 -10.3 -1 -10.6 -0.6 -0.4 -1 0.8 -1 3 0 3.5 -0.1 3.6 -2.8 3 -6.6 -1.4 -10.7 8.3 -5.3 12.6 2.7 2.2 3.5 2.3 6.2 0.9z m9.9 -6.5 c0 -4.3 -0.4 -7.5 -1 -7.5 -0.6 0 -1 3.2 -1 7.5 0 4.3 0.4 7.5 1 7.5 0.6 0 1 -3.2 1 -7.5z m7.2 1.1 c0.3 -5.6 2.5 -7.9 5.2 -5.7 1.1 0.9 1.6 3 1.6 6.7 0 3 0.5 5.4 1 5.4 0.6 0 1 -2.8 1 -6.5 0 -6.1 -0.2 -6.6 -2.6 -7.7 -2 -0.9 -3 -0.9 -4.7 0.1 -1.5 1 -2.2 1.1 -2.5 0.2 -0.2 -0.6 -0.8 -0.9 -1.3 -0.5 -1 0.6 -1.2 12.7 -0.2 13.8 1.3 1.2 2.2 -0.9 2.5 -5.8z m55 4.1 c1.8 -2.7 0.3 -5.1 -3.6 -6.2 -2.2 -0.7 -4.2 -1.7 -4.4 -2.3 -0.6 -1.9 2.7 -2.6 5.4 -1.2 3.4 1.9 4.1 0.5 0.9 -1.6 -3.6 -2.4 -7.9 -1 -8.3 2.8 -0.3 2.2 0.2 2.8 3.5 3.8 4.9 1.6 6.2 2.8 4.3 4 -2.2 1.4 -3.6 1.2 -5.5 -0.6 -1.1 -1.1 -2 -1.3 -2.6 -0.7 -0.7 0.7 -0.3 1.6 1.3 2.7 2.5 1.9 7.6 1.5 9 -0.7z m11.2 1.3 c1.7 -0.6 2.6 -0.6 2.6 0 0 0.6 0.5 1 1 1 0.6 0 1 -2.8 1 -6.5 0 -6.8 -1.2 -8.5 -5.8 -8.5 -2.4 0 -7 3.5 -6 4.6 0.5 0.4 1.6 0 2.6 -0.9 2.3 -2.1 4.6 -2.2 6.1 -0.3 1.4 1.7 0.8 2.1 -4.1 3 -5 0.9 -6.6 3.8 -3.8 6.6 2.3 2.3 2.9 2.4 6.4 1z m10.6 -2.7 c0 -5.2 0.9 -8.1 2.7 -8.7 2.8 -1.1 4.3 1.4 4.3 7 0 3 0.5 5.4 1 5.4 0.6 0 1 -2.5 1 -5.5 0 -4.4 0.4 -5.6 2 -6.5 3.1 -1.7 4 -0.4 4 6.1 0 4.6 0.3 5.9 1.5 5.9 2.2 0 2.1 -11.2 -0.1 -13.4 -1.8 -1.9 -2.8 -2 -5.5 -0.6 -1.3 0.8 -2.5 0.7 -4 -0.1 -1.6 -0.8 -2.8 -0.8 -4.5 0 -1.5 0.6 -2.4 0.7 -2.4 0.1 0 -0.6 -0.4 -1 -1 -1 -0.6 0 -1 3.2 -1 7.5 0 4.3 0.4 7.5 1 7.5 0.6 0 1 -1.7 1 -3.7z m32.8 0.9 c1.7 -2.2 -0.3 -2.9 -2.4 -0.8 -2 2 -3.8 2 -5.8 0 -2.7 -2.6 -1.8 -3.4 3.9 -3.4 4.8 0 5.5 -0.2 5.5 -2 0 -2.8 -3.5 -6 -6.5 -6 -7 0 -9.1 11.9 -2.5 14.3 2.3 0.9 6.4 -0.2 7.8 -2.1z m-67.8 -4.2 c0 -0.6 -3 -1 -7 -1 -4 0 -7 0.4 -7 1 0 0.6 3 1 7 1 4 0 7 -0.4 7 -1z m0 -6 c0 -0.6 -3 -1 -7 -1 -4 0 -7 0.4 -7 1 0 0.6 3 1 7 1 4 0 7 -0.4 7 -1z m-62 -22 c2.8 -2.8 1.2 -5.5 -3.7 -6.7 -2 -0.4 -3.8 -1.4 -4 -2 -0.6 -1.6 3.6 -2.8 5 -1.4 1.4 1.4 3.7 1.4 3.7 0.1 0 -1.5 -5.1 -3.2 -7.6 -2.6 -2.6 0.7 -4.1 4.3 -2.5 6 0.7 0.6 2.6 1.6 4.4 2.2 1.8 0.6 3.2 1.7 3.2 2.5 0 2 -4 2.3 -5.8 0.5 -1.9 -2 -2.7 -2 -2.7 -0.1 0 3.5 6.9 4.6 10 1.5z m10 1.1 c0 -0.5 -0.5 -1.1 -1.1 -1.3 -1.7 -0.6 -1.9 -9.9 -0.3 -10.5 1.8 -0.7 1.8 -2.3 0 -2.3 -0.9 0 -1.3 -0.7 -1.1 -2 0.5 -2.5 -1.3 -2.7 -2.2 -0.2 -0.4 0.9 -1.1 2.1 -1.7 2.5 -0.8 0.6 -0.7 1 0.2 1.4 0.7 0.3 1.2 2.4 1.2 5.7 0 2.9 0.5 5.7 1.2 6.4 1.4 1.4 3.8 1.6 3.8 0.3z m5.2 -4.8 c0.3 -4.9 0.7 -5.9 2.6 -6.9 2.8 -1.4 1.9 -2.1 -2.3 -1.9 -2.9 0.2 -3 0.3 -3.3 6 -0.3 6.2 0.1 8.5 1.7 8.5 0.6 0 1.1 -2.6 1.3 -5.7z m8.8 -1.8 c0 -4.3 -0.4 -7.5 -1 -7.5 -0.6 0 -1 3.2 -1 7.5 0 4.3 0.4 7.5 1 7.5 0.6 0 1 -3.2 1 -7.5z m16 -2.7 c0 -5.9 -0.4 -9.8 -1 -9.8 -0.5 0 -1 1.4 -1 3.1 0 2.8 -0.2 3 -2.8 2.4 -4.3 -0.9 -7.6 2.2 -7.6 7 0 4.9 3 7.5 8.4 7.2 l4 -0.1 0 -9.8z m14.1 8.3 c1.3 -1.1 2.1 -2.3 1.7 -2.7 -0.5 -0.4 -1.6 0 -2.6 0.9 -2.2 2 -4.3 2.2 -6 0.5 -2.6 -2.6 -1.3 -3.8 3.8 -3.8 4.6 0 5 -0.2 5 -2.4 0 -2.7 -3.3 -5.6 -6.3 -5.6 -2.6 0 -6.7 4.5 -6.7 7.5 0 3 4.1 7.5 6.8 7.5 1.1 0 3 -0.9 4.3 -1.9z m30.9 -8.1 c0 -5.5 -0.3 -10 -0.7 -10 -0.5 0.1 -2.3 1.4 -4.2 3 -3.6 3.1 -3.7 4.9 -0.2 3 2 -1 2.1 -0.9 2.1 6.5 0 6 0.3 7.5 1.5 7.5 1.2 0 1.5 -1.8 1.5 -10z m-12 3 c0 -0.6 -3 -1 -7 -1 -4 0 -7 0.4 -7 1 0 0.6 3 1 7 1 4 0 7 -0.4 7 -1z m0 -6 c0 -0.6 -3 -1 -7 -1 -4 0 -7 0.4 -7 1 0 0.6 3 1 7 1 4 0 7 -0.4 7 -1z m-79.2 -26.6 c0.2 -3.2 0.9 -6.2 1.5 -6.7 0.9 -0.7 0.9 -1 0 -1.4 -1.8 -0.7 -1.6 -3.3 0.2 -3.3 0.8 0 1.5 -0.4 1.5 -1 0 -0.5 -1.1 -1 -2.4 -1 -1.7 0 -2.7 0.7 -3.2 2.3 -0.4 1.2 -1.2 2.6 -1.8 3 -0.8 0.6 -0.8 1 0.2 1.4 0.8 0.3 1.2 2.7 1.2 7 0 4.7 0.3 6.4 1.3 6.1 0.7 -0.3 1.3 -2.8 1.5 -6.4z m7.2 -1 c0 -5.6 -0.3 -7.5 -1.2 -7.2 -0.8 0.3 -1.4 2.7 -1.6 6.3 -0.3 6.2 0.1 8.5 1.8 8.5 0.6 0 1 -3 1 -7.6z m6 -2.4 c0 -6 -0.4 -10 -1 -10 -0.6 0 -1 4 -1 10 0 6 0.4 10 1 10 0.6 0 1 -4 1 -10z m8.7 8.2 c-2 -2.2 -2.3 -10.7 -0.4 -11.6 1 -0.5 1 -0.7 0 -1.2 -0.7 -0.3 -1.3 -1.5 -1.3 -2.6 0 -1.1 -0.5 -1.8 -1.2 -1.5 -0.7 0.2 -1.2 1 -1 1.7 0.2 0.7 -0.2 1.6 -0.9 2 -0.7 0.5 -0.8 1.3 -0.3 2.1 0.5 0.8 0.9 3.5 1 6 0.1 5.5 0.8 6.9 3.6 6.9 2 0 2 -0.1 0.5 -1.8z m13.1 0.2 c1.2 -0.8 2.2 -1.9 2.2 -2.5 0 -1.5 -2.7 -1 -3.4 0.6 -1.1 2.9 -6.6 1.1 -6.6 -2.2 0 -0.9 1.6 -1.3 5 -1.3 4.2 0 5 -0.3 5 -1.8 0 -5.1 -6.1 -7.5 -10.3 -4.2 -7.3 5.7 0.5 16.7 8.1 11.4z m8.4 -4.1 c0.3 -4.9 0.7 -5.9 2.6 -6.9 2.8 -1.4 1.9 -2.1 -2.3 -1.9 l-3 0.2 -0.3 7.1 c-0.2 5.9 0 7.2 1.2 7.2 1.1 0 1.6 -1.4 1.8 -5.7z m31.8 -4.3 c0 -5.5 -0.3 -10 -0.7 -10 -0.5 0 -2 1.2 -3.5 2.5 -3.3 2.8 -3.8 5.1 -0.9 3.5 1.1 -0.5 2.2 -1 2.5 -1 0.3 0 0.6 3.4 0.6 7.5 0 4.3 0.4 7.5 1 7.5 0.6 0 1 -4 1 -10z m16.4 8.7 c2.4 -1.8 3.7 -8.4 2.5 -12.9 -1.1 -4.2 -3.9 -6.3 -7.5 -5.4 -2.8 0.7 -4.2 3.1 -4.5 7.7 -0.3 6 0.1 7.9 2.1 9.9 2.3 2.3 4.9 2.6 7.4 0.7z m-28.4 -5.7 c0 -0.6 -2.8 -1 -6.5 -1 -3.7 0 -6.5 0.4 -6.5 1 0 0.6 2.8 1 6.5 1 3.7 0 6.5 -0.4 6.5 -1z m0 -6 c0 -0.6 -2.8 -1 -6.5 -1 -3.7 0 -6.5 0.4 -6.5 1 0 0.6 2.8 1 6.5 1 3.7 0 6.5 -0.4 6.5 -1z m-56 -6.1 c0 -0.5 -0.7 -0.9 -1.5 -0.9 -1.5 0 -2 1.2 -0.9 2.3 0.8 0.8 2.4 -0.1 2.4 -1.4z m-27 -16.8 c0 -3.4 1.9 -5.1 3.1 -2.9 1.7 3.1 4.8 6.3 5.4 5.6 0.4 -0.3 -0.6 -2.5 -2.1 -4.7 l-2.7 -4.2 2.8 -2.9 c3.9 -4.1 1 -3.9 -3.2 0.2 l-3.3 3.2 0 -5.7 c0 -3.1 -0.4 -5.7 -1 -5.7 -0.6 0 -1 4 -1 10 0 6 0.4 10 1 10 0.6 0 1 -1.3 1 -2.9z m22.1 1 c1.3 -1.1 2.1 -2.3 1.7 -2.7 -0.5 -0.4 -1.6 0 -2.6 0.9 -2.2 2 -4.3 2.2 -6 0.5 -2.6 -2.6 -1.3 -3.8 3.8 -3.8 4.2 0 5 -0.3 5 -1.8 0 -2.7 -2.1 -5 -5.2 -5.7 -2.1 -0.5 -3.3 -0.1 -5.2 1.9 -3.2 3.1 -3.3 7.2 -0.4 10.3 2.6 2.8 5.8 2.9 8.9 0.4z m7.9 -3.5 c0 -5.4 1.7 -8.5 4 -7.1 0.5 0.3 1 0.2 1 -0.4 0 -1.7 -2 -2.3 -3.5 -1.1 -0.9 0.8 -1.5 0.8 -2 0 -0.3 -0.6 -1.1 -0.8 -1.6 -0.5 -1 0.7 -1.3 12.8 -0.2 13.8 1.6 1.7 2.3 0.3 2.3 -4.7z m9 0.5 c0 -3.9 0.4 -5.3 2.1 -6.5 3.4 -2.4 4.8 -1 5.1 5.2 0.4 8 2.8 8.3 2.8 0.3 0 -5.4 -0.3 -6.2 -2.5 -7.7 -2.1 -1.4 -3.1 -1.5 -5 -0.6 -1.5 0.7 -2.5 0.8 -2.5 0.2 0 -0.6 -0.4 -1 -1 -1 -0.6 0 -1 3.2 -1 7.5 0 4.3 0.4 7.5 1 7.5 0.6 0 1 -2.2 1 -4.9z m23.8 3.3 c1.2 -0.8 2.2 -1.9 2.2 -2.5 0 -1.5 -2.7 -1 -3.4 0.6 -0.8 2.1 -3.9 1.9 -5.9 -0.3 -2.3 -2.5 -1.3 -3.2 4.5 -3.2 4 0 4.8 -0.3 4.8 -1.8 0 -5.1 -6.1 -7.5 -10.3 -4.2 -7.3 5.7 0.5 16.7 8.1 11.4z m8.2 -8.4 c0 -8.2 -0.3 -10 -1.5 -10 -1.2 0 -1.5 1.8 -1.5 10 0 8.2 0.3 10 1.5 10 1.2 0 1.5 -1.8 1.5 -10z m29 0 c0 -5.5 -0.3 -10 -0.7 -10 -0.5 0.1 -2.3 1.4 -4.2 3 -3.6 3.1 -3.7 4.9 -0.2 3 2 -1 2.1 -0.9 2.1 6.5 0 6 0.3 7.5 1.5 7.5 1.2 0 1.5 -1.8 1.5 -10z m9.9 7.3 l2 -2.8 2.5 3 c3.1 3.8 4.5 2.6 1.7 -1.3 -2.6 -3.7 -2.6 -4.3 0 -7.6 2.9 -3.7 1.3 -4.8 -1.7 -1.2 -2.4 2.7 -2.6 2.8 -3.9 1 -0.8 -1.1 -1.5 -2.2 -1.5 -2.6 0 -1.1 -3 -1 -3 0.1 0 0.5 0.7 1.4 1.5 2.1 2.5 2.1 2.7 4.9 0.6 7.9 -1.2 1.6 -2.1 3.2 -2.1 3.5 0 1.5 2 0.4 3.9 -2.1z m19.9 -6.8 c0.2 -4.8 -0.1 -9.2 -0.5 -9.6 -0.4 -0.4 -2.3 0.6 -4.2 2.2 -3.7 3 -3.7 4.8 -0.2 2.9 2 -1 2.1 -0.9 2.1 6.5 0 5.7 0.3 7.6 1.3 7.3 0.8 -0.3 1.3 -3.3 1.5 -9.3z m-41.8 2.5 c0 -0.6 -3 -1 -7 -1 -4 0 -7 0.4 -7 1 0 0.6 3 1 7 1 4 0 7 -0.4 7 -1z m0 -6 c0 -0.6 -3 -1 -7 -1 -4 0 -7 0.4 -7 1 0 0.6 3 1 7 1 4 0 7 -0.4 7 -1z m-57 -22 c1.9 -1.9 2.7 -5 1.4 -5 -0.3 0 -1.5 1.1 -2.6 2.5 -5.2 6.6 -13.1 0 -10.7 -8.9 1.5 -5.4 9.4 -6.8 11.3 -2 0.5 1.3 0.9 1.5 1.8 0.6 2.1 -2.1 -2.5 -5.7 -7.3 -5.7 -5.4 0 -8.9 3.8 -8.9 9.6 0 4.3 2.1 9.4 4.2 10.2 3.2 1.3 8.9 0.6 10.8 -1.3z m16 0 c2 -2 2.7 -7.4 1.2 -9.6 -2.3 -3.5 -7.6 -3.9 -10.7 -0.8 -2.4 2.4 -1.9 9 0.7 10.8 3.1 2.2 6.4 2 8.8 -0.4z m8.2 -3.7 c0.3 -5.7 0.3 -5.8 3.3 -5.8 3 0 3 0.1 3.3 5.8 0.2 3.1 0.7 5.7 1.2 5.7 1.2 0 1.3 -11 0.2 -12.6 -1.2 -1.8 -4.3 -2.4 -6.5 -1.3 -1.6 0.9 -2.2 0.9 -2.5 0 -1 -3 -2.2 0.7 -2.2 7 0 5.4 0.3 6.9 1.5 6.9 1 0 1.5 -1.5 1.7 -5.7z m21.9 -1.6 c2.9 -7.3 2.1 -10.6 -1 -3.5 -1 2.4 -2 5 -2.3 5.8 -0.5 1.5 -3.8 -5 -3.8 -7.6 0 -1.4 -1.8 -2.9 -2.7 -2.1 -0.9 1 4.8 14.8 6 14.4 0.6 -0.2 2.3 -3.3 3.8 -7z m16.9 6.3 c0 -0.5 -2 -1 -4.5 -1 -2.5 0 -4.5 -0.3 -4.5 -0.6 0 -0.4 2 -2.4 4.5 -4.6 3.4 -3 4.5 -4.7 4.5 -6.9 0 -5.7 -8.2 -7.7 -11.4 -2.7 -1.6 2.6 0 3.2 2.3 0.9 2.4 -2.4 4.2 -2.6 5.9 -0.9 2.1 2.1 1.3 4 -4.3 9.3 -3 2.9 -5.5 5.8 -5.5 6.4 0 0.7 2.5 1.1 6.5 1.1 3.7 0 6.5 -0.4 6.5 -1z m16.6 -0.5 c4.8 -3.3 5.5 -12.4 1.3 -16.6 -1.4 -1.4 -3.3 -1.9 -7.9 -1.9 l-6 0 0 10 0 10 5.3 0 c3 0 6.2 -0.6 7.3 -1.5z"/>
  <path d="M253.6 474.4 c-2.1 -2.1 -2 -4.7 0.3 -7.5 1.6 -2 2.3 -2.2 3.8 -1.3 2.5 1.5 3 7.4 0.7 9.1 -2.3 1.7 -2.9 1.6 -4.8 -0.3z"/>
  <path d="M337.3 473.4 c-1.5 -2.4 -1.5 -2.9 -0.2 -5.3 0.8 -1.4 2.3 -2.6 3.4 -2.6 1.1 0 2.6 1.2 3.4 2.6 1.3 2.4 1.3 2.9 -0.2 5.3 -1 1.4 -2.4 2.6 -3.2 2.6 -0.8 0 -2.2 -1.2 -3.2 -2.6z"/>
  <path d="M268.3 474.4 c-0.3 -0.9 0 -2 0.8 -2.5 2.1 -1.3 5.9 -1.1 5.9 0.4 0 3.4 -5.5 5.1 -6.7 2.1z"/>
  <path d="M284.6 474.4 c-0.9 -0.8 -1.6 -2.6 -1.6 -3.9 0 -2.1 2.3 -5.5 3.6 -5.5 2.4 0 4.4 2.5 4.4 5.5 0 2.4 -0.6 3.8 -1.9 4.5 -2.5 1.3 -2.7 1.3 -4.5 -0.6z"/>
  <path d="M300.8 474.9 c-3.3 -1.9 -1.8 -9.9 1.8 -9.9 2 0 4.4 3 4.4 5.5 0 2.2 -2.3 5.5 -3.8 5.5 -0.4 0 -1.5 -0.5 -2.4 -1.1z"/>
  <path d="M383.3 474.4 c-0.7 -2 1.3 -3.4 5 -3.4 3.1 0 3.4 1.1 1.1 3.4 -2 2.1 -5.3 2 -6.1 0z"/>
  <path d="M422.6 467.5 c1.2 -3 6.6 -2.9 7.8 0.1 0.4 1.1 -0.5 1.4 -3.9 1.4 -3.5 0 -4.3 -0.3 -3.9 -1.5z"/>
  <path d="M333.1 441.6 c-1.7 -2 -1 -7.7 1.1 -9 2.2 -1.3 5.8 1.7 5.8 5 0 4.3 -4.5 6.9 -6.9 4z"/>
  <path d="M348 435 c0 -1.8 3.9 -3.1 6 -2 3.2 1.7 2.3 3 -2 3 -2.2 0 -4 -0.4 -4 -1z"/>
  <path d="M323 402 c0 -1.4 3.6 -3.1 5.4 -2.4 0.8 0.3 1.7 1.2 2 2 0.4 1.1 -0.4 1.4 -3.4 1.4 -2.2 0 -4 -0.4 -4 -1z"/>
  <path d="M381.6 408.4 c-1.8 -1.8 -2.2 -9.5 -0.6 -12.5 0.6 -1 1.9 -1.9 3 -1.9 2.6 0 4 2.9 4 8.4 0 4.2 -1.8 7.6 -4 7.6 -0.5 0 -1.6 -0.7 -2.4 -1.6z"/>
  <path d="M290 369 c0 -1.4 3.6 -3.1 5.4 -2.4 0.8 0.3 1.7 1.2 2 2 0.4 1.1 -0.4 1.4 -3.4 1.4 -2.2 0 -4 -0.4 -4 -1z"/>
  <path d="M331 369 c0 -1.4 3.6 -3.1 5.4 -2.4 0.8 0.3 1.7 1.2 2 2 0.4 1.1 -0.4 1.4 -3.4 1.4 -2.2 0 -4 -0.4 -4 -1z"/>
  <path d="M315 341.9 c-1.5 -2.8 -0.9 -5.9 1.5 -7.5 4.5 -2.9 8.8 4.2 4.9 8 -2.2 2.2 -5.1 2 -6.4 -0.5z"/>
  <path d="M377 336.1 l0 -8.1 3.9 0 c4.8 0 7.1 2.6 7.1 8 0 5 -1.8 7 -6.8 7.7 l-4.2 0.6 0 -8.2z"/>
  <path d="M1201 482 l-92.5 -0.5 0 -92.3 0 -92.2 92.8 0 92.7 0 0 93 c0 51.2 -0.1 92.9 -0.2 92.8 -0.2 -0.2 -41.9 -0.5 -92.8 -0.8z m-28 -67.5 c0 -1.6 0.6 -2.5 1.5 -2.5 0.8 0 1.5 -0.4 1.5 -0.9 0 -0.5 -0.7 -1.1 -1.5 -1.5 -1.1 -0.4 -1.5 -2.1 -1.5 -6.6 0 -3.3 -0.4 -6 -0.8 -6 -1.4 0 -10.4 12.9 -9.7 14 0.3 0.5 2.4 1 4.6 1 3.5 0 3.9 0.3 3.9 2.5 0 1.4 0.5 2.5 1 2.5 0.6 0 1 -1.1 1 -2.5z m14.3 1.4 c7.3 -3.3 5.6 -18.9 -2 -18.9 -3.5 0 -6.3 2.7 -6.3 6 0 5.1 3.5 7.3 8.7 5.6 2 -0.7 2.2 -0.5 1.4 1.5 -0.4 1.3 -1.7 2.9 -2.8 3.6 -1.8 1.2 -2.3 1.2 -3.7 -0.2 -0.9 -0.9 -2.1 -1.5 -2.8 -1.3 -0.7 0.3 -0.4 1.2 1 2.6 2.5 2.5 3.2 2.6 6.5 1.1z m10.8 -2 l2.2 -3.1 1.9 3.1 c1.1 1.7 2.7 3.1 3.5 3.1 1.5 0 1.3 -0.7 -2.1 -5.2 l-2 -2.8 2.3 -3.1 c2.9 -3.9 1.7 -5.3 -1.4 -1.7 l-2.3 2.7 -1.6 -2.4 c-0.9 -1.4 -2.4 -2.5 -3.2 -2.5 -1.3 0 -1.1 0.7 1 3.5 l2.7 3.5 -2.5 3.3 c-2.8 3.6 -3.2 4.7 -1.7 4.7 0.5 0 2 -1.4 3.2 -3.1z m19.9 -6.9 c0 -5.5 -0.3 -10 -0.7 -10 -1 0.1 -6.3 4.7 -6.3 5.5 0 0.4 0.9 0.3 2 0 1.9 -0.6 2 -0.2 2 6.3 0 3.8 0.3 7.2 0.7 7.5 1.8 1.9 2.3 -0.1 2.3 -9.3z m16.4 7.9 c2.3 -1.8 2.6 -2.8 2.6 -7.8 0 -6.8 -1.9 -10.1 -5.9 -10.1 -1.5 0 -3.6 0.8 -4.5 1.9 -3.8 4.2 -2.7 15.3 1.8 17.1 3 1.2 3 1.2 6 -1.1z m-23.4 -29.4 c0 -3.3 0.1 -3.5 2.1 -2.4 3.2 1.7 7.3 -1.7 7.7 -6.4 0.4 -5.1 -2.4 -7.8 -8 -7.4 l-4.3 0.3 0 7.9 c0 4.4 0.1 8.8 0.3 9.8 0.7 3 2.2 1.8 2.2 -1.8z m-81.2 -6.3 c0.3 -3.9 0.5 -4.2 3.2 -4.2 2.3 0 3.5 0.9 6 4.5 1.7 2.5 3.5 4.5 4 4.5 1.8 0 1 -2.5 -2 -6.1 l-2.9 -3.6 2.4 -1.1 c1.8 -0.9 2.5 -1.9 2.5 -4.1 0 -4.2 -2.4 -5.6 -9.4 -5.6 l-6.1 0 -0.3 10.3 c-0.2 8.1 0 10.3 1 10 0.7 -0.3 1.4 -2.3 1.6 -4.6z m27.9 2.3 c3.1 -2.7 1.3 -3.5 -2.1 -1 -2.5 1.9 -3.1 1.9 -5 -0.1 -2.7 -2.6 -1.8 -3.4 3.9 -3.4 6.2 0 6.8 -1 3.4 -5.4 -4.9 -6.2 -13.8 0.2 -10.9 7.9 0.9 2.4 3.8 4.3 6.7 4.4 0.7 0.1 2.5 -1 4 -2.4z m14.1 0.9 c3.6 -2.5 2.5 -5.6 -2.2 -6.9 -2.2 -0.7 -4.2 -1.7 -4.4 -2.3 -0.6 -1.8 2.8 -2.7 5 -1.3 2.7 1.6 3.8 0.3 1.4 -1.5 -2.7 -1.9 -6 -1.8 -8 0.5 -2.3 2.5 -1.1 4.8 3.2 6.2 5 1.6 5.8 2.5 3.2 3.9 -1.7 0.9 -2.6 0.8 -4.7 -0.5 -2.6 -1.7 -4 -1.5 -2.8 0.5 0.7 1.2 4.1 2.8 6 2.9 0.6 0.1 2.1 -0.6 3.3 -1.5z m7.2 -2.1 c0 -5.6 1 -8.2 3.2 -8.9 2.9 -0.9 4 0.8 4.2 6.5 0.1 6.8 2 6.6 2.4 -0.3 0.4 -6.8 -1.5 -9.1 -6.5 -8.1 -3.2 0.6 -3.3 0.5 -3.3 -3 0 -1.9 -0.4 -3.5 -1 -3.5 -0.6 0 -1 4.2 -1 10.5 0 6.3 0.4 10.5 1 10.5 0.6 0 1 -1.7 1 -3.7z m21.8 2.3 c1.3 -0.5 2.2 -0.3 2.2 0.3 0 0.6 0.5 1.1 1 1.1 1.1 0 1.3 -8.1 0.4 -11.8 -1.2 -4.2 -10.4 -4 -11.3 0.3 -0.3 1.9 -0.3 1.9 1.7 0.2 2.3 -2.1 6.7 -1.9 6.7 0.3 0 0.9 -1.4 1.7 -3.9 2.1 -3.9 0.6 -5.6 2.1 -5.6 5.2 0 1.7 3.5 3.9 5.5 3.3 0.6 -0.2 2 -0.6 3.3 -1z m33.9 -1.1 c3.1 -2.7 1.3 -3.5 -2.1 -1 -2.5 1.9 -3.1 1.9 -5 -0.1 -2.7 -2.6 -1.8 -3.4 3.9 -3.4 6.2 0 6.8 -1 3.4 -5.4 -4.7 -6 -13.1 -0.6 -11 7.1 0.7 2.6 4.1 5.3 6.8 5.3 0.7 0 2.5 -1.1 4 -2.5z m21.1 1.1 c1.3 -0.5 2.2 -0.3 2.2 0.3 0 0.6 0.5 1.1 1 1.1 1.1 0 1.3 -8.1 0.4 -11.8 -1 -3.7 -9.7 -4.3 -11.1 -0.6 -0.8 2.3 0.5 3 2 1 1.6 -2.1 6.2 -1.8 6.2 0.4 0 0.9 -1.4 1.7 -3.9 2.1 -3.9 0.6 -5.6 2.1 -5.6 5.2 0 1.7 3.5 3.9 5.5 3.3 0.6 -0.2 2 -0.6 3.3 -1z m15.7 0.4 c2.1 -0.8 2.6 -1.6 2.3 -3.8 -0.2 -2.2 -1.1 -2.9 -4.5 -4 -2.4 -0.8 -4.3 -1.8 -4.3 -2.3 0 -1.7 3.1 -2.2 5.6 -0.9 3 1.6 4.1 0.8 1.9 -1.4 -2.9 -2.9 -9.5 -1.3 -9.5 2.3 0 2.4 1.7 3.7 5.8 4.6 3.5 0.7 4.3 3 1.3 4 -2.1 0.6 -5.1 -0.3 -5.1 -1.6 0 -0.5 -0.4 -0.9 -1 -0.9 -1.9 0 -1 3.1 1.3 4 2.9 1.2 3.1 1.2 6.2 0z"/>
  <path d="M1165 409.1 c0 -0.3 1.4 -2.4 3.1 -4.6 l3 -4 -0.3 4.5 c-0.3 4 -0.5 4.4 -3 4.5 -1.6 0.1 -2.8 -0.1 -2.8 -0.4z"/>
  <path d="M1182.1 405.6 c-1.6 -1.9 -1.1 -4.6 1.2 -6 2.5 -1.6 5.2 0.4 5.2 4 0 2.4 -0.5 3 -2.6 3.2 -1.4 0.2 -3.1 -0.4 -3.8 -1.2z"/>
  <path d="M1228.5 413.4 c-1.8 -1.9 -2.1 -11.4 -0.3 -13.2 3.3 -3.3 6.8 -0.1 6.8 6.3 0 6.3 -3.4 9.9 -6.5 6.9z"/>
  <path d="M1212.8 380.9 c-2.1 -1.2 -2.4 -6.9 -0.6 -8.7 3.7 -3.7 8.5 1.8 5.8 6.6 -1.8 3 -2.9 3.5 -5.2 2.1z"/>
  <path d="M1130 369 c0 -2.9 0.2 -3 4.4 -3 2.6 0 4.8 0.6 5.6 1.5 2 2.5 -0.5 4.5 -5.6 4.5 -4.2 0 -4.4 -0.1 -4.4 -3z"/>
  <path d="M1149.2 373.8 c0.8 -2.2 3.7 -3.4 5.5 -2.2 3.3 2.1 2.6 3.4 -1.7 3.4 -2.8 0 -4 -0.4 -3.8 -1.2z"/>
  <path d="M1195.1 380.6 c-1.4 -1.7 0.2 -3.1 4.2 -3.8 2.1 -0.4 2.7 -0.1 2.7 1.3 0 1.7 -2.7 3.9 -4.8 3.9 -0.5 0 -1.5 -0.6 -2.1 -1.4z"/>
  <path d="M1226.2 373.8 c0.8 -2.2 3.7 -3.4 5.5 -2.2 3.3 2.1 2.6 3.4 -1.7 3.4 -2.8 0 -4 -0.4 -3.8 -1.2z"/>
  <path d="M1250.1 380.6 c-1.4 -1.7 0.2 -3.1 4.2 -3.8 2.1 -0.4 2.7 -0.1 2.7 1.3 0 1.7 -2.7 3.9 -4.8 3.9 -0.5 0 -1.5 -0.6 -2.1 -1.4z"/>
  <path d="M544 389.5 l0 -92.5 93 0 93 0 0 92.5 0 92.5 -93 0 -93 0 0 -92.5z m10.2 19.1 l0.3 -6.8 5 7.3 c2.8 4 5.6 7.5 6.3 7.7 0.9 0.3 1.2 -2.2 1.2 -10.2 0 -6.4 -0.4 -10.6 -1 -10.6 -0.6 0 -1 3.2 -1 7.5 0 4.1 -0.3 7.5 -0.7 7.5 -0.5 0 -3 -3.4 -5.7 -7.5 -2.7 -4.2 -5.4 -7.4 -6 -7.2 -1.2 0.4 -2.1 16.9 -1.1 19.5 1.1 3 2.4 -0.4 2.7 -7.2z m27.2 6.3 c1.9 -1.5 2.6 -3 2.6 -5.5 0 -6.2 -5.8 -9.4 -10.8 -5.8 -3.8 2.7 -2.7 11.1 1.8 12.7 2.7 1 3.7 0.7 6.4 -1.4z m8.3 -3.7 c0.3 -6.2 0.8 -7.2 3.3 -7.2 1.2 0 1.9 -0.4 1.6 -0.9 -0.3 -0.5 -2.2 -0.9 -4.1 -0.8 l-3.5 0.1 0 6.6 c0 9.4 2.2 11.2 2.7 2.2z m9.3 0.4 c0 -5.6 1.7 -8.3 4.4 -7.3 1 0.4 1.6 2.4 1.8 6.2 0.4 7.1 2.2 7.2 2.6 0.1 0.2 -4.4 0.7 -5.6 2.2 -6.1 3.2 -1 4 0.3 4 6.6 0 3.3 0.4 5.9 1 5.9 0.6 0 1 -2.8 1 -6.4 0 -7.5 -1.5 -9.6 -5.9 -8 -1.8 0.7 -3.4 0.7 -5 0 -1.6 -0.7 -2.8 -0.6 -4.2 0.2 -1.1 0.7 -1.9 0.8 -1.9 0.2 0 -0.5 -0.4 -1 -1 -1 -0.6 0 -1 3.2 -1 7.5 0 4.3 0.4 7.5 1 7.5 0.6 0 1 -2.4 1 -5.4z m28.3 4.3 c1.6 -0.9 2.2 -0.9 2.5 0 1 3.1 2.2 0.4 2.2 -5.4 0 -6.9 -1.1 -8.5 -6.2 -8.5 -3.1 0 -6.3 2.3 -5.4 3.9 0.5 0.8 1.2 0.7 2.3 -0.4 1.9 -1.9 5.8 -1.6 5.8 0.5 0 0.8 -1.4 1.7 -3.2 2.1 -6.2 1.2 -8 4.6 -4.1 7.3 2.7 1.9 3.3 1.9 6.1 0.5z m10.7 -9.4 c0 -6.3 -0.4 -10.5 -1 -10.5 -0.6 0 -1 4.2 -1 10.5 0 6.3 0.4 10.5 1 10.5 0.6 0 1 -4.2 1 -10.5z m6.5 3 c0 -4.6 -0.4 -7 -1.2 -7.2 -1 -0.4 -1.3 1.5 -1.3 7.2 0 5.7 0.3 7.6 1.3 7.3 0.8 -0.3 1.2 -2.7 1.2 -7.3z m15.2 6.3 c-0.2 -0.8 -2.1 -1.3 -4.5 -1.3 -2.3 0 -4.2 -0.2 -4.2 -0.4 0 -0.3 1.8 -2.6 4 -5.2 2.2 -2.6 4 -5.2 4 -5.8 0 -0.7 -2.3 -1.1 -5.5 -1.1 -3 0 -5.5 0.5 -5.5 1 0 0.6 1.8 1 4.1 1 l4.1 0 -4.6 5.4 c-2.5 2.9 -4.6 5.8 -4.6 6.5 0 0.7 2.3 1.1 6.6 1.1 4.8 0 6.5 -0.3 6.1 -1.2z m9.5 0.1 c1.4 -0.8 2.3 -0.8 3.1 0 0.6 0.6 1.4 1.1 1.7 1.1 1 0 -0.1 -12.4 -1.2 -13.7 -1.6 -1.9 -7.2 -1.6 -9.1 0.5 -2.2 2.4 -0.9 3.7 1.4 1.6 2.1 -1.9 6.4 -1.5 6.4 0.6 0 0.9 -1.3 1.7 -3.5 2 -2 0.4 -4.1 1 -4.8 1.4 -1.8 1.1 -1.5 5.4 0.6 6.5 2.2 1.3 2.9 1.3 5.4 0z m14.3 0.1 c0.3 -0.6 -0.1 -1.3 -0.9 -1.6 -2 -0.8 -2.3 -9.9 -0.3 -10.8 1 -0.5 1 -0.7 0 -1.2 -0.7 -0.3 -1.3 -1.7 -1.3 -3 0 -1.4 -0.4 -2.2 -1 -1.9 -0.5 0.3 -1 1.5 -1 2.5 0 1 -0.6 2.1 -1.2 2.4 -1 0.5 -1 0.7 0 1.2 0.7 0.4 1.2 2.7 1.2 6.4 0 5.4 0.6 6.6 3.2 6.9 0.4 0.1 1 -0.4 1.3 -0.9z m4.5 -6.5 c0 -4.3 -0.4 -7.5 -1 -7.5 -0.6 0 -1 3.2 -1 7.5 0 4.3 0.4 7.5 1 7.5 0.6 0 1 -3.2 1 -7.5z m15.3 4.3 c2.4 -2.9 2.1 -7 -0.7 -9.7 -3.1 -2.9 -7.3 -2.5 -9.9 1.1 -1.7 2.2 -1.8 3.3 -1.1 6 1.7 5.7 7.8 7.1 11.7 2.6z m6.7 -1.7 c0 -5.3 2 -8.4 4.9 -7.9 1.2 0.2 1.7 1.8 2.1 6.1 0.6 7.2 2.4 7.5 2.8 0.3 0.2 -3.9 -0.1 -5.8 -1.3 -7 -1.9 -1.9 -5.6 -2.1 -7.3 -0.4 -0.9 0.9 -1.2 0.9 -1.2 0 0 -0.7 -0.4 -1.2 -1 -1.2 -0.6 0 -1 3.2 -1 7.5 0 4.3 0.4 7.5 1 7.5 0.6 0 1 -2.2 1 -4.9z m-65.2 -14.3 c-0.6 -1.8 -2.8 -2.1 -2.8 -0.4 0 0.9 0.7 1.6 1.6 1.6 0.9 0 1.4 -0.5 1.2 -1.2z m43.2 -0.3 c0 -0.8 -0.4 -1.5 -1 -1.5 -0.5 0 -1 0.7 -1 1.5 0 0.8 0.5 1.5 1 1.5 0.6 0 1 -0.7 1 -1.5z m-72.8 -16.5 c2 -2.5 1.6 -5.9 -0.9 -7.3 -1.2 -0.8 -1.2 -1.2 0.3 -2.8 3.9 -4.3 -1.9 -8.7 -10.2 -7.7 l-2.9 0.3 -0.3 8.9 c-0.2 4.9 0 9.6 0.3 10.4 0.9 2.4 11.4 1.1 13.7 -1.8z m12.1 1.9 c1.6 -0.9 2.2 -0.9 2.5 0 0.2 0.6 0.8 1.1 1.3 1.1 1.6 0 1.1 -11.7 -0.7 -13.4 -2.8 -2.8 -10.4 -1.4 -10.4 1.9 0 1.9 1.4 1.9 3 0 1.7 -2 5.4 -1.5 5.8 0.8 0.3 1.3 -0.3 1.7 -2.5 1.7 -3.3 0 -7.3 2.5 -7.3 4.5 0 1.4 3.7 4.5 5.3 4.5 0.5 0 1.8 -0.5 3 -1.1z m13.7 -0.4 c0 -0.8 -0.4 -1.5 -1 -1.5 -1.5 0 -1.3 -9.7 0.3 -10.3 0.9 -0.4 0.9 -0.8 0.1 -1.4 -0.7 -0.4 -1.4 -1.8 -1.5 -3 -0.5 -2.9 -2.7 -1.6 -3 1.7 -0.6 6.3 0.2 12.9 1.7 14.4 2 2 3.4 2 3.4 0.1z m11.8 -0.1 c1.2 -0.8 2.2 -2.2 2.2 -3 0 -1.9 -0.6 -1.8 -3 0.6 -2.6 2.6 -3.6 2.5 -5.5 -0.4 -3.3 -4.9 1.3 -10.9 5.5 -7.1 2.3 2.1 3.6 0.3 1.4 -1.9 -3.8 -3.9 -10.4 -0.3 -10.4 5.7 0 3.7 0.7 4.9 3.5 6.5 2.7 1.5 3.7 1.5 6.3 -0.4z m7.2 -3.8 c0 -5.7 1.5 -8 4.7 -7.4 1.4 0.2 1.9 1.6 2.3 6.1 0.3 3.1 1 5.8 1.5 6 1.7 0.4 1.8 -9.2 0 -11.9 -1.7 -2.6 -5.3 -3.2 -7.3 -1.2 -0.9 0.9 -1.2 0.3 -1.2 -3 0 -2.3 -0.4 -4.2 -1 -4.2 -0.6 0 -1 4.2 -1 10.5 0 6.3 0.4 10.5 1 10.5 0.6 0 1 -2.4 1 -5.4z"/>
  <path d="M575.2 413.4 c-2.6 -1.8 -2.9 -6.5 -0.7 -8.4 2 -1.7 6.2 -0.5 7 2 1.5 4.9 -2.6 9 -6.3 6.4z"/>
  <path d="M623.1 414.1 c-2.2 -1.4 -0.6 -3.8 2.8 -4.3 2.5 -0.4 3.1 -0.1 3.1 1.3 0 1 -0.9 2.3 -1.9 2.9 -2.3 1.2 -2.2 1.2 -4 0.1z"/>
  <path d="M665.3 414.3 c-2 -0.7 -1.5 -3.1 0.7 -3.7 1.1 -0.3 2.9 -0.9 4 -1.2 2.8 -0.8 2.6 2 -0.2 4 -2.4 1.7 -2.6 1.7 -4.5 0.9z"/>
  <path d="M695.6 413.7 c-2.2 -1.6 -1.8 -7.5 0.7 -9.1 2.5 -1.6 5.1 0.4 5.5 4.5 0.3 3 -1.5 5.9 -3.8 5.9 -0.3 0 -1.4 -0.6 -2.4 -1.3z"/>
  <path d="M604 377.4 c0 -3.5 0 -3.5 4.1 -3.2 4.5 0.3 6.7 2.4 5.6 5.2 -0.5 1.1 -1.9 1.6 -5.2 1.6 -4.5 0 -4.5 0 -4.5 -3.6z"/>
  <path d="M604 368.9 c0 -2.9 0.1 -3 4.2 -2.7 3.3 0.2 4.4 0.8 4.6 2.2 0.5 2.4 -1.4 3.6 -5.5 3.6 -3 0 -3.3 -0.3 -3.3 -3.1z"/>
  <path d="M622.4 380.5 c-0.8 -2.1 0.2 -3.2 3.6 -3.7 3.9 -0.6 4.6 0.6 2 3.2 -2.3 2.3 -4.8 2.6 -5.6 0.5z"/>
  <path d="M826 389.5 l0 -92.5 93 0 93 0 0 92.5 0 92.5 -93 0 -93 0 0 -92.5z m78.5 14.4 c0.5 -0.5 1.2 -4.7 1.3 -9.2 l0.4 -8.3 -5.1 -0.2 c-4.2 -0.2 -5.2 0.2 -6.5 2 -2.1 2.9 -2 6.7 0 9.7 1.3 1.8 2.4 2.2 5 1.9 3.7 -0.4 4.5 1 1.8 3.3 -1.4 1.1 -2.1 1.1 -4.5 -0.3 -2.4 -1.4 -2.9 -1.4 -2.9 -0.3 0 3.2 7.6 4.3 10.5 1.4z m-22.7 -5.5 c2.2 -1.5 2.7 -3.8 1.6 -6.8 -0.3 -0.9 -3 -2.3 -6 -3.2 -6 -1.7 -7.1 -2.8 -5.4 -4.9 1.7 -2 5.9 -1.9 8.2 0.2 2.1 1.9 3.7 0.9 2.2 -1.4 -2.6 -4.2 -11.9 -3.2 -13 1.3 -0.8 3.2 1.7 6 6 6.8 4.5 0.9 6.9 2.8 6 4.9 -1.4 3.6 -10.4 3 -10.4 -0.8 0 -0.8 -0.7 -1.5 -1.5 -1.5 -2.2 0 -1.8 1.8 1 4.5 2.8 2.9 7.9 3.3 11.3 0.9z m8.2 -5.4 c0 -4 -0.4 -7 -1 -7 -0.6 0 -1 3 -1 7 0 4 0.4 7 1 7 0.6 0 1 -3 1 -7z m22.2 1.3 c0.3 -5.5 0.4 -5.8 3.1 -6.1 2.7 -0.3 2.7 -0.3 2.7 5.7 0 4.7 0.3 6.1 1.5 6.1 1 0 1.5 -1.5 1.7 -5.7 0.3 -5.4 0.5 -5.8 2.8 -5.8 2.3 0 2.5 0.4 2.8 5.8 0.2 3.1 0.7 5.7 1.3 5.7 0.6 0 0.9 -2.7 0.7 -6.7 -0.3 -6.6 -0.4 -6.8 -3.1 -7.1 -1.6 -0.2 -3.4 0.2 -4.2 0.8 -0.9 0.8 -1.5 0.8 -2 0 -0.3 -0.5 -2.6 -0.9 -5.1 -0.8 l-4.4 0.1 0 6.9 c0 8.2 1.8 9.1 2.2 1.1z m30.8 4.7 c2.7 -1.5 3.6 -7.4 1.6 -10.5 -1.3 -2 -2.5 -2.5 -5.6 -2.5 -5.1 0 -7.6 3.2 -6.6 8.5 1 5 5.8 7.1 10.6 4.5z m8 -6 c0 -4 -0.4 -7 -1 -7 -0.6 0 -1 3 -1 7 0 4 0.4 7 1 7 0.6 0 1 -3 1 -7z m16 -3.2 c0 -8 -0.3 -9.8 -1.5 -9.8 -1 0 -1.5 1 -1.5 3.3 0 3 -0.2 3.2 -3.7 3.2 -2.9 0 -4 0.5 -5.2 2.6 -1.6 2.8 -1 6.9 1.4 9.3 1.1 1 3.1 1.5 6 1.4 l4.5 -0.2 0 -9.8z m-77 -8.3 c0 -0.8 -0.4 -1.5 -1 -1.5 -0.5 0 -1 0.7 -1 1.5 0 0.8 0.5 1.5 1 1.5 0.6 0 1 -0.7 1 -1.5z m61 0 c0 -0.8 -0.4 -1.5 -1 -1.5 -0.5 0 -1 0.7 -1 1.5 0 0.8 0.5 1.5 1 1.5 0.6 0 1 -0.7 1 -1.5z"/>
  <path d="M895.9 395.3 c-1.4 -3.8 0.3 -7.3 3.5 -7.3 3 0 3.9 1.3 3.8 5.3 -0.1 5.2 -5.5 6.6 -7.3 2z"/>
  <path d="M936.1 396.6 c-0.7 -0.8 -1.1 -3 -0.9 -4.8 0.3 -3 0.6 -3.3 3.8 -3.3 3.2 0 3.5 0.3 3.8 3.3 0.4 3.7 -1.2 6.2 -3.8 6.2 -1 0 -2.3 -0.6 -2.9 -1.4z"/>
  <path d="M958.1 396.6 c-0.7 -0.8 -1.1 -3 -0.9 -4.8 0.2 -2.8 0.7 -3.4 3 -3.6 2.2 -0.3 3 0.2 4 2.2 2.3 5.1 -2.8 10.2 -6.1 6.2z"/>
  <path d="M497.8 411.9 l-0.3 -11.4 -23.2 -0.3 -23.3 -0.2 0 -10.5 0 -10.5 23.3 -0.2 23.2 -0.3 0.5 -11.2 0.5 -11.2 19.4 15.9 c10.6 8.7 19.7 16.2 20.2 16.7 0.6 0.6 -6.2 6.8 -17.8 16.3 -10.3 8.4 -19.6 16 -20.5 16.8 -1.6 1.4 -1.8 0.7 -2 -9.9z"/>
  <path d="M780 411.6 l0 -11.6 -23.5 0 -23.5 0 0 -10.5 0 -10.5 23.5 0 23.4 0 0.3 -11.6 0.3 -11.6 20.2 16.3 c11.1 9 20.2 16.9 20.2 17.4 0 0.8 -32.9 28.2 -38.9 32.4 -2 1.3 -2 1.1 -2 -10.3z"/>
  <path d="M1439 412.1 c0 -6 -0.4 -11.2 -0.9 -11.5 -0.4 -0.3 -28.9 -0.6 -63.2 -0.7 -34.3 -0.2 -65.7 -0.4 -69.6 -0.7 l-7.3 -0.4 0 -10.4 0 -10.4 70.5 0.7 70.4 0.6 0.3 -11.7 0.3 -11.8 20.3 16.7 c11.1 9.2 20.2 17.1 20.2 17.5 0 0.6 -38.6 32.1 -40.2 32.8 -0.4 0.2 -0.8 -4.6 -0.8 -10.7z"/>
  <path d="M1062.8 410.8 l-0.3 -11.3 -23.2 -0.3 -23.3 -0.2 0 -10.5 0 -10.5 23.3 -0.2 23.2 -0.3 0.3 -10.8 c0.1 -6 0.6 -10.7 1.1 -10.5 0.4 0.2 9.6 7.5 20.4 16.3 15.5 12.7 19.3 16.2 18.4 17.3 -1 1.2 -33.6 27.9 -37.9 31 -1.6 1.2 -1.8 0.6 -2 -10z"/>
  <path d="M1355.6 448 c1.5 -2.2 2.8 -4 3 -4 0.2 0 0.4 1.8 0.4 4 0 3.8 -0.2 4 -3 4 l-3 0 2.6 -4z"/>
  <path d="M1371.4 449.2 c-2.1 -1.4 -2.3 -4.1 -0.4 -6.4 1.5 -1.9 2.2 -2.1 3.7 -1.2 1 0.6 1.9 2.4 2.1 3.9 0.5 3.6 -2.5 5.7 -5.4 3.7z"/>
  <path d="M1416.6 455.4 c-3.3 -3.2 -1.4 -14.4 2.4 -14.4 2.4 0 4 3.4 4 8.4 0 7 -2.8 9.7 -6.4 6z"/>
  <path d="M144.8 410.8 l-0.3 -11.3 -70.3 -0.3 -70.2 -0.2 0 -10.5 0 -10.5 70.2 -0.2 70.3 -0.3 0.5 -11.3 0.5 -11.2 20.4 16.6 c16.7 13.6 20.1 16.8 19 17.9 -0.8 0.7 -7.9 6.5 -15.9 13 -8 6.5 -16.6 13.6 -19.2 15.7 l-4.7 3.9 -0.3 -11.3z"/>
  <path d="M238 119 l0 -105 104.5 0 104.5 0 0 105 0 105 -104.5 0 -104.5 0 0 -105z m14.3 78.2 c-0.3 -2.9 -0.2 -3.1 3 -2.6 4.7 0.8 7.2 -1.4 7.2 -6.6 0 -5.2 -2.2 -7 -8.2 -6.8 l-4.3 0.2 0 9.9 c0 7.5 0.3 9.8 1.3 9.4 0.7 -0.2 1.1 -1.7 1 -3.5z m92.7 1.8 c1.7 -1.7 2 -3.3 2 -9.8 l0 -7.8 -4.9 -0.2 c-4.2 -0.2 -5.3 0.2 -6.5 2 -2.1 2.9 -2 6.7 0 9.7 1.3 1.8 2.4 2.2 5 1.9 2.7 -0.3 3.4 -0.1 3.4 1.4 0 2.6 -4.6 3.5 -7 1.3 -1.6 -1.5 -2 -1.5 -2 -0.4 0 4.1 6.6 5.3 10 1.9z m-67 -9.3 c0 -6.9 -1.2 -8.7 -5.9 -8.7 -2.2 0 -4.4 0.6 -5.1 1.5 -1.6 2 -0.5 3.2 1.4 1.6 1.8 -1.5 5.8 -1.1 6.3 0.6 0.3 0.7 -0.8 1.5 -2.4 1.8 -5.1 1.1 -7.3 2.4 -7.3 4.3 0 3.1 2.1 4.2 7.7 4 l5.3 -0.2 0 -4.9z m15 -4.9 c0 -5.9 -0.4 -9.8 -1 -9.8 -0.5 0 -1 1.5 -1 3.3 0 3.2 -0.2 3.3 -3 2.9 -4.2 -0.6 -7 2.1 -7 6.6 0 5.1 2.4 7.2 7.7 7 l4.3 -0.1 0 -9.9z m16 0 c0 -5.9 -0.4 -9.8 -1 -9.8 -0.5 0 -1 1.6 -1 3.5 0 3.3 -0.1 3.4 -2.9 2.9 -1.6 -0.3 -3.8 -0.1 -4.8 0.5 -3.7 1.9 -3.6 9.8 0.1 12.3 0.6 0.4 3 0.7 5.4 0.6 l4.2 -0.1 0 -9.9z m6 3.2 c0 -4 -0.4 -7 -1 -7 -0.6 0 -1 3 -1 7 0 4 0.4 7 1 7 0.6 0 1 -3 1 -7z m7.2 1.3 c0.3 -5.2 0.5 -5.8 2.7 -6.1 3.1 -0.5 4.1 1.2 4.1 7.1 0 2.6 0.5 4.7 1 4.7 1.5 0 1.2 -11.6 -0.3 -12.9 -0.8 -0.6 -3.5 -1 -6 -0.9 l-4.7 0.2 0 6.8 c0 5.3 0.3 6.8 1.5 6.8 1 0 1.5 -1.5 1.7 -5.7z m54.8 4.2 c2.1 -2.5 0.7 -4.9 -3.8 -6.5 -4.9 -1.7 -5.6 -4 -1.2 -4 1.7 0 3 0.5 3 1 0 0.6 0.5 1 1 1 0.6 0 1 -0.6 1 -1.4 0 -2.7 -6.9 -3.6 -9 -1.1 -2.1 2.5 -0.7 4.9 3.8 6.4 4.3 1.3 5.1 3.3 1.7 3.9 -1 0.2 -2.8 -0.2 -4.1 -0.9 -3 -1.5 -4 -0.7 -1.9 1.5 2 2 7.8 2.1 9.5 0.1z m16.2 -4.4 c-0.2 -3.1 -0.9 -6.2 -1.4 -6.8 -1.3 -1.6 -6.2 -1.7 -8.9 -0.3 -2.3 1.3 -2.5 3 -0.4 3 0.8 0 1.5 -0.5 1.5 -1.1 0 -1.4 6.2 -0.7 6.7 0.8 0.3 0.8 -1.1 1.5 -3.7 1.9 -4.8 0.8 -7.4 3.7 -5.9 6.5 0.8 1.5 2.1 1.8 6.7 1.7 l5.7 -0.1 -0.3 -5.6z m5.8 1.8 c0 -4.9 1.5 -7.9 3.9 -7.9 2.3 0 3.1 1.9 3.1 7.6 0 2.4 0.5 4.4 1 4.4 0.6 0 1 -2.2 1 -4.8 0 -5.1 1.2 -7.2 4.2 -7.2 1.5 0 1.8 0.9 1.8 6 0 4.7 0.3 6 1.5 6 1.1 0 1.5 -1.2 1.5 -5.1 0 -2.8 -0.5 -5.9 -1 -7 -1.2 -2.1 -5 -2.5 -6.8 -0.7 -0.9 0.9 -1.5 0.9 -2.4 0 -0.7 -0.7 -2.1 -1.2 -3.3 -1.2 -1.2 0 -2.6 0.5 -3.3 1.2 -0.9 0.9 -1.2 0.9 -1.2 0 0 -0.7 -0.4 -1.2 -1 -1.2 -0.6 0 -1 3 -1 7 0 4 0.4 7 1 7 0.6 0 1 -1.8 1 -4.1z m32.4 2.2 c1 -1.1 1.3 -2.2 0.8 -2.5 -0.5 -0.3 -1.5 0.1 -2.2 0.9 -1.5 1.8 -5.1 2 -6.8 0.3 -2.2 -2.2 -1.3 -2.8 4.3 -2.8 6.1 0 7 -1.4 3.9 -5.8 -1.8 -2.7 -6.9 -3 -9.6 -0.5 -2.3 2 -2.4 8 -0.1 10.5 2.1 2.4 7.5 2.3 9.7 -0.1z m-67.9 -4.6 c0 -1.1 -9.9 -2 -12.2 -1.1 -0.8 0.3 -1.1 1.1 -0.8 1.6 0.8 1.4 13 0.9 13 -0.5z m0.3 -6.2 c0.3 -1 -1.4 -1.3 -6.2 -1.3 -6.1 0 -8.4 0.8 -6.9 2.4 1.2 1.2 12.6 0.2 13.1 -1.1z m-48.8 -5.8 c0 -0.8 -0.4 -1.5 -1 -1.5 -0.5 0 -1 0.7 -1 1.5 0 0.8 0.5 1.5 1 1.5 0.6 0 1 -0.7 1 -1.5z m-12.6 -16.1 c2.8 -2.8 1.6 -4.8 -3.9 -6.6 -2.2 -0.7 -4 -1.8 -4 -2.3 0 -1.5 4.4 -1.8 6.1 -0.4 1.9 1.6 3 0.4 1.4 -1.6 -1.6 -1.9 -7.4 -2 -9 0 -2.1 2.5 -0.7 4.9 3.8 6.3 4.8 1.6 5.7 4.2 1.4 4.2 -1.5 0 -3.3 -0.5 -4 -1.2 -1.7 -1.7 -2.8 -0.2 -1.2 1.7 1.6 2 7.4 1.9 9.4 -0.1z m9.6 0.7 c0 -0.5 -0.5 -1.1 -1.1 -1.3 -1.8 -0.6 -2 -9.8 -0.3 -9.8 1.6 0 1.9 -1.7 0.3 -2.2 -0.5 -0.2 -1.1 -1 -1.2 -1.8 -0.4 -2.3 -2.2 -2.3 -2.5 0 -0.2 1.1 -0.8 2 -1.5 2 -0.8 0 -0.8 0.3 0.1 1.2 0.7 0.7 1.2 3.5 1.2 6.3 0 2.9 0.3 5.5 0.7 5.8 1 1 4.3 0.8 4.3 -0.2z m5.2 -4.8 c0.3 -5.1 0.6 -5.8 2.6 -6.1 3.8 -0.6 2.4 -2.1 -1.8 -2 l-4 0 0 6.9 c0 5.4 0.3 6.9 1.5 6.9 1 0 1.5 -1.5 1.7 -5.7z m8.8 -1.3 c0 -4 -0.4 -7 -1 -7 -0.6 0 -1 3 -1 7 0 4 0.4 7 1 7 0.6 0 1 -3 1 -7z m16 -3.2 c0 -5.9 -0.4 -9.8 -1 -9.8 -0.5 0 -1 1.6 -1 3.6 0 3.1 -0.2 3.5 -2.1 2.9 -7 -2.3 -11.6 6.6 -6.3 12 1 1 3.2 1.4 6 1.3 l4.4 -0.1 0 -9.9z m14.5 8.9 c1 -0.8 1.5 -1.9 1.1 -2.6 -0.6 -0.9 -1.2 -0.8 -2.6 0.4 -2.3 2 -6.4 1.6 -6.8 -0.7 -0.3 -1.4 0.6 -1.7 5 -2 4.7 -0.3 5.3 -0.5 5 -2.3 -1.4 -7.9 -13.2 -6.7 -13.2 1.3 0 6.2 6.5 9.5 11.5 5.9z m30.5 -8.3 c0 -5.3 -0.3 -9.4 -0.7 -9.2 -2.8 1.3 -7.3 4.4 -7.3 5.1 0 1.1 2.5 0.8 3.8 -0.5 0.9 -0.9 1.2 0.5 1.2 6.5 0 6.2 0.3 7.7 1.5 7.7 1.2 0 1.5 -1.7 1.5 -9.6z m-12.5 3.1 c0 -1.1 -9.9 -2 -12.2 -1.1 -0.8 0.3 -1.1 1.1 -0.8 1.6 0.8 1.4 13 0.9 13 -0.5z m0.3 -6.2 c0.3 -1 -1.4 -1.3 -6.2 -1.3 -6.1 0 -8.4 0.8 -6.9 2.4 1.2 1.2 12.6 0.2 13.1 -1.1z m-48.8 -5.8 c0 -0.8 -0.4 -1.5 -1 -1.5 -0.5 0 -1 0.7 -1 1.5 0 0.8 0.5 1.5 1 1.5 0.6 0 1 -0.7 1 -1.5z m-23 -20.5 c0 -4.7 0.3 -6 1.5 -6 2.1 0 1.9 -1.6 -0.2 -2.5 -1.6 -0.6 -1.6 -0.8 0.5 -2.5 2.7 -2.2 2.8 -3 0.4 -3 -2.3 0 -4.2 1.9 -4.2 4.1 0 1 -0.6 2 -1.2 2.3 -1 0.5 -1 0.7 0 1.2 0.7 0.4 1.2 2.7 1.2 6.5 0 3.3 0.4 5.9 1 5.9 0.6 0 1 -2.7 1 -6z m8 -1 c0 -5.6 -0.3 -7 -1.5 -7 -1.2 0 -1.5 1.4 -1.5 7 0 5.6 0.3 7 1.5 7 1.2 0 1.5 -1.4 1.5 -7z m6 -3 c0 -6 -0.4 -10 -1 -10 -0.6 0 -1 4 -1 10 0 6 0.4 10 1 10 0.6 0 1 -4 1 -10z m9 9 c0 -0.5 -0.4 -1 -1 -1 -1.5 0 -1.2 -9.7 0.3 -10.4 1 -0.5 1 -0.7 0 -1.2 -0.7 -0.3 -1.3 -1.7 -1.3 -3.1 0 -3 -2.4 -2.6 -2.8 0.5 -0.2 1.2 -0.8 2.2 -1.5 2.2 -0.8 0 -0.8 0.3 0.1 1.2 0.7 0.7 1.2 3.5 1.2 6.3 0 2.9 0.3 5.5 0.7 5.8 1 1.1 4.3 0.8 4.3 -0.3z m13.4 -0.6 c2.2 -2.1 0.9 -4 -1.3 -2 -2.4 2.2 -5.8 2 -7.1 -0.4 -1 -1.9 -0.8 -2 4.5 -2 5 0 5.5 -0.2 5.5 -2.2 0 -5.3 -7.1 -7.7 -11 -3.8 -2.4 2.4 -2.6 7.7 -0.3 10.2 2 2.2 7.6 2.4 9.7 0.2z m7.8 -4.1 c0.3 -5.1 0.6 -5.8 2.6 -6.1 3.8 -0.6 2.4 -2.1 -1.8 -1.9 l-4 0.1 0 6.8 c0 5.3 0.3 6.8 1.5 6.8 1 0 1.5 -1.5 1.7 -5.7z m25.8 0.2 c0 -4.2 0.4 -5.7 1.6 -6.2 3.1 -1.2 4.9 1.1 5.2 6.6 0.4 7 2.2 6.5 2.2 -0.7 0 -6.4 -1.1 -8.2 -5 -8.2 -1.4 0 -3.1 0.5 -3.8 1.2 -0.9 0.9 -1.2 0.9 -1.2 0 0 -0.7 -0.4 -1.2 -1 -1.2 -0.6 0 -1 3 -1 7 0 5.6 0.3 7 1.5 7 1.2 0 1.5 -1.3 1.5 -5.5z m-6.5 -1 c0 -1.1 -9.9 -2 -12.2 -1.1 -0.8 0.3 -1.1 1.1 -0.8 1.6 0.8 1.4 13 0.9 13 -0.5z m0 -6 c0 -1.1 -9.9 -2 -12.2 -1.1 -0.8 0.3 -1.1 1.1 -0.8 1.6 0.8 1.4 13 0.9 13 -0.5z m-55.7 -5.6 c-0.2 -0.6 -0.8 -1 -1.3 -1 -0.5 0 -1.1 0.4 -1.3 1 -0.2 0.6 0.4 1.1 1.3 1.1 0.9 0 1.5 -0.5 1.3 -1.1z m-34.8 -17.9 c0 -4.2 1.5 -4.5 4.1 -0.8 4.4 6.3 6.7 6.1 2.5 -0.2 -1.4 -2.2 -2.6 -4.3 -2.6 -4.7 0 -0.4 1.2 -1.7 2.8 -3 1.9 -1.6 2.2 -2.2 1.1 -2.3 -0.8 0 -2.6 1.1 -3.9 2.5 -1.3 1.4 -2.7 2.5 -3.2 2.5 -0.4 0 -0.8 -2.5 -0.8 -5.5 0 -3 -0.4 -5.5 -1 -5.5 -0.6 0 -1 4.2 -1 10.6 0 6.7 0.4 10.3 1 9.9 0.6 -0.3 1 -1.9 1 -3.5z m23.1 1.4 c0.6 -0.7 0.7 -1.9 0.3 -2.5 -0.5 -0.9 -1 -0.7 -2 0.5 -1.6 2.3 -6.8 1.8 -7.2 -0.6 -0.3 -1.5 0.4 -1.8 4.7 -1.8 4.6 0 5.1 -0.2 5.1 -2.2 0 -3.1 -2.9 -5.8 -6.2 -5.8 -5.7 0 -8.8 6.8 -5.3 11.7 2.3 3.3 8.1 3.7 10.6 0.7z m7.1 -4.4 c0.3 -4.8 0.6 -5.5 2.6 -5.8 3.8 -0.6 2.4 -2.1 -1.8 -2 l-4 0 0 6.8 c0 3.6 0.3 7 0.7 7.4 1.3 1.3 2.2 -1 2.5 -6.4z m10.5 -5.1 c0.6 -0.6 1.9 -0.9 2.9 -0.7 1.5 0.2 2 1.5 2.4 6.1 0.6 7.2 2.4 7.5 2.8 0.3 0.2 -3.9 -0.1 -5.8 -1.3 -7 -1.9 -1.9 -5.6 -2.1 -7.3 -0.4 -0.9 0.9 -1.2 0.9 -1.2 0 0 -0.7 -0.4 -1.2 -1 -1.2 -1.2 0 -1.4 13.3 -0.2 14.4 0.4 0.4 0.9 -1.7 1.2 -4.8 0.3 -3 1 -6 1.7 -6.7z m30.1 1 c-0.4 -11.9 -2.2 -12.1 -2.6 -0.2 -0.3 9.3 0.2 12.3 1.9 10.6 0.5 -0.5 0.9 -5 0.7 -10.4z m32 6.7 c1.2 -2.3 1.1 -3.1 -0.2 -5.1 -1.3 -2 -1.4 -2.8 -0.4 -4.4 2.7 -4.3 -5.8 -8.3 -9.6 -4.5 -1.8 1.7 -2.1 3.4 -0.7 3.4 0.5 0 1.4 -0.7 2.1 -1.5 1.7 -2 4.9 -1.9 5.7 0.2 0.4 1 -0.2 2.3 -1.5 3.4 -2.8 2.2 -2.8 2.7 0.1 3.1 1.7 0.2 2.2 1 2.2 3.3 0 2.6 -0.4 3 -2.8 3.3 -1.9 0.2 -3.3 -0.3 -4.2 -1.5 -1.5 -2 -3.1 -1.2 -2.1 1.2 1.5 4.1 9.3 3.6 11.4 -0.9z m7.2 0.8 c1.3 -2.3 3 -3.3 3 -1.6 0 1.2 4.1 5.4 4.7 4.9 0.2 -0.3 -0.6 -2.3 -1.8 -4.5 l-2.3 -3.9 2.3 -3.1 c1.7 -2.4 1.9 -3.2 0.8 -3.2 -0.8 0 -2.2 1 -3.1 2.3 l-1.6 2.2 -1.6 -2.2 c-0.9 -1.3 -2.3 -2.3 -3.1 -2.3 -1.1 0 -0.9 0.8 0.8 3.2 l2.3 3.1 -2.2 3.8 c-1.2 2.1 -2.2 4 -2.2 4.3 0 1.3 2.9 -0.8 4 -3z m22.2 0.3 c1.4 -2.1 0.8 -6.6 -0.8 -7.5 -1.1 -0.6 -1.3 -1.1 -0.5 -1.6 1.6 -1 1.4 -5.1 -0.3 -6.5 -2 -1.7 -7.7 -1 -9 1.1 -1.4 2.4 0.3 3.7 1.9 1.5 1.8 -2.5 6 -1.9 6 0.8 0 1.1 -1 2.4 -2.2 3 -2.9 1.2 -2.9 2.3 -0.2 2.7 3.1 0.4 4.6 3.2 3 5.2 -1.8 2.1 -5.8 2 -7 -0.1 -1.1 -2.1 -2.6 -1.1 -1.7 1.2 1.3 3.4 8.7 3.6 10.8 0.2z m-68.8 0.7 c2.2 -2.1 0.9 -4 -1.3 -2 -2.4 2.2 -5.8 2 -7.1 -0.4 -1 -1.9 -0.8 -2 4.5 -2 5 0 5.5 -0.2 5.5 -2.2 0 -5.3 -7.1 -7.7 -11 -3.8 -2.4 2.4 -2.6 7.7 -0.3 10.2 2 2.2 7.6 2.4 9.7 0.2z m23.9 -4.9 c-0.3 -0.9 -11 -1.6 -12.6 -0.8 -0.4 0.3 -0.5 0.9 -0.1 1.4 0.8 1.3 13 0.7 12.7 -0.6z m0.2 -6 c0 -1.1 -9.9 -2 -12.2 -1.1 -0.8 0.3 -1.1 1.1 -0.8 1.6 0.8 1.4 13 0.9 13 -0.5z m-57.1 -21.6 c1.4 -1.1 2.6 -2.7 2.6 -3.5 0 -2 -1 -1.7 -3.6 1.1 -2.8 3 -5.7 3.2 -8.4 0.5 -2 -2 -2.4 -3.9 -2.1 -9 0.4 -5.2 7.8 -8.1 10.3 -4 1.2 1.9 3.8 2.8 3.8 1.3 0 -2.1 -4.7 -5.3 -7.8 -5.3 -5.2 0 -9.2 4.5 -9.2 10.5 0 8.6 8.1 13.4 14.4 8.4z m16.9 -0.7 c2.6 -2.3 2.3 -8.7 -0.5 -10.6 -5 -3.5 -10.8 -0.7 -10.8 5.2 0 4.2 0.6 5.4 3.5 7 2.3 1.3 5.2 0.7 7.8 -1.6z m7.7 -3.7 c0 -4.5 0.3 -5.5 2 -6 3.4 -1.1 5 1.2 5 7.1 0 3.1 0.4 5.4 1 5.4 0.7 0 1 -2.5 0.8 -6.6 -0.4 -7.9 -1.8 -9.6 -6.8 -7.7 -1.6 0.6 -3 0.7 -3 0.2 0 -0.5 -0.4 -0.9 -1 -0.9 -1.1 0 -1.4 13.2 -0.4 14.3 1.5 1.5 2.4 -0.7 2.4 -5.8z m22.1 -1.3 c2 -5.4 2.4 -7.2 1.4 -7.2 -0.8 0 -2.1 2.4 -3.1 5.5 -1 3 -2 5.2 -2.4 5 -0.4 -0.3 -1.3 -2.5 -2 -5 -1.2 -4.3 -2.6 -6.3 -3.6 -5.2 -0.8 0.8 4.8 14.8 5.9 14.4 0.5 -0.1 2.2 -3.5 3.8 -7.5z m16.9 6.3 c0 -1.1 -1.2 -1.5 -4.7 -1.5 l-4.8 0 4.8 -4.4 c4.2 -3.8 4.8 -4.9 4.5 -7.7 -0.2 -2.6 -0.9 -3.6 -2.9 -4.3 -3.6 -1.2 -7.6 0 -8.4 2.5 -1 3 0.3 3.6 2.1 1.1 1.7 -2.4 4.3 -2.9 6.2 -1 2 2 1.4 3.2 -4.4 9.1 -3 3.1 -5.3 6.1 -4.9 6.7 0.3 0.5 3.3 1 6.6 1 4.6 0 5.9 -0.3 5.9 -1.5z m15.5 0.1 c4.6 -2 6.5 -7.7 4.4 -13.3 -1.8 -4.5 -4.8 -6.3 -11.1 -6.3 l-4.8 0 0 9.8 c0 5.4 0.3 10.2 0.7 10.5 1.1 1.2 7.2 0.8 10.8 -0.7z"/>
  <path d="M252.8 190.5 c-1.7 -3.8 0.4 -7.7 4 -7.3 2.9 0.3 3.9 2.9 2.8 7.4 -0.9 3.4 -5.2 3.3 -6.8 -0.1z"/>
  <path d="M337 190.5 c-1.4 -3.7 0.3 -7.5 3.5 -7.5 3.3 0 5 3.5 3.6 7.3 -1.4 3.7 -5.7 3.8 -7.1 0.2z"/>
  <path d="M268 191.6 c0 -1.7 0.5 -2.1 4.3 -3 2.6 -0.6 2.8 -0.4 2.5 1.6 -0.2 1.8 -1 2.4 -3.5 2.6 -2.4 0.2 -3.3 -0.1 -3.3 -1.2z"/>
  <path d="M284.1 191.6 c-3.1 -3.7 0.9 -10.3 4.7 -8 3.6 2.3 2.3 9.4 -1.8 9.4 -1 0 -2.3 -0.6 -2.9 -1.4z"/>
  <path d="M300.2 191.8 c-3 -3 -0.4 -9.4 3.5 -8.6 2.3 0.4 4.1 5.3 2.7 7.6 -1.4 2.1 -4.5 2.7 -6.2 1z"/>
  <path d="M383.4 191.9 c-0.9 -1.5 0.5 -2.6 4.4 -3.4 3.5 -0.7 3.7 -0.4 2.2 2.6 -1.2 2.1 -5.4 2.6 -6.6 0.8z"/>
  <path d="M422.6 186.1 c-0.9 -1.4 2.1 -3.3 4.6 -2.9 1.2 0.2 2.4 1.1 2.6 2.1 0.3 1.3 -0.4 1.7 -3.2 1.7 -1.9 0 -3.7 -0.4 -4 -0.9z"/>
  <path d="M333.2 158.8 c-0.7 -0.7 -1.2 -2.4 -1.2 -3.8 0 -5.1 5.2 -6.9 7.2 -2.5 2.2 4.9 -2.5 9.8 -6 6.3z"/>
  <path d="M348 152.5 c0 -2 4.6 -3 6.5 -1.5 2.5 2.1 1.7 3 -2.5 3 -2.9 0 -4 -0.4 -4 -1.5z"/>
  <path d="M331.2 119.3 c0.4 -2.2 4.4 -2.9 6.4 -1.3 2.4 2.1 1.6 3 -2.7 3 -3.3 0 -4 -0.3 -3.7 -1.7z"/>
  <path d="M290 86.5 c0 -2 4.6 -3 6.5 -1.5 2.5 2.1 1.7 3 -2.5 3 -2.9 0 -4 -0.4 -4 -1.5z"/>
  <path d="M331 86.5 c0 -2 4.6 -3 6.5 -1.5 2.5 2.1 1.7 3 -2.5 3 -2.9 0 -4 -0.4 -4 -1.5z"/>
  <path d="M315.2 59.8 c-3 -3 -0.3 -9.2 3.8 -8.6 3 0.4 5 5 3.4 7.6 -1.4 2.1 -5.5 2.7 -7.2 1z"/>
  <path d="M377 53.5 l0 -7.5 3.8 0 c4.8 0 7.2 2.4 7.2 7.1 0 5.3 -2.3 7.9 -7.1 7.9 l-3.9 0 0 -7.5z"/>
  <path d="M544 119 l0 -93 93 0 93 0 -0.2 92.8 -0.3 92.7 -92.7 0.3 -92.8 0.2 0 -93z m10.2 19.3 l0.3 -7.7 5 7.7 c2.8 4.2 5.6 7.7 6.3 7.7 0.9 0 1.2 -2.7 1.2 -10 0 -11.8 -1.8 -13.6 -2.2 -2.3 l-0.3 7.6 -5.1 -7.4 c-7.4 -10.7 -8.4 -10.5 -8.4 2 0 8.2 0.3 10.1 1.5 10.1 1.1 0 1.5 -1.8 1.7 -7.7z m27.8 5.7 c6.4 -6.4 -2.7 -16.6 -9.7 -10.8 -0.7 0.6 -1.3 3 -1.3 5.4 0 3.3 0.5 4.6 2.2 5.8 3.1 2.2 6.4 2 8.8 -0.4z m7.7 -4 c0.3 -5 1.6 -7.5 3.4 -6.4 0.4 0.2 1 0 1.3 -0.5 1 -1.6 -1.2 -2.3 -3.4 -1.1 -1.3 0.7 -2 0.7 -2 0 0 -0.5 -0.4 -1 -1 -1 -0.6 0 -1 3.2 -1 7.6 0 5.5 0.3 7.5 1.2 7.2 0.7 -0.3 1.4 -2.7 1.5 -5.8z m9.3 0.5 c0 -4.2 0.4 -5.6 1.8 -6.3 3.2 -1.7 4.2 -0.3 4.2 6 0 7.5 2.3 7.7 2.8 0.2 0.3 -5.1 2.2 -7.7 4.8 -6.7 1 0.4 1.4 2.3 1.4 6.4 0 3.3 0.4 5.9 1 5.9 0.6 0 1 -2.8 1 -6.5 0 -5.4 -0.3 -6.6 -2 -7.5 -1.4 -0.8 -2.6 -0.8 -4.1 0.1 -1.6 0.8 -2.7 0.8 -4.4 -0.1 -1.6 -0.9 -2.8 -0.9 -4.2 -0.1 -1.4 0.7 -2.3 0.7 -3.1 -0.1 -0.9 -0.9 -1.2 0.7 -1.2 6.5 0 4.5 0.4 7.7 1 7.7 0.6 0 1 -2.5 1 -5.5z m29.1 4.5 c1.3 -0.7 1.9 -0.7 1.9 0 0 0.5 0.5 1 1 1 1.2 0 1.3 -10.9 0.2 -12.7 -1.5 -2.4 -6.6 -2.6 -9.2 -0.5 -1.4 1.1 -2.2 2.4 -1.8 2.8 0.5 0.4 1.7 -0.1 2.7 -1 1.3 -1.1 2.7 -1.5 4 -1.1 3.4 1.1 2.4 3.2 -1.9 3.9 -2.4 0.4 -4.3 1.4 -5 2.5 -1.3 2.5 -1.3 2.7 0.6 4.5 1.8 1.8 4.7 2 7.5 0.6z m9.9 -9 c0 -6 -0.4 -10 -1 -10 -0.6 0 -1 4 -1 10 0 6 0.4 10 1 10 0.6 0 1 -4 1 -10z m6.5 2.5 c0 -4.6 -0.4 -7 -1.2 -7.2 -1 -0.4 -1.3 1.5 -1.3 7.2 0 5.7 0.3 7.6 1.3 7.3 0.8 -0.3 1.2 -2.7 1.2 -7.3z m15.5 6.5 c0 -0.5 -2 -1 -4.5 -1 -2.5 0 -4.5 -0.3 -4.5 -0.6 0 -0.3 1.8 -2.7 4 -5.3 2.2 -2.6 4 -5.3 4 -5.9 0 -0.8 -1.9 -1.2 -5.5 -1.2 -6.4 0 -7.5 1.7 -1.4 2.2 l4.2 0.3 -4.7 5.1 c-2.5 2.9 -4.6 5.7 -4.6 6.3 0 0.7 2.4 1.1 6.5 1.1 3.7 0 6.5 -0.4 6.5 -1z m10.1 0 c1.3 -0.7 1.9 -0.7 1.9 0 0 0.5 0.6 1 1.3 1 2 0 1 -12.1 -1.1 -13.8 -2 -1.6 -7 -0.8 -9.1 1.3 -2.3 2.3 -0.7 2.8 2.7 0.8 2.5 -1.4 3.2 -1.5 4.6 -0.4 2.1 1.8 2 3.1 -0.3 3.1 -4.1 0 -8.1 2.2 -8.1 4.4 0 4.1 3.8 5.8 8.1 3.6z m13.9 0.1 c0 -0.5 -0.7 -1.1 -1.5 -1.5 -1.9 -0.7 -2.1 -10.1 -0.2 -11 1 -0.5 1 -0.7 0 -1.2 -0.7 -0.3 -1.3 -1.4 -1.3 -2.5 0 -1 -0.4 -1.9 -1 -1.9 -0.5 0 -1 0.9 -1 1.9 0 1.1 -0.6 2.1 -1.2 2.4 -1 0.4 -1 0.7 0 1.8 0.6 0.7 1.2 3.6 1.2 6.4 0 2.9 0.3 5.5 0.7 5.8 1 1 4.3 0.8 4.3 -0.2z m4 -6.6 c0 -4.3 -0.4 -7.5 -1 -7.5 -0.6 0 -1 3.2 -1 7.5 0 4.3 0.4 7.5 1 7.5 0.6 0 1 -3.2 1 -7.5z m14.5 5 c3.2 -3.1 3.2 -6.9 -0.1 -10.1 -1.9 -2 -3.1 -2.4 -5.2 -2 -3.4 0.9 -6.2 4.1 -6.2 7.3 0 2.9 4.2 7.3 7 7.3 1.2 0 3.2 -1.1 4.5 -2.5z m7.5 -2.4 c0 -3.9 0.4 -5.3 2.1 -6.5 3.4 -2.4 4.8 -1 5.1 5.2 0.4 8 2.8 8.3 2.8 0.3 0 -5.4 -0.3 -6.2 -2.5 -7.7 -2.1 -1.4 -3.1 -1.5 -5 -0.6 -1.5 0.7 -2.5 0.8 -2.5 0.2 0 -0.6 -0.4 -1 -1 -1 -0.6 0 -1 3.2 -1 7.5 0 4.3 0.4 7.5 1 7.5 0.6 0 1 -2.2 1 -4.9z m-65 -14.2 c0 -0.5 -0.7 -0.9 -1.5 -0.9 -1.5 0 -2 1.2 -0.9 2.3 0.8 0.8 2.4 -0.1 2.4 -1.4z m42.9 -0.8 c-1.5 -0.5 -2.2 0.6 -1.4 1.9 0.6 0.9 1 0.9 1.6 -0.1 0.5 -0.8 0.4 -1.5 -0.2 -1.8z m-74.4 -13.7 c2.7 -1.1 3.8 -5.3 2 -8 -1.2 -1.9 -1.3 -2.9 -0.5 -4.5 0.9 -1.6 0.8 -2.6 -0.5 -4.5 -1.3 -2.1 -2.3 -2.4 -7.5 -2.4 l-6 0 0 9.3 c0 5.2 0.3 9.7 0.7 10 0.8 0.9 9.6 0.9 11.8 0.1z m14.6 -0.4 c1.3 -0.7 1.9 -0.7 1.9 0 0 0.5 0.5 1 1 1 0.6 0 1 -2.6 1 -5.9 0 -5.1 -0.3 -6.2 -2.2 -7.5 -3 -2.1 -5.1 -2 -7.9 0.3 -3 2.4 -1.9 3.8 1.4 1.7 2.6 -1.7 5.7 -1.2 5.7 0.9 0 0.7 -1.8 1.5 -4 1.9 -2.4 0.4 -4.3 1.4 -5 2.5 -1.3 2.5 -1.3 2.7 0.6 4.5 1.8 1.8 4.7 2 7.5 0.6z m12.9 0 c0 -0.5 -0.4 -1 -1 -1 -1.5 0 -1.3 -10.7 0.3 -11.4 1 -0.5 1 -0.7 0 -1.2 -0.7 -0.3 -1.3 -1.4 -1.3 -2.5 0 -2.8 -1.7 -2.3 -3.4 1.1 -0.8 1.7 -1 3 -0.5 3 0.5 0 0.9 2.4 0.9 5.3 0 2.9 0.5 5.8 1.2 6.5 1.5 1.5 3.8 1.6 3.8 0.2z m12.2 -0.7 c1 -0.9 1.8 -2.3 1.8 -3.1 0 -1.2 -0.5 -1 -2.3 0.6 -2.8 2.6 -4 2.7 -6.1 0.6 -2.2 -2.1 -2 -5 0.5 -7.5 1.9 -1.9 2.2 -2 4.6 -0.4 3.3 2.2 4.5 0.9 1.4 -1.6 -3 -2.4 -4.2 -2.4 -7.5 0.2 -1.9 1.5 -2.6 3 -2.6 5.5 0 6.1 6 9.5 10.2 5.7z m6.8 -2.7 c0 -6.2 0.7 -7.6 4.1 -7.6 2.9 0 2.9 0 2.9 6 0 4.7 0.3 6 1.5 6 2.5 0 2.1 -10.4 -0.5 -13 -2.3 -2.3 -3.3 -2.4 -6.1 -1 -1.7 1 -1.9 0.7 -1.9 -2.5 0 -1.9 -0.4 -3.5 -1 -3.5 -0.6 0 -1 4 -1 10 0 6 0.4 10 1 10 0.6 0 1 -2 1 -4.4z"/>
  <path d="M573.9 141.6 c-1.4 -3 -0.5 -7.2 1.7 -8 2.5 -1 6.4 2 6.4 4.9 0 5.1 -6.1 7.5 -8.1 3.1z"/>
  <path d="M622.3 142.4 c-0.7 -1.9 1.3 -3.4 4.5 -3.4 1.5 0 2.2 0.6 2.2 1.9 0 3.1 -5.6 4.4 -6.7 1.5z"/>
  <path d="M664.4 142.8 c-0.9 -1.4 2.3 -3.8 5.3 -3.8 2.7 0 2.9 1.2 0.7 3.4 -1.8 1.9 -5 2.1 -6 0.4z"/>
  <path d="M695.2 142.8 c-2 -2 -1.5 -7.6 0.8 -8.8 3.2 -1.7 6 0.4 6 4.3 0 3.6 -1.5 5.7 -4 5.7 -0.9 0 -2.1 -0.5 -2.8 -1.2z"/>
  <path d="M604.7 110.3 c-0.4 -0.3 -0.7 -1.9 -0.7 -3.5 0 -2.8 0.1 -2.9 4.7 -2.6 3.8 0.2 4.9 0.7 5.1 2.2 0.3 1.1 -0.4 2.6 -1.4 3.3 -1.9 1.4 -6.6 1.8 -7.7 0.6z"/>
  <path d="M604 98 c0 -3 0.1 -3.1 4.3 -2.8 3.7 0.3 4.2 0.6 4.2 2.8 0 2.2 -0.5 2.5 -4.2 2.8 -4.2 0.3 -4.3 0.2 -4.3 -2.8z"/>
  <path d="M622.3 109.5 c-0.7 -2 -0.3 -2.3 3.5 -3.1 2.4 -0.5 3.2 -0.3 3.2 0.8 0 3.4 -5.5 5.3 -6.7 2.3z"/>
  <path d="M826 119 l0 -93 93 0 93 0 0 93 0 93 -93 0 -93 0 0 -93z m56 29 c0 -2.7 0.2 -2.9 2.9 -2.4 2.2 0.5 3.2 0.1 5 -2.1 2.8 -3.6 2.7 -7 -0.4 -10 -2.5 -2.6 -5 -3.2 -6 -1.5 -0.5 0.8 -1.1 0.8 -1.9 0.1 -0.7 -0.6 -1.6 -0.8 -1.9 -0.4 -0.9 0.8 -0.9 18.8 -0.1 19.6 1.2 1.2 2.4 -0.4 2.4 -3.3z m-16.9 -3 c1.3 -0.7 1.9 -0.7 1.9 0 0 0.5 0.6 1 1.3 1 0.9 0 1.1 -1.8 0.9 -6.6 -0.3 -5.9 -0.6 -6.6 -2.9 -7.5 -2.9 -1.1 -6.7 -0.3 -8.4 1.7 -1.9 2.3 -0.5 2.6 2.9 0.7 2.5 -1.4 3.3 -1.5 4.6 -0.4 2.2 1.8 1.3 2.7 -3.3 3.5 -4.9 0.8 -6.7 3.3 -4.5 6.4 1.6 2.4 4.4 2.8 7.5 1.2z m10.1 -9 c0.2 -7.5 0 -10 -0.9 -10 -1 0 -1.3 2.7 -1.3 10 0 5.5 0.4 10 0.9 10 0.5 0 1.1 -4.5 1.3 -10z m21.8 5.9 c0 -4.5 1.2 -7.4 3.4 -8.2 2.7 -1 4.6 2.1 4.6 7.4 0 2.7 0.5 4.9 1 4.9 0.6 0 1 -2.7 1 -6 0 -5.2 -0.3 -6.2 -2.4 -7.5 -1.9 -1.3 -2.9 -1.4 -4.5 -0.6 -2.9 1.6 -3.1 1.4 -3.1 -2.4 0 -1.9 -0.4 -3.5 -1 -3.5 -0.6 0 -1 4 -1 10 0 6 0.4 10 1 10 0.6 0 1 -1.8 1 -4.1z m21 3.1 c1.3 -0.7 2.1 -0.7 2.5 0 1.6 2.6 2.5 0.5 2.1 -5.2 -0.6 -8.1 -2.9 -10.1 -9 -7.8 -2.5 0.9 -3.7 4 -1.6 4 0.6 0 1 -0.4 1 -0.9 0 -1.3 3 -2.2 5.1 -1.6 3.1 1 2.1 3.2 -1.7 3.8 -4.2 0.7 -6.4 2.3 -6.4 4.6 0 3.6 4.1 5.2 8 3.1z m35 -1 c1.6 -1.6 2 -3.3 2 -8 0 -4.7 -0.4 -6.4 -2 -8 -5.5 -5.5 -12.1 1.5 -10.5 11 1.1 6.4 6.5 9 10.5 5z m9 0.5 c0 -0.8 -0.7 -1.5 -1.5 -1.5 -0.8 0 -1.5 0.7 -1.5 1.5 0 0.8 0.7 1.5 1.5 1.5 0.8 0 1.5 -0.7 1.5 -1.5z m13 -8.6 l0 -10 -3.5 2.7 c-3.7 2.8 -4.8 5.2 -1.6 3.4 1.1 -0.5 2.2 -1 2.5 -1 0.3 0 0.6 3.4 0.6 7.5 0 4.3 0.4 7.5 1 7.5 0.6 0 1 -4 1 -10.1z m-36 3.1 c0 -0.6 -2.8 -1 -6.5 -1 -3.7 0 -6.5 0.4 -6.5 1 0 0.6 2.8 1 6.5 1 3.7 0 6.5 -0.4 6.5 -1z m0 -6 c0 -0.6 -2.8 -1 -6.5 -1 -3.7 0 -6.5 0.4 -6.5 1 0 0.6 2.8 1 6.5 1 3.7 0 6.5 -0.4 6.5 -1z m-24.8 -15.7 c1.8 -2.1 8.1 -18.3 7.4 -19 -1 -1.1 -2.4 0.9 -3.6 5.2 -0.7 2.5 -1.6 4.8 -2.1 5 -0.4 0.3 -1.5 -1.7 -2.4 -4.5 -1.5 -4.6 -3 -6.8 -4.1 -5.8 -0.2 0.3 0.7 3.3 2.1 6.8 3 7.7 3.1 10 0.5 10.7 -2.1 0.5 -2.5 1.5 -1.3 2.6 1 1.1 1.9 0.8 3.5 -1z m-52.2 -5.3 c0 -0.5 -2.2 -1 -5 -1 l-5 0 0 -9 c0 -7.3 -0.3 -9 -1.5 -9 -1.2 0 -1.5 1.8 -1.5 10 l0 10 6.5 0 c3.7 0 6.5 -0.4 6.5 -1z m13.5 -1 c2.3 -2.5 1.2 -3.9 -1.3 -1.7 -2.2 2 -4.3 2.2 -6 0.5 -2.6 -2.6 -1.3 -3.8 3.8 -3.8 4.2 0 5 -0.3 5 -1.8 0 -2.7 -2.1 -5 -5.2 -5.7 -3.6 -0.9 -7.8 3.1 -7.8 7.5 0 6.1 7.5 9.4 11.5 5z m12.6 1 c1.3 -0.7 1.9 -0.7 1.9 0 0 0.5 0.6 1 1.3 1 0.9 0 1.1 -1.7 0.7 -6.7 -0.5 -6.2 -0.7 -6.8 -3.1 -7.7 -1.8 -0.6 -3.4 -0.4 -5.4 0.5 -3.2 1.6 -4.5 3.9 -2.1 3.9 0.9 0 1.6 -0.4 1.6 -0.9 0 -1.5 3 -2.1 5.1 -1.1 2.9 1.6 2.3 2.7 -1.7 3.3 -4.2 0.7 -6.4 2.3 -6.4 4.6 0 3.7 4.1 5.2 8.1 3.1z m10.9 -2.5 c0 -1.9 0.4 -3.5 0.9 -3.5 0.5 0 1.9 1.6 3.1 3.5 1.2 1.9 2.9 3.5 3.7 3.5 1.4 0 1.3 -0.3 -0.1 -2.5 -5.2 -8.1 -5 -7.2 -2.2 -9 1.4 -1 2.6 -2.1 2.6 -2.6 0 -1.8 -2 -0.8 -4.9 2.4 l-3.1 3.2 0 -5.7 c0 -4.5 -0.3 -5.8 -1.5 -5.8 -1.2 0 -1.5 1.8 -1.5 10 0 8.2 0.3 10 1.5 10 1 0 1.5 -1.1 1.5 -3.5z m36 -1 c0 -4.3 0.1 -4.5 3 -4.5 2.5 0 3.6 0.9 6.2 4.5 1.8 2.5 3.8 4.5 4.6 4.5 1.5 0 1.1 -0.9 -2.5 -5.8 l-2.4 -3.2 2.8 -2.4 c2.7 -2.4 2.7 -2.6 1.3 -5.3 -1.4 -2.6 -2.1 -2.8 -8.3 -3.1 l-6.7 -0.3 0 10.1 c0 6 0.4 10 1 10 0.6 0 1 -2 1 -4.5z m27.8 2.9 c1.2 -0.8 2.2 -1.9 2.2 -2.5 0 -1.5 -2.7 -1 -3.4 0.6 -0.8 2.1 -3.9 1.9 -5.9 -0.3 -2.3 -2.5 -1.3 -3.2 4.5 -3.2 4.1 0 4.8 -0.3 4.8 -1.9 0 -2.3 -2.2 -4.7 -5.1 -5.6 -3.3 -1.1 -7.3 2.5 -7.7 6.8 -0.5 6.3 5.4 9.8 10.6 6.1z m8.2 -8.4 c0 -8.2 -0.3 -10 -1.5 -10 -1.2 0 -1.5 1.8 -1.5 10 0 8.2 0.3 10 1.5 10 1.2 0 1.5 -1.8 1.5 -10z m11.6 8.9 c0.4 -0.8 0.9 -0.7 1.5 0.2 1.3 2.2 2 0.4 2 -5.7 0.1 -8.1 0 -8.4 -1.1 -8.4 -0.5 0 -1 2.4 -1 5.4 0 6 -1.9 8.8 -4.8 6.9 -1.2 -0.7 -1.8 -2.7 -2 -6.7 -0.4 -7.7 -2.2 -7.1 -2.2 0.9 0 5 0.4 6.6 1.8 7.4 2.3 1.4 4.9 1.4 5.8 0z"/>
  <path d="M882.4 141.5 c-1.4 -2.1 -1.5 -3.1 -0.6 -5.1 2.4 -5.1 7.2 -3.8 7.2 2 0 5.7 -3.8 7.4 -6.6 3.1z"/>
  <path d="M859.4 142.8 c-0.9 -1.4 2.3 -3.8 5.3 -3.8 2.7 0 2.9 1.2 0.7 3.4 -1.8 1.9 -5 2.1 -6 0.4z"/>
  <path d="M912.6 142.5 c-0.6 -1.7 2.2 -3.5 5.3 -3.5 2.3 0 2.8 1.9 0.9 3.8 -1.7 1.7 -5.5 1.5 -6.2 -0.3z"/>
  <path d="M946.2 142.8 c-1.5 -1.5 -1.6 -10.2 -0.2 -12.9 2.6 -4.7 7 -0.8 7 6.1 0 6.6 -3.5 10.1 -6.8 6.8z"/>
  <path d="M867 103 c0 -1.8 3.9 -3.1 6 -2 3.2 1.7 2.3 3 -2 3 -2.2 0 -4 -0.4 -4 -1z"/>
  <path d="M882.4 109.8 c-0.9 -1.4 2.3 -3.8 5.3 -3.8 2.5 0 3 1.9 1.1 3.8 -1.5 1.5 -5.5 1.6 -6.4 0z"/>
  <path d="M935 98.5 c0 -3.4 0.1 -3.5 3.9 -3.5 5.2 0 7.1 0.8 7.1 3.1 0 2.4 -2.9 3.9 -7.4 3.9 -3.4 0 -3.6 -0.2 -3.6 -3.5z"/>
  <path d="M955 103 c0 -1.4 3.6 -3.1 5.4 -2.4 0.8 0.3 1.7 1.2 2 2 0.4 1.1 -0.4 1.4 -3.4 1.4 -2.2 0 -4 -0.4 -4 -1z"/>
  <path d="M1108.8 210.8 c-0.2 -0.7 -0.3 -42.5 -0.3 -92.8 l0.1 -91.5 92.7 -0.3 92.7 -0.2 0 93 0 93 -92.4 0 c-73 0 -92.5 -0.3 -92.8 -1.2z m52.6 -50.4 c2.8 -2.8 1.6 -4.8 -3.9 -6.6 -2.2 -0.7 -4 -1.8 -4 -2.3 0 -1.5 4.4 -1.8 6.1 -0.4 1.9 1.6 3 0.4 1.4 -1.6 -1.6 -1.9 -7.4 -2 -9 0 -2.1 2.5 -0.7 4.9 3.8 6.3 4.8 1.6 5.7 4.2 1.4 4.2 -1.5 0 -3.3 -0.5 -4 -1.2 -1.7 -1.7 -2.8 -0.2 -1.2 1.7 1.6 2 7.4 1.9 9.4 -0.1z m9.6 0.6 c0 -0.5 -0.4 -1 -1 -1 -1.5 0 -1.2 -9.7 0.3 -10.4 1 -0.5 1 -0.7 0 -1.2 -0.7 -0.3 -1.3 -1.7 -1.3 -3.1 0 -3 -2.4 -2.6 -2.8 0.5 -0.2 1.2 -0.8 2.2 -1.5 2.2 -0.8 0 -0.8 0.3 0.1 1.2 0.7 0.7 1.2 3.5 1.2 6.3 0 2.9 0.3 5.5 0.7 5.8 1 1.1 4.3 0.8 4.3 -0.3z m5.2 -4.7 c0.3 -5.1 0.6 -5.8 2.6 -6.1 3.7 -0.6 2.5 -2.1 -1.7 -2 l-3.9 0 0.1 6.9 c0 4.9 0.4 6.9 1.3 6.9 0.9 0 1.4 -1.9 1.6 -5.7z m8.8 -1.3 c0 -4 -0.4 -7 -1 -7 -0.6 0 -1 3 -1 7 0 4 0.4 7 1 7 0.6 0 1 -3 1 -7z m16 -3.2 c0 -5.9 -0.4 -9.8 -1 -9.8 -0.5 0 -1 1.6 -1 3.6 0 3.1 -0.2 3.5 -2.1 2.9 -7 -2.3 -11.6 6.6 -6.3 12 1 1 3.2 1.4 6 1.3 l4.4 -0.1 0 -9.9z m15.4 8 c1.4 -2.4 -0.3 -3.7 -1.9 -1.5 -1.7 2.3 -6.8 2 -7.3 -0.5 -0.3 -1.4 0.6 -1.7 5 -2 4.7 -0.3 5.3 -0.5 5 -2.3 -0.8 -4.7 -5.8 -6.9 -10.2 -4.5 -2.8 1.5 -3.6 7.4 -1.6 10.6 1.5 2.1 2.4 2.5 5.8 2.2 2.5 -0.2 4.5 -1 5.2 -2z m32.6 1.2 c0 -0.5 -2.1 -1 -4.7 -1 l-4.8 0 4.8 -4.4 c4.9 -4.5 6.2 -8.7 3.5 -11.4 -2.9 -2.9 -10.8 -0.5 -10.8 3.4 0 2.1 1.8 1.7 2.5 -0.7 0.5 -1.6 1.4 -1.9 3.8 -1.7 5.1 0.5 4.6 3.2 -1.7 9.8 -3.1 3.2 -5.6 6.1 -5.6 6.4 0 0.3 2.9 0.6 6.5 0.6 3.7 0 6.5 -0.4 6.5 -1z m-15.5 -5.5 c0 -1.1 -9.9 -2 -12.2 -1.1 -0.8 0.3 -1.1 1.1 -0.8 1.6 0.8 1.4 13 0.9 13 -0.5z m0.3 -6.2 c0.3 -1 -1.4 -1.3 -6.2 -1.3 -6.1 0 -8.4 0.8 -6.9 2.4 1.2 1.2 12.6 0.2 13.1 -1.1z m-48.8 -5.8 c0 -0.8 -0.4 -1.5 -1 -1.5 -0.5 0 -1 0.7 -1 1.5 0 0.8 0.5 1.5 1 1.5 0.6 0 1 -0.7 1 -1.5z m-50 -17.4 c0 -4.4 1.6 -4.6 4.2 -0.7 1.3 2 2.9 3.6 3.7 3.6 1.1 0 1.1 -0.4 -0.1 -2.2 -4.5 -6.9 -4.5 -6.8 -2 -8.8 2.5 -2.1 2.8 -3 0.8 -3 -0.8 0 -2.3 1.1 -3.4 2.5 -1.1 1.4 -2.3 2.5 -2.6 2.5 -0.3 0 -0.6 -2.5 -0.6 -5.5 0 -3 -0.4 -5.5 -1 -5.5 -0.6 0 -1 4 -1 10 0 6 0.4 10 1 10 0.6 0 1 -1.3 1 -2.9z m23 1 c1.2 -2.4 -0.5 -3.9 -1.8 -1.5 -1.2 2.1 -6.6 1.5 -7 -0.8 -0.3 -1.5 0.4 -1.8 4.7 -1.8 4.6 0 5.1 -0.2 5.1 -2.2 0 -3.1 -2.9 -5.8 -6.2 -5.8 -5.7 0 -8.8 6.8 -5.2 11.8 2 3 8.8 3.1 10.4 0.3z m7.2 -3.8 c0.3 -5.1 0.6 -5.8 2.6 -6.1 3.7 -0.5 2.5 -2.1 -1.6 -2 l-3.7 0 0.2 5.7 c0.2 8.2 0.2 8.1 1.3 8.1 0.5 0 1 -2.6 1.2 -5.7z m8.8 1.6 c0 -5 1.5 -7.9 4 -7.9 2.6 0 3.3 1.5 3.1 7.1 0 3.7 0.3 4.9 1.4 4.9 1.8 0 2.1 -9 0.5 -12.1 -1.2 -2.2 -5.9 -2.6 -7.8 -0.7 -0.9 0.9 -1.2 0.9 -1.2 0 0 -0.7 -0.4 -1.2 -1 -1.2 -0.6 0 -1 3 -1 7 0 4 0.4 7 1 7 0.6 0 1 -1.8 1 -4.1z m24.4 2.5 c2.2 -2.1 0.9 -4 -1.3 -2 -2.4 2.2 -5.8 2 -7.1 -0.4 -1 -1.9 -0.8 -2 4.5 -2 5 0 5.5 -0.2 5.5 -2.2 0 -5.5 -8.3 -8.1 -11.4 -3.6 -2.1 2.9 -2 7.7 0.1 10 2 2.2 7.6 2.4 9.7 0.2z m7.6 -8.4 c0 -8.2 -0.3 -10 -1.5 -10 -1.2 0 -1.5 1.8 -1.5 10 0 8.2 0.3 10 1.5 10 1.2 0 1.5 -1.8 1.5 -10z m32 9 c0 -0.5 -2.1 -1 -4.7 -1 l-4.8 0 4.8 -4.4 c4.9 -4.5 6.2 -8.7 3.5 -11.4 -2.8 -2.8 -10.8 -0.7 -10.8 2.8 0 2.6 1.2 2.5 2.8 0 1.6 -2.7 5.9 -2.6 6.7 0.1 0.5 1.6 -0.6 3.3 -4.9 7.9 -3.1 3.2 -5.6 6.1 -5.6 6.4 0 0.3 2.9 0.6 6.5 0.6 3.7 0 6.5 -0.4 6.5 -1z m7 -1.5 c0.7 -1.4 1.6 -2.5 2 -2.5 0.4 0 1.3 1.1 2 2.5 0.7 1.4 2 2.5 2.7 2.5 1 0 0.8 -1 -0.9 -3.8 l-2.2 -3.9 2.3 -3.1 c1.7 -2.4 1.9 -3.2 0.8 -3.2 -0.8 0 -2.2 1 -3.1 2.3 l-1.6 2.2 -1.6 -2.2 c-0.9 -1.3 -2.3 -2.3 -3.1 -2.3 -1.1 0 -0.9 0.8 0.8 3.2 l2.3 3.1 -2.2 3.9 c-1.7 2.8 -1.9 3.8 -0.9 3.8 0.7 0 2 -1.1 2.7 -2.5z m23 1.5 c0 -0.5 -2.1 -1 -4.7 -1 l-4.8 0 4.8 -4.6 c6.9 -6.8 6.4 -12.4 -1.3 -12.4 -4 0 -6 1.4 -6 4.2 0 2.4 1.6 2.3 2.3 -0.2 0.7 -2.9 6.3 -2.8 7.2 0.1 0.6 1.7 -0.5 3.3 -4.9 7.8 -3.1 3.1 -5.6 6 -5.6 6.4 0 0.4 2.9 0.7 6.5 0.7 3.7 0 6.5 -0.4 6.5 -1z m-45.5 -5.5 c0 -1.1 -9.9 -2 -12.2 -1.1 -0.8 0.3 -1.1 1.1 -0.8 1.6 0.8 1.4 13 0.9 13 -0.5z m0 -6 c0 -1.1 -9.9 -2 -12.2 -1.1 -0.8 0.3 -1.1 1.1 -0.8 1.6 0.8 1.4 13 0.9 13 -0.5z m47.7 -16.2 c1.5 -1.3 1.8 -3.1 1.8 -9.7 l0 -8.2 -4.5 -0.2 c-4.8 -0.2 -7.1 1.3 -8.1 5.2 -1.3 5.2 3.7 10.6 7.9 8.4 2.4 -1.2 3.4 -0.2 2.1 2 -1.4 2.1 -5 2.7 -7 1.1 -1.9 -1.6 -3 -0.4 -1.4 1.6 1.7 2 6.9 1.9 9.2 -0.2z m-139.1 -11.5 c0 -8.9 0.1 -8.9 4.1 1.7 1.3 3.3 2.7 5.9 3.3 5.8 0.5 -0.1 2.2 -3.4 3.7 -7.5 l2.6 -7.3 0.4 7.5 c0.5 11.1 2.3 9.2 2.6 -2.7 0.2 -9.5 0.1 -10.3 -1.6 -10.3 -1.4 0 -2.3 1.4 -3.6 5.5 -0.9 3.1 -2.3 7 -3 8.7 l-1.4 3.1 -2.8 -8.6 c-2.1 -6.7 -3.2 -8.7 -4.6 -8.7 -1.6 0 -1.8 1.1 -1.8 10.5 0 6.3 0.4 10.5 1 10.5 0.6 0 1 -3.5 1.1 -8.2z m31.9 -4.8 c-0.7 -1.4 -2.1 -2 -4.3 -2 -3.5 0 -7.7 2.3 -6.5 3.6 0.4 0.4 1.4 0.1 2.2 -0.5 1.9 -1.6 6.1 -1 6.1 0.9 0 0.9 -1.4 1.7 -3.9 2.1 -8.4 1.4 -7.1 8.8 1.4 7.6 2.5 -0.3 4.3 -0.1 4.7 0.6 1.3 1.9 1.5 -10 0.3 -12.3z m12.2 10.2 c3.5 4.5 4.6 2.9 1.4 -1.8 l-2.5 -3.8 2.5 -3.3 c1.8 -2.4 2.1 -3.3 1 -3.3 -0.8 0 -2.3 1.2 -3.3 2.6 l-1.9 2.5 -1.4 -2.5 c-0.7 -1.4 -1.9 -2.6 -2.7 -2.6 -1.8 0 -1.7 0.6 0.8 4 l2.2 2.8 -2.2 3 c-3.1 4.4 -2.5 6.3 0.8 2.4 l2.8 -3.3 2.5 3.3z m9.8 -2.3 l0 -3.9 4.2 0 c5 0 7.8 -2.2 7.8 -6.1 0 -3.9 -3.3 -5.9 -9.7 -5.9 l-5.3 0 0 9.8 c0 5.4 0.3 10.2 0.6 10.5 1.4 1.3 2.4 -0.6 2.4 -4.4z m26.3 2.3 c2.6 -2.3 2.3 -8.7 -0.5 -10.6 -5.1 -3.6 -10.8 -0.7 -10.8 5.3 0 6.9 6.1 9.7 11.3 5.3z m16 0 c2.4 -2.1 2.2 -7.7 -0.3 -10.2 -3.8 -3.8 -10.7 -1.6 -11.1 3.6 -0.5 5 0.2 6.5 3.3 7.8 3.4 1.5 5.3 1.2 8.1 -1.2z m6.7 -7.7 c0 -6.3 -0.4 -10.5 -1 -10.5 -1.1 0 -1.4 19.2 -0.3 20.3 1.2 1.3 1.3 0.7 1.3 -9.8z m7 2.4 c0 -5.5 -0.3 -6.9 -1.5 -6.9 -1.2 0 -1.5 1.4 -1.5 6.8 0 3.8 0.3 7.2 0.6 7.5 1.6 1.6 2.4 -0.9 2.4 -7.4z m6.2 1.7 c0.3 -5.2 2.2 -7.4 5.2 -6.3 1.2 0.5 1.6 2 1.6 6.1 0 3 0.5 5.8 1 6.1 1.5 0.9 1.3 -11.8 -0.2 -13.3 -0.7 -0.7 -2.1 -1.2 -3.3 -1.2 -1.2 0 -2.6 0.5 -3.3 1.2 -0.9 0.9 -1.2 0.9 -1.2 0 0 -0.7 -0.4 -1.2 -1 -1.2 -0.6 0 -1 3.2 -1 7.7 0 8.5 1.7 9.2 2.2 0.9z m-6.2 -13.2 c0 -0.9 -0.5 -1.4 -1.2 -1.2 -1.8 0.6 -2.1 2.8 -0.4 2.8 0.9 0 1.6 -0.7 1.6 -1.6z"/>
  <path d="M1192.2 158.8 c-3 -3 -0.4 -9.4 3.5 -8.6 2.3 0.4 4.1 5.3 2.7 7.6 -1.4 2.1 -4.5 2.7 -6.2 1z"/>
  <path d="M1207 152.5 c0 -2 4.6 -3 6.5 -1.5 2.5 2.1 1.7 3 -2.5 3 -2.9 0 -4 -0.4 -4 -1.5z"/>
  <path d="M1149.2 119.3 c0.4 -2.2 4.4 -2.9 6.4 -1.3 2.4 2.1 1.6 3 -2.7 3 -3.3 0 -4 -0.3 -3.7 -1.7z"/>
  <path d="M1190.2 119.3 c0.5 -2.7 5.4 -2.9 6.8 -0.4 1 2 0.8 2.1 -3 2.1 -3.4 0 -4.1 -0.3 -3.8 -1.7z"/>
  <path d="M1262.7 93.4 c-1.3 -1.3 -0.7 -7.1 0.8 -8.4 0.8 -0.6 2.2 -1 3.2 -0.8 2.3 0.4 4.1 5.3 2.7 7.6 -1.2 1.8 -5.5 2.8 -6.7 1.6z"/>
  <path d="M1155.1 94.1 c-2.2 -1.4 -0.6 -3.8 2.8 -4.3 2.5 -0.4 3.1 -0.1 3.1 1.3 0 1 -0.9 2.3 -1.9 2.9 -2.3 1.2 -2.2 1.2 -4 0.1z"/>
  <path d="M1185 82.5 c0 -3.5 0 -3.5 4.4 -3.5 3.9 0 5.6 1.1 5.6 3.5 0 1.5 -3.8 3.5 -6.6 3.5 -3.2 0 -3.4 -0.2 -3.4 -3.5z"/>
  <path d="M1204.2 93.4 c-3.8 -2.7 -2.1 -9.4 2.3 -9.4 4.6 0 5.9 7.7 1.6 9.9 -1.3 0.7 -2.4 0.6 -3.9 -0.5z"/>
  <path d="M1219.2 92.8 c-1.7 -1.7 -1.5 -6.3 0.3 -7.8 2.1 -1.7 6.1 -0.5 6.8 2.1 0.9 3.4 -0.9 6.9 -3.6 6.9 -1.3 0 -2.8 -0.5 -3.5 -1.2z"/>
  <path d="M497.8 140.8 l-0.3 -11.3 -23.2 -0.3 -23.3 -0.2 0 -10.5 0 -10.5 23.3 -0.2 23.2 -0.3 0.3 -11.2 0.3 -11.2 20.2 16.5 c11.1 9 20.2 16.8 20.2 17.3 0 0.7 -36 30.4 -39.3 32.5 -0.8 0.5 -1.2 -2.5 -1.4 -10.6z"/>
  <path d="M779.8 140.8 l-0.3 -11.3 -23.2 -0.3 -23.3 -0.2 0 -10.5 0 -10.5 23.5 0 23.4 0 0.3 -11.5 0.3 -11.4 20.3 16.5 c11.1 9.1 20.2 16.8 20.2 17.3 0 0.7 -39.5 33.1 -40.4 33.1 -0.3 0 -0.7 -5.1 -0.8 -11.2z"/>
  <path d="M1062.8 140.8 l-0.3 -11.3 -23.2 -0.3 -23.3 -0.2 0 -10.5 0 -10.5 23.3 -0.2 23.2 -0.3 0.3 -10.7 c0.1 -6 0.5 -10.8 0.8 -10.8 0.8 0 39.9 32 40.1 32.8 0.1 0.6 -29.6 25.1 -38.2 31.5 l-2.4 1.8 -0.3 -11.3z"/>
  <path d="M1373.5 220.4 c-3.3 -3.3 0.4 -9.2 4.3 -6.8 0.9 0.6 1.8 2 2 3.1 0.3 2 -2.1 5.3 -3.8 5.3 -0.5 0 -1.6 -0.7 -2.5 -1.6z"/>
  <path d="M5 192.3 c0 -0.5 1.4 -2.4 3 -4.3 l2.9 -3.5 0.1 4.3 c0 4 -0.1 4.2 -3 4.2 -1.6 0 -3 -0.3 -3 -0.7z"/>
  <path d="M20.7 191.8 c0.5 -0.7 1.9 -2.6 3.1 -4.2 l2.2 -2.9 0 4.2 c0 3.9 -0.1 4.1 -3.1 4.1 -2.4 0 -2.9 -0.3 -2.2 -1.2z"/>
  <path d="M38.3 197.3 c-1.8 -0.7 -1.6 -4.8 0.2 -6.3 2.1 -1.7 6.5 0.2 6.5 2.8 0 3.3 -3.1 5 -6.7 3.5z"/>
  <path d="M37.6 186.3 c-0.7 -1.6 1.6 -4.3 3.5 -4.3 1.4 0 3.1 3 2.5 4.5 -0.8 2.1 -5.2 1.9 -6 -0.2z"/>
  <path d="M67.7 189.9 c3.2 -5.4 4.3 -5.7 4.3 -1 0 3.9 -0.1 4.1 -3.1 4.1 l-3 0 1.8 -3.1z"/>
  <path d="M82 192.2 c0 -0.4 1.3 -2.3 3 -4.2 l2.9 -3.5 0.1 4.3 c0 4 -0.1 4.2 -3 4.2 -1.6 0 -3 -0.4 -3 -0.8z"/>
  <path d="M99.2 196.8 c-3.2 -3.2 0.8 -8 4.8 -5.8 3.4 1.8 1.9 7 -2 7 -0.9 0 -2.1 -0.5 -2.8 -1.2z"/>
  <path d="M99.7 187.4 c-1.2 -1.3 -0.8 -4.2 0.8 -4.8 2.5 -0.9 4.6 0.5 4.3 2.8 -0.3 2.1 -3.7 3.4 -5.1 2z"/>
  <path d="M145 141 c0 -8 -0.3 -11.2 -1.2 -11.4 -0.9 -0.3 -107.6 -1.5 -139 -1.6 -1.4 0 -1.7 -0.7 -1.4 -3.7 0.3 -2.1 0.5 -6.9 0.5 -10.6 l0.1 -6.8 70.5 0.7 70.4 0.7 0.3 -11.7 0.3 -11.6 20 16.5 c11 9.1 20.1 16.9 20.2 17.3 0.1 0.4 -6.6 6.1 -14.9 12.7 -8.3 6.6 -17.5 13.9 -20.4 16.3 l-5.4 4.4 0 -11.2z"/>
  <path d="M1420.9 30.6 c-1.5 -3.3 0.4 -5.8 4 -5.4 2.2 0.3 2.6 0.8 2.6 3.8 0 3.1 -0.3 3.5 -2.7 3.8 -2.2 0.3 -3 -0.2 -3.9 -2.2z"/>
  <path d="M1435.7 26.8 c0.5 -0.7 1.9 -2.6 3.1 -4.2 l2.2 -2.9 0 4.2 c0 3.9 -0.1 4.1 -3.1 4.1 -2.4 0 -2.9 -0.3 -2.2 -1.2z"/>
  <path d="M1491.4 31.6 c-1.3 -3.3 0 -5.1 3.6 -5.1 3.2 0 3.5 0.2 3.5 3 0 2.7 -0.4 3 -3.3 3.3 -2.2 0.2 -3.4 -0.2 -3.8 -1.2z"/>
  <path d="M1492 20.4 c0 -2.2 0.4 -2.5 2.8 -2.2 1.9 0.2 2.8 0.9 3 2.6 0.3 1.9 -0.1 2.2 -2.7 2.2 -2.7 0 -3.1 -0.4 -3.1 -2.6z"/>
  <path d="M1547 31.6 c-0.6 -0.8 -1 -2.5 -0.8 -3.8 0.2 -1.8 1 -2.4 3.5 -2.6 2.8 -0.3 3.3 0.1 3.9 2.3 1.1 4.5 -3.7 7.5 -6.6 4.1z"/>
 </g>
</svg>